Division,WeightClassKg,Place,Name,Team,BodyweightKg,Best3SquatKg,Best3BenchKg,Best3DeadliftKg,TotalKg,Equipment,Event,Sex
Boys,51.71,1,JaCorey Adkins,Richardson Berkner,51.35,77.11,43.09,92.99,213.19,Single-ply,SBD,M
Boys,59.87,1,Angel Mendoza,Richardson Pearce,56.84,92.99,56.7,102.06,251.74,Single-ply,SBD,M
Boys,59.87,2,Zach Brooks,Lucas Lovejoy,58.6,,79.38,120.2,199.58,Single-ply,BD,M
Boys,67.13,1,Chris Silva,Richardson Pearce,62.96,142.88,83.91,145.15,371.95,Single-ply,SBD,M
Boys,67.13,2,Matthew Navarez,Richardson Pearce,64.86,124.74,102.06,133.81,360.61,Single-ply,SBD,M
Boys,67.13,3,Kevin Vay,Richardson Berkner,67.04,102.06,74.84,136.08,312.98,Single-ply,SBD,M
Boys,67.13,4,Tyrone Reeves,Richardson Berkner,64.05,102.06,61.23,136.08,299.37,Single-ply,SBD,M
Boys,67.13,5,Brandt Brock,Dallas Highland Park,65.36,102.06,54.43,113.4,269.89,Single-ply,SBD,M
Boys,67.13,6,Kyle Kurtz,Dallas Highland Park,61.23,90.72,61.23,104.33,256.28,Single-ply,SBD,M
Boys,74.84,1,Kailon Fisher,Richardson Berkner,74.84,158.76,79.38,192.78,430.91,Single-ply,SBD,M
Boys,74.84,2,Brittain Skinner,Richardson Pearce,69.22,158.76,90.72,158.76,408.23,Single-ply,SBD,M
Boys,74.84,3,Otis Blanton,Richardson Pearce,74.84,142.88,95.25,158.76,396.89,Single-ply,SBD,M
Boys,74.84,4,Austin Petersen,Richardson Pearce,70.4,145.15,92.99,145.15,383.29,Single-ply,SBD,M
Boys,74.84,5,Justin Sims,Richardson Berkner,73.8,138.35,81.65,149.69,369.68,Single-ply,SBD,M
Boys,74.84,6,Blake Pfaff,Lucas Lovejoy,73.12,151.95,72.57,142.88,367.41,Single-ply,SBD,M
Boys,74.84,7,Bobby Guerro,Richardson Pearce,67.4,120.2,81.65,133.81,335.66,Single-ply,SBD,M
Boys,74.84,8,Chris Repak,Lucas Lovejoy,69.49,104.33,58.97,97.52,260.82,Single-ply,SBD,M
Boys,74.84,9,J'lon Jones,Richardson Berkner,70.03,,56.7,136.08,192.78,Single-ply,BD,M
Boys,82.1,1,Za'shone Lindley,Richardson Berkner,79.65,136.08,72.57,158.76,367.41,Single-ply,SBD,M
Boys,82.1,2,Ryan Webb #3,Dallas Highland Park,75.75,117.93,52.16,131.54,301.64,Single-ply,SBD,M
Boys,82.1,3,Dalton Lindelof,Lucas Lovejoy,77.11,145.15,,136.08,281.23,Single-ply,SD,M
Boys,82.1,4,Hudson Soetenga,Dallas Highland Park,82.05,104.33,61.23,104.33,269.89,Single-ply,SBD,M
Boys,82.1,5,Owen Dunston,Dallas Highland Park,77.84,106.59,58.97,99.79,265.35,Single-ply,SBD,M
Boys,82.1,6,Jared Williams,Lucas Lovejoy,76.84,74.84,,79.38,154.22,Single-ply,SD,M
Boys,89.81,1,Christian Bennett,Richardson Berkner,87.09,181.44,95.25,188.24,464.93,Single-ply,SBD,M
Boys,89.81,2,Michael Kohoto,Richardson Pearce,82.69,127.01,92.99,142.88,362.87,Single-ply,SBD,M
Boys,89.81,3,Will Rhodes,Dallas Highland Park,84.91,113.4,65.77,136.08,315.25,Single-ply,SBD,M
Boys,99.79,1,Noble Nash,Dallas Highland Park,95.66,181.44,102.06,172.37,455.86,Single-ply,SBD,M
Boys,99.79,2,Jack Huffman,Richardson Berkner,96.62,158.76,97.52,183.7,439.98,Single-ply,SBD,M
Boys,99.79,3,Sergio Arriaga,Lucas Lovejoy,94.21,165.56,97.52,140.61,403.7,Single-ply,SBD,M
Boys,99.79,4,Ryan Butz,Dallas Highland Park,91.04,124.74,81.65,145.15,351.53,Single-ply,SBD,M
Boys,99.79,5,Calvin Kean,Dallas Highland Park,90.04,127.01,81.65,136.08,344.73,Single-ply,SBD,M
Boys,99.79,6,Weston Hall,Lucas Lovejoy,91.76,124.74,83.91,124.74,333.39,Single-ply,SBD,M
Boys,99.79,7,Tyler Kilgus,Dallas Highland Park,95.93,90.72,61.23,120.2,272.16,Single-ply,SBD,M
Boys,99.79,DQ,Griffin Hunt,Lucas Lovejoy,99.79,113.4,83.91,102.06,,Single-ply,SBD,M
Boys,109.77,1,Johnny Alfaro,Richardson Berkner,107.32,204.12,113.4,183.7,501.22,Single-ply,SBD,M
Boys,109.77,2,Patrick Ancelin,Richardson Pearce,109.59,183.7,104.33,158.76,446.79,Single-ply,SBD,M
Boys,109.77,3,John Michael Estes,Lucas Lovejoy,99.84,117.93,92.99,120.2,331.12,Single-ply,SBD,M
Boys,109.77,4,Cannon Kilgus,Dallas Highland Park,104.51,127.01,63.5,127.01,317.51,Single-ply,SBD,M
Boys,124.74+,1,Jack Davis #1,Richardson Pearce,127.82,224.53,165.56,224.53,614.62,Single-ply,SBD,M
Boys,124.74+,2,Hunter May,Richardson Pearce,129.36,174.63,95.25,142.88,412.77,Single-ply,SBD,M
