Division,WeightClassKg,Place,Name,Team,BodyweightKg,Best3SquatKg,Best3BenchKg,Best3DeadliftKg,TotalKg,Equipment,Event,Sex
Girls,44.23,1,Lucy Reveles,Mabank,44.09,97.52,47.63,108.86,254.01,Single-ply,SBD,F
Girls,44.23,2,Jenny Burch,Brownsboro,43.09,88.45,29.48,86.18,204.12,Single-ply,SBD,F
Girls,44.23,3,Haley Walls,Fairfield,42.27,83.91,31.75,81.65,197.31,Single-ply,SBD,F
Girls,44.23,4,Caley Starkes,Mabank,43.54,81.65,36.29,74.84,192.78,Single-ply,SBD,F
Girls,44.23,5,Salara McCarter,Diboll,43.82,63.5,34.02,95.25,192.78,Single-ply,SBD,F
Girls,44.23,6,Joseline Vega,Ferris,41.37,65.77,34.02,83.91,183.7,Single-ply,SBD,F
Girls,44.23,7,Melissa McEnturff,Emory Rains,43.27,74.84,36.29,72.57,183.7,Single-ply,SBD,F
Girls,44.23,8,Genesis Loredo,Brownsboro,42.18,52.16,24.95,72.57,149.69,Single-ply,SBD,F
Girls,44.23,DQ,Sophie Ethridge,Gilmer,42.91,58.97,,,,Single-ply,SBD,F
Girls,47.85,1,Rebekah Bratcher,Canton,47.08,108.86,54.43,97.52,260.82,Single-ply,SBD,F
Girls,47.85,2,Gena Stotts,Mabank,47.72,99.79,47.63,102.06,249.48,Single-ply,SBD,F
Girls,47.85,3,Kelsie Clark,Mabank,47.08,88.45,54.43,99.79,242.67,Single-ply,SBD,F
Girls,47.85,4,Nikki Lira,Athens,46.9,79.38,38.56,95.25,213.19,Single-ply,SBD,F
Girls,47.85,5,Taylor Smith,Canton,46.54,65.77,31.75,90.72,188.24,Single-ply,SBD,F
Girls,47.85,6,Aubrey Gowin,Emory Rains,46.72,61.23,34.02,86.18,181.44,Single-ply,SBD,F
Girls,47.85,7,Taya Cook,Crandall,47.54,56.7,34.02,83.91,174.63,Single-ply,SBD,F
Girls,47.85,8,Sam Garcia,Ferris,45.54,49.9,29.48,88.45,167.83,Single-ply,SBD,F
Girls,47.85,9,Priscilla Alvarez,Huntington,47.54,61.23,29.48,77.11,167.83,Single-ply,SBD,F
Girls,51.94,1,Kelsey Green,Bullard,50.53,147.42,70.31,120.2,337.93,Single-ply,SBD,F
Girls,51.94,2,Marci Whittington,Canton,51.53,117.93,61.23,122.47,301.64,Single-ply,SBD,F
Girls,51.94,3,Lexi Hawkins,Mabank,49.8,115.67,56.7,117.93,290.3,Single-ply,SBD,F
Girls,51.94,4,Rachel Green,Brownsboro,50.98,106.59,52.16,120.2,278.96,Single-ply,SBD,F
Girls,51.94,5,Erin Reeder,Mabank,50.26,104.33,56.7,95.25,256.28,Single-ply,SBD,F
Girls,51.94,6,Libby Berry,Rusk,50.08,99.79,43.09,104.33,247.21,Single-ply,SBD,F
Girls,51.94,7,Emily Anguiano,Mabank,51.8,104.33,38.56,97.52,240.4,Single-ply,SBD,F
Girls,51.94,8,Taylor Davis,Crandall,50.26,99.79,36.29,102.06,238.14,Single-ply,SBD,F
Girls,51.94,9,Flor Perez,Rusk,50.08,79.38,29.48,97.52,206.38,Single-ply,SBD,F
Girls,51.94,DQ,Maddie Sander,Palestine,51.62,,,,,Single-ply,SBD,F
Girls,51.94,DQ,Katherine Neystel,Canton,51.53,104.33,,,,Single-ply,SBD,F
Girls,56.02,1,Adrienne Branch,Gilmer,54.52,111.13,54.43,149.69,315.25,Single-ply,SBD,F
Girls,56.02,2,Justice Storey,Canton,54.61,127.01,63.5,124.74,315.25,Single-ply,SBD,F
Girls,56.02,3,Shelby Wallace,Fairfield,54.98,115.67,58.97,122.47,297.1,Single-ply,SBD,F
Girls,56.02,4,Kayedon Oliver,Paris North Lamar,54.16,115.67,63.5,115.67,294.84,Single-ply,SBD,F
Girls,56.02,5,Callie Wycough,Canton,55.61,120.2,58.97,115.67,294.84,Single-ply,SBD,F
Girls,56.02,6,Emily Millender,Brownsboro,55.43,113.4,45.36,129.27,288.03,Single-ply,SBD,F
Girls,56.02,7,Laura Garcia,Emory Rains,55.79,111.13,45.36,120.2,276.69,Single-ply,SBD,F
Girls,56.02,8,Kaylor Williams,Tyler Chapel Hill,54.34,106.59,47.63,117.93,272.16,Single-ply,SBD,F
Girls,56.02,9,Kendol Pitts,Tyler Chapel Hill,53.89,104.33,54.43,111.13,269.89,Single-ply,SBD,F
Girls,56.02,DQ,Kayla Honea,Brownsboro,54.88,106.59,52.16,142.88,,Single-ply,SBD,F
Girls,56.02,DQ,Sydney Stewart,Canton,54.07,115.67,58.97,111.13,,Single-ply,SBD,F
Girls,60.1,1,Deshanna Denton,Wills Point,59.15,133.81,68.04,165.56,367.41,Single-ply,SBD,F
Girls,60.1,2,Madison Bass,Canton,59.06,136.08,56.7,147.42,340.19,Single-ply,SBD,F
Girls,60.1,3,Shelby Hailey,Mabank,58.51,120.2,63.5,131.54,315.25,Single-ply,SBD,F
Girls,60.1,4,Kate Kiser,Emory Rains,56.25,122.47,52.16,124.74,299.37,Single-ply,SBD,F
Girls,60.1,5,Victoria Clark,Huntington,58.88,104.33,63.5,124.74,292.57,Single-ply,SBD,F
Girls,60.1,6,Claudia Young,Bullard,57.42,117.93,54.43,113.4,285.76,Single-ply,SBD,F
Girls,60.1,7,Shanecia Baker,Tyler Chapel Hill,59.6,97.52,47.63,140.61,285.76,Single-ply,SBD,F
Girls,60.1,8,Lorna Henderson,Canton,57.7,108.86,47.63,124.74,281.23,Single-ply,SBD,F
Girls,60.1,9,Cheyenne Fugate,Van,58.97,104.33,52.16,117.93,274.42,Single-ply,SBD,F
Girls,60.1,10,Wendi Pacheco,Athens,57.15,113.4,52.16,106.59,272.16,Single-ply,SBD,F
Girls,60.1,11,Kendall Riley,Mabank,58.6,102.06,52.16,113.4,267.62,Single-ply,SBD,F
Girls,60.1,DQ,Nichole Howard,Kaufman,56.97,127.01,52.16,136.08,,Single-ply,SBD,F
Girls,67.36,1,Kennedy Key,Bullard,66.04,181.44,92.99,163.29,437.72,Single-ply,SBD,F
Girls,67.36,2,Mallorie Sander,Palestine,64.95,165.56,63.5,151.95,381.02,Single-ply,SBD,F
Girls,67.36,3,Anna Hooten,Emory Rains,65.14,149.69,70.31,154.22,374.21,Single-ply,SBD,F
Girls,67.36,4,Kylie Conner,Canton,63.41,136.08,63.5,158.76,358.34,Single-ply,SBD,F
Girls,67.36,5,Melanie Torres,Fairfield,66.41,145.15,58.97,149.69,353.8,Single-ply,SBD,F
Girls,67.36,6,Romie Castelleja,Diboll,66.13,140.61,65.77,142.88,349.27,Single-ply,SBD,F
Girls,67.36,7,Ryley Hudspeth,Center,65.86,127.01,63.5,142.88,333.39,Single-ply,SBD,F
Girls,67.36,8,Shyanne Vinson,Mabank,66.5,122.47,58.97,142.88,324.32,Single-ply,SBD,F
Girls,67.36,9,Brennan Barnett,Crandall,64.41,142.88,56.7,122.47,322.05,Single-ply,SBD,F
Girls,67.36,10,Shiann Rice,Paris North Lamar,64.86,111.13,63.5,138.35,312.98,Single-ply,SBD,F
Girls,67.36,11,Lacey Boney,Fairfield,65.68,113.4,54.43,122.47,290.3,Single-ply,SBD,F
Girls,67.36,DQ,Dominic Noble,Gilmer,64.5,,,,,Single-ply,SBD,F
Girls,75.07,1,Talor Parker,Emory Rains,70.58,181.44,95.25,163.29,439.98,Single-ply,SBD,F
Girls,75.07,2,Aundrea Jackson,Ferris,67.49,145.15,54.43,151.95,351.53,Single-ply,SBD,F
Girls,75.07,3,Jamie Wilkinson,Fairfield,71.21,145.15,68.04,120.2,333.39,Single-ply,SBD,F
Girls,75.07,4,Deja Sikes,Paris,73.03,129.27,61.23,131.54,322.05,Single-ply,SBD,F
Girls,75.07,5,Cadi Cantrell,Gilmer,73.12,129.27,56.7,136.08,322.05,Single-ply,SBD,F
Girls,75.07,6,Kallie Butler,Fairfield,72.94,124.74,61.23,129.27,315.25,Single-ply,SBD,F
Girls,75.07,7,Bree Thompson,Athens,72.03,117.93,65.77,129.27,312.98,Single-ply,SBD,F
Girls,75.07,8,Justice Oates,Fairfield,67.4,142.88,58.97,108.86,310.71,Single-ply,SBD,F
Girls,75.07,9,Kaylee Burchfield,Brownsboro,74.03,108.86,56.7,142.88,308.44,Single-ply,SBD,F
Girls,75.07,10,Jocalynn Fountain,Gilmer,70.49,117.93,49.9,127.01,294.84,Single-ply,SBD,F
Girls,75.07,DQ,Infiniti Morrow,Palestine,70.85,133.81,56.7,,,Single-ply,SBD,F
Girls,82.33,1,Alyssa Spence,Canton,81.65,161.03,72.57,161.03,394.63,Single-ply,SBD,F
Girls,82.33,2,Ruby Gutierrez,Brownsboro,81.1,163.29,70.31,149.69,383.29,Single-ply,SBD,F
Girls,82.33,3,Riley Clifton,Emory Rains,75.11,163.29,74.84,138.35,376.48,Single-ply,SBD,F
Girls,82.33,4,Arlinda Luckey,Texarkana Liberty-Eylau,77.66,154.22,77.11,138.35,369.68,Single-ply,SBD,F
Girls,82.33,5,Sherra Holt,Tyler Chapel Hill,75.39,142.88,61.23,136.08,340.19,Single-ply,SBD,F
Girls,82.33,6,Sydney Hurley,Diboll,76.84,145.15,49.9,140.61,335.66,Single-ply,SBD,F
Girls,82.33,7,Madi Wear,Paris,79.2,136.08,54.43,131.54,322.05,Single-ply,SBD,F
Girls,82.33,8,Ashley Torres,Crandall,75.21,136.08,52.16,122.47,310.71,Single-ply,SBD,F
Girls,82.33,9,Takaira Scott,Ferris,79.47,115.67,56.7,136.08,308.44,Single-ply,SBD,F
Girls,82.33,10,Kay'd Lamar,Paris,79.65,117.93,63.5,127.01,308.44,Single-ply,SBD,F
Girls,90.04,1,Lacey Tillis,Palestine,87.63,154.22,68.04,201.85,424.11,Single-ply,SBD,F
Girls,90.04,2,Olivia Rodriguez,Bullard,84.28,181.44,83.91,156.49,421.84,Single-ply,SBD,F
Girls,90.04,3,Erica Wesley,Gilmer,86.73,154.22,63.5,145.15,362.87,Single-ply,SBD,F
Girls,90.04,4,Taylor Helm,Paris,89.09,140.61,70.31,136.08,347,Single-ply,SBD,F
Girls,90.04,5,Brittany French,Texarkana Liberty-Eylau,89.99,142.88,65.77,129.27,337.93,Single-ply,SBD,F
Girls,90.04,6,Tatum Aguilar,Huntington,89.81,136.08,63.5,136.08,335.66,Single-ply,SBD,F
Girls,90.04,7,Josie Fuller,Canton,87.27,131.54,61.23,122.47,315.25,Single-ply,SBD,F
Girls,90.04,8,Ashlynn Stewart,Athens,88.09,124.74,58.97,129.27,312.98,Single-ply,SBD,F
Girls,90.04,9,Brenda Conde,Brownsboro,84.01,117.93,52.16,117.93,288.03,Single-ply,SBD,F
Girls,90.04,10,Stormy Duran,Rusk,87.45,113.4,49.9,122.47,285.76,Single-ply,SBD,F
Girls,90.04,11,Montana Grimes,Huntington,89.54,102.06,63.5,102.06,267.62,Single-ply,SBD,F
Girls,100.02,1,Tyler Criddle,Gilmer,91.81,158.76,65.77,158.76,383.29,Single-ply,SBD,F
Girls,100.02,2,Kirbee Taylor,Emory Rains,94.44,149.69,86.18,136.08,371.95,Single-ply,SBD,F
Girls,100.02,3,Alexandra Nelson,Texarkana Liberty-Eylau,98.16,158.76,58.97,154.22,371.95,Single-ply,SBD,F
Girls,100.02,4,Rachel Andrews,Center,98.79,158.76,70.31,142.88,371.95,Single-ply,SBD,F
Girls,100.02,5,Joanna Crosby,Emory Rains,95.44,158.76,63.5,136.08,358.34,Single-ply,SBD,F
Girls,100.02,6,Mariah Castillo,Palestine,92.62,147.42,58.97,145.15,351.53,Single-ply,SBD,F
Girls,100.02,7,Savanna Wilson,Brownsboro,97.98,142.88,61.23,138.35,342.46,Single-ply,SBD,F
Girls,100.02,8,Daija Barnes,Ferris,99.25,117.93,54.43,138.35,310.71,Single-ply,SBD,F
Girls,100.02,9,Karisty Hopper,Fairfield,98.52,136.08,58.97,113.4,308.44,Single-ply,SBD,F
Girls,100.02,10,Cheyenne Hudleston,Wills Point,92.08,129.27,52.16,124.74,306.17,Single-ply,SBD,F
Girls,100.02,11,Ingrid Castaneda,Athens,97.7,113.4,56.7,120.2,290.3,Single-ply,SBD,F
Girls,100.02,12,Tori Robins,Texarkana Liberty-Eylau,92.17,113.4,56.7,117.93,288.03,Single-ply,SBD,F
Girls,100.02,13,Hannah Austin,Ferris,94.62,99.79,54.43,127.01,281.23,Single-ply,SBD,F
Girls,100.02,DQ,Jessica Hill,Fairfield,98.52,,,,,Single-ply,SBD,F
Girls,100.02+,1,Priscilla Wallace,Tyler Chapel Hill,146.42,208.65,95.25,179.17,483.08,Single-ply,SBD,F
Girls,100.02+,2,Becca Roberts,Van,139.25,199.58,83.91,161.03,444.52,Single-ply,SBD,F
Girls,100.02+,3,Adaija Criss,Tyler Chapel Hill,119.75,181.44,88.45,165.56,435.45,Single-ply,SBD,F
Girls,100.02+,4,Ali Lombas,Emory Rains,158.49,181.44,99.79,136.08,417.3,Single-ply,SBD,F
Girls,100.02+,5,Kiara Menefee,Diboll,129.64,154.22,102.06,147.42,403.7,Single-ply,SBD,F
Girls,100.02+,6,Taylor Criddle,Gilmer,108.41,158.76,68.04,158.76,385.55,Single-ply,SBD,F
Girls,100.02+,7,Justine Elliott,Tyler Chapel Hill,108.77,165.56,72.57,147.42,385.55,Single-ply,SBD,F
Girls,100.02+,8,Makayla Frankum,Crandall,112.22,181.44,65.77,138.35,385.55,Single-ply,SBD,F
Girls,100.02+,9,Deana Lane,Mabank,104.42,156.49,83.91,117.93,358.34,Single-ply,SBD,F
Girls,100.02+,10,Tierra Yates,Paris,123.38,136.08,58.97,127.01,322.05,Single-ply,SBD,F
Girls,100.02+,11,Amber Turner,Mabank,125.1,127.01,70.31,122.47,319.78,Single-ply,SBD,F
Girls,100.02+,12,Baileigh Hevron,Paris North Lamar,116.12,113.4,49.9,127.01,290.3,Single-ply,SBD,F
Girls,,NS,Erica Parks,Texarkana Liberty-Eylau,,,,,,Single-ply,SBD,F
Girls,,NS,Azlynn Mitchell,Emory Rains,,,,,,Single-ply,SBD,F
