Division,WeightClassKg,Place,Name,Team,BodyweightKg,Best3SquatKg,Best3BenchKg,Best3DeadliftKg,TotalKg,Equipment,Event,Sex
Boys,51.71,1,Ruben Sanchez,Meadow,51.48,90.72,63.5,138.35,292.57,Single-ply,SBD,M
Boys,55.79,1,Brett Salas,Lubbock Cooper,55.11,158.76,68.04,156.49,383.29,Single-ply,SBD,M
Boys,55.79,2,Rocky Currie,Wellman-Union,55.75,136.08,88.45,154.22,378.75,Single-ply,SBD,M
Boys,59.87,3,Zach Gass,Lubbock Cooper,56,129.27,72.57,142.88,344.73,Single-ply,SBD,M
Boys,55.79,4,Bruno Urbano,Meadow,55.34,117.93,63.5,138.35,319.78,Single-ply,SBD,M
Boys,59.87,5,Cailer Woolam,Lubbock Cooper,55.88,97.52,68.04,138.35,303.91,Single-ply,SBD,M
Boys,55.79,6,Garret Day,Lubbock Cooper,53.48,102.06,70.31,117.93,290.3,Single-ply,SBD,M
Boys,55.79,DQ,Dusty Rowcliff,Lubbock Roosevelt,55.25,81.65,,106.59,,Single-ply,SBD,M
Boys,67.13,1,Joell Lowdermilk,Tahoka,59.92,138.35,88.45,161.03,387.82,Single-ply,SBD,M
Boys,59.87,2,Cesar Retana,Meadow,59.19,92.99,49.9,115.67,258.55,Single-ply,SBD,M
Boys,67.13,1,Rico Rocha,Meadow,66.32,197.31,113.4,181.44,492.15,Single-ply,SBD,M
Boys,67.13,2,Michael Prieto,Lubbock Cooper,66.32,163.29,92.99,183.7,439.98,Single-ply,SBD,M
Boys,67.13,3,Nick Aguirre,Tahoka,64.14,149.69,97.52,156.49,403.7,Single-ply,SBD,M
Boys,67.13,4,Chance Cook,Tahoka,64.5,154.22,70.31,158.76,383.29,Single-ply,SBD,M
Boys,67.13,5,Paul Bright,Brownfield,60.37,154.22,74.84,149.69,378.75,Single-ply,SBD,M
Boys,67.13,6,Travis Allen,Lubbock Roosevelt,66.22,124.74,88.45,138.35,351.53,Single-ply,SBD,M
Boys,67.13,7,Juan Garcia,Meadow,66.81,122.47,65.77,147.42,335.66,Single-ply,SBD,M
Boys,67.13,8,Manuel Castillo,Meadow,64.64,99.79,61.23,156.49,317.51,Single-ply,SBD,M
Boys,67.13,9,Keagan Daniel,Lubbock Roosevelt,62.28,108.86,61.23,129.27,299.37,Single-ply,SBD,M
Boys,67.13,10,Jairo Castillo,Meadow,61.05,104.33,54.43,124.74,283.5,Single-ply,SBD,M
Boys,67.13,DQ,Robby Escobar,Sundown,63.82,131.54,,129.27,,Single-ply,SBD,M
Boys,67.13,DQ,Kenny Schuette,Lubbock Roosevelt,67.13,,,,,Single-ply,SBD,M
Boys,82.1,1,Randy Zamora,Meadow,74.98,183.7,115.67,192.78,492.15,Single-ply,SBD,M
Boys,74.84,2,Kyle Reno,Tahoka,73.39,158.76,115.67,190.51,464.93,Single-ply,SBD,M
Boys,74.84,3,Jg Crutcher,Wellman-Union,72.03,156.49,108.86,183.7,449.06,Single-ply,SBD,M
Boys,74.84,4,Robbie Stout,Lubbock Roosevelt,74.34,145.15,113.4,149.69,408.23,Single-ply,SBD,M
Boys,74.84,5,Julian Flores,Meadow,70.62,138.35,74.84,156.49,369.68,Single-ply,SBD,M
Boys,74.84,6,Kanan Kayasseh,Lubbock Cooper,73.71,124.74,79.38,147.42,351.53,Single-ply,SBD,M
Boys,74.84,7,Bryan Pena,Tahoka,74.3,136.08,86.18,129.27,351.53,Single-ply,SBD,M
Boys,82.1,1,Bryan Vela,Meadow,77.84,190.51,104.33,224.53,519.36,Single-ply,SBD,M
Boys,82.1,2,Chase Smith,Meadow,77.52,183.7,117.93,213.19,514.83,Single-ply,SBD,M
Boys,82.1,3,Lee Gamez,Brownfield,81.47,163.29,95.25,167.83,426.38,Single-ply,SBD,M
Boys,82.1,4,Pete Munoz,Brownfield,76.57,147.42,99.79,170.1,417.3,Single-ply,SBD,M
Boys,82.1,5,Devin Elmore,Sundown,81.87,145.15,95.25,136.08,376.48,Single-ply,SBD,M
Boys,82.1,6,Bryce McHam,Sundown,79.65,133.81,79.38,136.08,349.27,Single-ply,SBD,M
Boys,82.1,DQ,Jamie Bingham,Tahoka,78.24,,,,,Single-ply,SBD,M
Boys,82.1,DQ,D'marchus Davis,Lubbock Roosevelt,79.06,133.81,,181.44,,Single-ply,SBD,M
Boys,82.1,DQ,Dakota Moody,Sundown,82.1,,,,,Single-ply,SBD,M
Boys,82.1,DQ,Daniel Paiva,Brownfield,82.1,,,,,Single-ply,SBD,M
Boys,89.81,1,Richie Allen,Wellman-Union,84.82,190.51,108.86,206.38,505.76,Single-ply,SBD,M
Boys,89.81,2,Tim Bergara,Brownfield,89.4,176.9,124.74,199.58,501.22,Single-ply,SBD,M
Boys,89.81,3,Spencer Chance,Sundown,86.59,167.83,99.79,199.58,467.2,Single-ply,SBD,M
Boys,89.81,4,Trevor Priest,Sundown,85.32,156.49,108.86,195.04,460.4,Single-ply,SBD,M
Boys,99.79,5,Collin Mclarty,Lubbock Cooper,89.99,176.9,97.52,176.9,451.32,Single-ply,SBD,M
Boys,89.81,6,Johnnie Adkins,Lubbock Roosevelt,87.23,158.76,92.99,170.1,421.84,Single-ply,SBD,M
Boys,89.81,7,Ralph Kennedy,Lubbock Cooper,86.36,147.42,104.33,167.83,419.57,Single-ply,SBD,M
Boys,89.81,8,Jeff Smith,Lubbock Roosevelt,83.6,122.47,90.72,129.27,342.46,Single-ply,SBD,M
Boys,89.81,9,Ryan Cruz,Meadow,83.64,124.74,61.23,129.27,315.25,Single-ply,SBD,M
Boys,89.81,10,Caleb Vaught,Sundown,88.45,120.2,72.57,122.47,315.25,Single-ply,SBD,M
Boys,89.81,11,Adrian Marinelarena,Sundown,88.27,83.91,63.5,97.52,244.94,Single-ply,SBD,M
Boys,99.79,1,Richard Flores #5,Lubbock Roosevelt,94.62,199.58,147.42,199.58,546.58,Single-ply,SBD,M
Boys,99.79,2,Filberto Jaquez,Lubbock Cooper,97.79,210.92,136.08,181.44,528.44,Single-ply,SBD,M
Boys,99.79,3,John Tillery,Lubbock Cooper,92.94,213.19,108.86,181.44,503.49,Single-ply,SBD,M
Boys,99.79,4,Michael Serna,Sundown,91.4,181.44,108.86,167.83,458.13,Single-ply,SBD,M
Boys,99.79,5,Sammy Sambrano,Brownfield,90.13,176.9,99.79,176.9,453.59,Single-ply,SBD,M
Boys,99.79,6,Daniel Carmona,Brownfield,93.44,181.44,90.72,181.44,453.59,Single-ply,SBD,M
Boys,99.79,7,Dom Cradduck,Lubbock Roosevelt,98.2,158.76,115.67,170.1,444.52,Single-ply,SBD,M
Boys,99.79,8,Justin Frutis,Lubbock Roosevelt,98.29,147.42,124.74,170.1,442.25,Single-ply,SBD,M
Boys,99.79,9,Christian Garcia,Lubbock Roosevelt,94.66,151.95,102.06,181.44,435.45,Single-ply,SBD,M
Boys,99.79,10,Eddie Aguirre,Brownfield,93.98,147.42,81.65,151.95,381.02,Single-ply,SBD,M
Boys,99.79,11,Ryan Lopez,Lubbock Roosevelt,95.66,124.74,65.77,124.74,315.25,Single-ply,SBD,M
Boys,99.79,DQ,Andrew Clayman,Brownfield,99.79,,,,,Single-ply,SBD,M
Boys,109.77,1,Joey Elizardo,Brownfield,106.96,231.33,147.42,238.14,616.89,Single-ply,SBD,M
Boys,109.77,2,Ashton Lara,Lubbock Cooper,106.82,192.78,136.08,226.8,555.65,Single-ply,SBD,M
Boys,109.77,3,Elvis Cavillo,Lubbock Cooper,103.42,176.9,131.54,158.76,467.2,Single-ply,SBD,M
Boys,109.77,4,Bryan Lovington,Meadow,103.65,140.61,86.18,172.37,399.16,Single-ply,SBD,M
Boys,124.74,1,Nick Gonzales,Lubbock Cooper,114.49,226.8,129.27,188.24,544.31,Single-ply,SBD,M
Boys,124.74,2,Eric Garcia,Lubbock Roosevelt,122.65,170.1,90.72,158.76,419.57,Single-ply,SBD,M
Boys,124.74+,1,Dillon Beesinger,Lubbock Cooper,138.8,249.48,151.95,210.92,612.35,Single-ply,SBD,M
Boys,124.74+,2,Luke Moore,Lubbock Cooper,136.8,233.6,142.88,215.46,591.94,Single-ply,SBD,M
Boys,124.74+,3,Byron Lara,Lubbock Cooper,130.18,210.92,142.88,199.58,553.38,Single-ply,SBD,M
Boys,124.74+,4,Roman Taylor,Sundown,136.21,195.04,97.52,185.97,478.54,Single-ply,SBD,M
Boys,124.74+,5,Garrett McCarty,Lubbock Roosevelt,139.07,113.4,81.65,165.56,360.61,Single-ply,SBD,M
Boys,124.74+,DQ,Josh Balderrama,Brownfield,127.01,,,,,Single-ply,SBD,M
