Division,WeightClassKg,Place,Name,Team,BodyweightKg,Best3SquatKg,Best3BenchKg,Best3DeadliftKg,TotalKg,Equipment,Event,Sex
Boys,51.71,1,David Carrasco,Big Lake Reagan County,49.76,138.35,79.38,156.49,374.21,Single-ply,SBD,M
Boys,51.71,2,Elias Perez,Sonora,50.39,117.93,61.23,102.06,281.23,Single-ply,SBD,M
Boys,51.71,DQ,Eddie Infante,Sonora,50.67,124.74,,120.2,,Single-ply,SBD,M
Boys,55.79,1,Raul Rey,Big Lake Reagan County,54.34,149.69,68.04,156.49,374.21,Single-ply,SBD,M
Boys,55.79,2,Johnny Gomez,Rocksprings,51.98,124.74,90.72,140.61,356.07,Single-ply,SBD,M
Boys,55.79,3,Trey Wachsmann,Miles,52.03,113.4,65.77,124.74,303.91,Single-ply,SBD,M
Boys,55.79,4,Tony Ortiz,Big Lake Reagan County,53.93,115.67,63.5,117.93,297.1,Single-ply,SBD,M
Boys,55.79,5,Adrian Whitby,Ozona,55.34,104.33,72.57,111.13,288.03,Single-ply,SBD,M
Boys,55.79,6,Radek Spatz,Miles,52.84,99.79,54.43,113.4,267.62,Single-ply,SBD,M
Boys,55.79,7,Eloy Trevino,Eldorado,55.38,83.91,52.16,99.79,235.87,Single-ply,SBD,M
Boys,59.87,1,Oscar Gutierrez,Sonora,56.79,131.54,81.65,131.54,344.73,Single-ply,SBD,M
Boys,59.87,2,Jacob Childress,Ozona,56.65,113.4,58.97,111.13,283.5,Single-ply,SBD,M
Boys,67.13,1,Anthony Olivares,Eldorado,66.9,172.37,102.06,183.7,458.13,Single-ply,SBD,M
Boys,67.13,2,Cade Cramer,Mertzon Irion County,66.13,181.44,97.52,147.42,426.38,Single-ply,SBD,M
Boys,67.13,3,Drake Martinez,Junction,61.33,142.88,92.99,129.27,365.14,Single-ply,SBD,M
Boys,67.13,4,Marcus Perez,Ozona,64,127.01,77.11,124.74,328.85,Single-ply,SBD,M
Boys,67.13,5,Zavier Rodriguez,Sonora,64.05,120.2,65.77,120.2,306.17,Single-ply,SBD,M
Boys,67.13,6,Nick Wright,Iraan,62.05,81.65,45.36,104.33,231.33,Single-ply,SBD,M
Boys,74.84,1,Leroy Garcia,Miles,74.75,183.7,111.13,190.51,485.34,Single-ply,SBD,M
Boys,74.84,2,Elias Luna,Eldorado,73.26,158.76,88.45,176.9,424.11,Single-ply,SBD,M
Boys,74.84,3,Jose Del Rio,Big Lake Reagan County,68.9,145.15,102.06,154.22,401.43,Single-ply,SBD,M
Boys,74.84,4,David Guerrero,Big Lake Reagan County,69.44,133.81,61.23,131.54,326.59,Single-ply,SBD,M
Boys,74.84,5,Mark Johnson,Miles,74.07,106.59,79.38,133.81,319.78,Single-ply,SBD,M
Boys,74.84,6,Abraham Rodriguez,Ozona,70.94,113.4,70.31,111.13,294.84,Single-ply,SBD,M
Boys,74.84,7,Robert Olivares,Eldorado,74.62,115.67,65.77,104.33,285.76,Single-ply,SBD,M
Boys,82.1,1,Steban Flores,Ozona,82.01,206.38,165.56,192.78,564.72,Single-ply,SBD,M
Boys,82.1,2,Juan Baez,Sonora,79.97,219.99,124.74,215.46,560.19,Single-ply,SBD,M
Boys,82.1,3,Austin Damian,Ozona,80.6,158.76,88.45,163.29,410.5,Single-ply,SBD,M
Boys,82.1,4,Andrew Herpeche,Miles,81.78,133.81,79.38,167.83,381.02,Single-ply,SBD,M
Boys,82.1,5,Jesse Edgar,Mertzon Irion County,80.74,136.08,90.72,151.95,378.75,Single-ply,SBD,M
Boys,82.1,6,Caden Johnson,McCamey,76.97,122.47,77.11,122.47,322.05,Single-ply,SBD,M
Boys,89.81,1,Caleb Wilson,Mertzon Irion County,84.78,254.01,145.15,249.48,648.64,Single-ply,SBD,M
Boys,89.81,2,Kodee Warriner,Big Lake Reagan County,87.54,161.03,95.25,204.12,460.4,Single-ply,SBD,M
Boys,89.81,3,Ty Perez,Sonora,86.41,163.29,92.99,142.88,399.16,Single-ply,SBD,M
Boys,89.81,4,Chris Llanas,Miles,84.55,142.88,88.45,145.15,376.48,Single-ply,SBD,M
Boys,89.81,5,Seth Edwards,Sonora,86.55,129.27,68.04,129.27,326.59,Single-ply,SBD,M
Boys,99.79,1,Christian Ramon,Sonora,98.75,226.8,142.88,192.78,562.45,Single-ply,SBD,M
Boys,99.79,2,Nico Ortiz,Big Lake Reagan County,90.13,215.46,127.01,190.51,532.97,Single-ply,SBD,M
Boys,99.79,3,Blake Miller,Mertzon Irion County,93.26,185.97,145.15,181.44,512.56,Single-ply,SBD,M
Boys,99.79,4,Coleton Williams,Miles,99.47,154.22,106.59,174.63,435.45,Single-ply,SBD,M
Boys,99.79,DQ,Nicholas Billington,Mertzon Irion County,93.26,149.69,,158.76,,Single-ply,SBD,M
Boys,109.77,1,Albert Arispe,Eldorado,109.54,204.12,129.27,222.26,555.65,Single-ply,SBD,M
Boys,109.77,2,Brady Herbst,Junction,102.47,192.78,145.15,170.1,508.02,Single-ply,SBD,M
Boys,109.77,3,Michael Morales,Sonora,106.28,122.47,65.77,129.27,317.51,Single-ply,SBD,M
Boys,124.74,1,Tristan Ortiz,Big Lake Reagan County,117.12,319.78,156.49,231.33,707.6,Single-ply,SBD,M
Boys,124.74,2,Jason Carrillo,Rocksprings,120.25,235.87,165.56,195.04,596.47,Single-ply,SBD,M
Boys,124.74,3,Zack Cook,Miles,112.58,183.7,129.27,183.7,496.68,Single-ply,SBD,M
Boys,124.74,4,Wesley Estridge,Big Lake Reagan County,110.54,158.76,111.13,174.63,444.52,Single-ply,SBD,M
Boys,124.74,5,Gerry Salazar,McCamey,111.36,138.35,113.4,161.03,412.77,Single-ply,SBD,M
Boys,124.74+,1,Freddie Enriquez,Rocksprings,150.64,285.76,151.95,242.67,680.39,Single-ply,SBD,M
Boys,124.74+,2,Taylor Elkins,Mertzon Irion County,143.02,254.01,167.83,226.8,648.64,Single-ply,SBD,M
Boys,124.74+,3,Brody Adams,Junction,137.71,190.51,115.67,181.44,487.61,Single-ply,SBD,M
Boys,,NS,Lane Russell,Miles,,,,,,Single-ply,SBD,M
Boys,,NS,Jp Cordova,Rocksprings,,,,,,Single-ply,SBD,M
Boys,,NS,Diego Perez,Rocksprings,,,,,,Single-ply,SBD,M
Boys,,NS,Juoquin Ramos,Rocksprings,,,,,,Single-ply,SBD,M
Boys,,NS,Elias Avila,Big Lake Reagan County,,,,,,Single-ply,SBD,M
Boys,,NS,Justin Ortiz,Big Lake Reagan County,,,,,,Single-ply,SBD,M
Boys,,NS,Luis Salas,Iraan,,,,,,Single-ply,SBD,M
Boys,,NS,Michael Muniz,Iraan,,,,,,Single-ply,SBD,M
Boys,,NS,Victor Lopez,Iraan,,,,,,Single-ply,SBD,M
