Division,WeightClassKg,Place,Name,Team,BodyweightKg,Best3SquatKg,Best3BenchKg,Best3DeadliftKg,TotalKg,Equipment,Event,Sex
Boys,51.71,1,Joshua Garcia,Keller Central,51.26,90.72,58.97,113.4,263.08,Single-ply,SBD,M
Boys,51.71,2,Kj Mitchell,Keller Fossil Ridge,49.12,92.99,56.7,104.33,254.01,Single-ply,SBD,M
Boys,51.71,3,DaeeQuan Johnson,Keller Fossil Ridge,51.26,79.38,52.16,88.45,219.99,Single-ply,SBD,M
Boys,55.79,1,Jordan Wilkerson,Keller Central,53.75,181.44,108.86,199.58,489.88,Single-ply,SBD,M
Boys,55.79,2,Stephen Gaut,Keller Central,55.34,149.69,92.99,163.29,405.97,Single-ply,SBD,M
Boys,55.79,3,Jacob Garcia,Keller Central,55.75,136.08,77.11,142.88,356.07,Single-ply,SBD,M
Boys,55.79,4,Pramis Subedi,Keller Fossil Ridge,55.61,136.08,52.16,136.08,324.32,Single-ply,SBD,M
Boys,59.87,1,Ian Clark,Keller Central,58.33,147.42,72.57,129.27,349.27,Single-ply,SBD,M
Boys,67.13,1,Josh Gonzalez,Keller Fossil Ridge,67.09,120.2,68.04,145.15,333.39,Single-ply,SBD,M
Boys,67.13,2,Marvin Reinoshek,Keller Fossil Ridge,63.37,115.67,70.31,142.88,328.85,Single-ply,SBD,M
Boys,74.84,1,Connor Boyd,Keller,69.99,183.7,127.01,192.78,503.49,Single-ply,SBD,M
Boys,74.84,2,Cameron Robbins,Keller Central,70.08,192.78,86.18,199.58,478.54,Single-ply,SBD,M
Boys,74.84,3,Kaden Bess,Keller Timber Creek,72.98,181.44,102.06,165.56,449.06,Single-ply,SBD,M
Boys,74.84,4,Daniel Voyles,Keller,70.94,158.76,95.25,156.49,410.5,Single-ply,SBD,M
Boys,74.84,5,Keegan Burton,Keller Central,70.85,161.03,86.18,161.03,408.23,Single-ply,SBD,M
Boys,74.84,6,Jacob Hendricks,Keller,69.58,111.13,77.11,145.15,333.39,Single-ply,SBD,M
Boys,74.84,DQ,Nakoa Rios,Keller,68.49,201.85,95.25,188.24,,Single-ply,SBD,M
Boys,74.84,DQ,Daniel Scherer,Keller Central,67.99,113.4,61.23,113.4,,Single-ply,SBD,M
Boys,82.1,1,Colton David,Keller Central,81.47,192.78,133.81,213.19,539.77,Single-ply,SBD,M
Boys,82.1,2,Sammy Maddux,Keller Fossil Ridge,80.1,151.95,92.99,174.63,419.57,Single-ply,SBD,M
Boys,82.1,3,John Vawar,Keller Fossil Ridge,77.56,163.29,90.72,161.03,415.04,Single-ply,SBD,M
Boys,82.1,4,Jose Bonilla,Keller Fossil Ridge,76.84,133.81,86.18,151.95,371.95,Single-ply,SBD,M
Boys,82.1,5,Alex Beck,Keller Timber Creek,79.61,163.29,74.84,124.74,362.87,Single-ply,SBD,M
Boys,82.1,6,Dillon Oliver,Keller,80.6,68.04,56.7,90.72,215.46,Single-ply,SBD,M
Boys,82.1,DQ,Lameki Vaipulu,Keller Central,80.74,142.88,83.91,142.88,,Single-ply,SBD,M
Boys,89.81,1,Ethan Jones,Keller,87.32,229.06,138.35,206.38,573.79,Single-ply,SBD,M
Boys,89.81,2,Eric Simpson,Keller Central,86.36,161.03,108.86,208.65,478.54,Single-ply,SBD,M
Boys,89.81,3,Brock Allbritton,Keller Timber Creek,82.87,226.8,104.33,124.74,455.86,Single-ply,SBD,M
Boys,89.81,4,Camden Boyd,Keller,87.82,154.22,102.06,163.29,419.57,Single-ply,SBD,M
Boys,89.81,5,Johnnie Johnson,Keller Fossil Ridge,88.63,138.35,102.06,151.95,392.36,Single-ply,SBD,M
Boys,89.81,6,Tyler Balsarick,Keller Central,89.45,151.95,88.45,151.95,392.36,Single-ply,SBD,M
Boys,89.81,7,Jordan Ederson,Keller Fossil Ridge,82.55,129.27,74.84,183.7,387.82,Single-ply,SBD,M
Boys,89.81,8,Chris LaPointe,Keller Fossil Ridge,84.14,102.06,74.84,142.88,319.78,Single-ply,SBD,M
Boys,99.79,1,Sean Payne,Keller,99.02,278.96,161.03,233.6,673.58,Single-ply,SBD,M
Boys,99.79,2,Landon Sleeper,Keller Central,93.49,249.48,147.42,215.46,612.35,Single-ply,SBD,M
Boys,99.79,3,Cade McGuffin,Keller Central,99.65,226.8,129.27,213.19,569.26,Single-ply,SBD,M
Boys,99.79,4,Austin Korbe,Keller Central,95.07,219.99,115.67,192.78,528.44,Single-ply,SBD,M
Boys,109.77,1,John Hester,Keller Timber Creek,103.6,283.5,165.56,210.92,659.98,Single-ply,SBD,M
Boys,109.77,2,Sean Smith,Keller Fossil Ridge,104.96,185.97,108.86,201.85,496.68,Single-ply,SBD,M
Boys,109.77,3,Parker McElwee,Keller,107.68,197.31,92.99,170.1,460.4,Single-ply,SBD,M
Boys,109.77,4,Chris Taylor,Keller Fossil Ridge,107.73,138.35,72.57,142.88,353.8,Single-ply,SBD,M
Boys,124.74,1,Grant Eaton,Keller Timber Creek,110.04,226.8,115.67,183.7,526.17,Single-ply,SBD,M
Boys,124.74,DQ,Jt Sleeper,Keller Central,112.49,192.78,113.4,158.76,,Single-ply,SBD,M
Boys,124.74+,1,Adrian Alcantara,Keller Central,130.5,272.16,145.15,217.72,635.03,Single-ply,SBD,M
Boys,124.74+,DQ,Curtis Townzen,Keller Fossil Ridge,136.08,127.01,102.06,154.22,,Single-ply,SBD,M
