Division,WeightClassKg,Place,Name,Team,BodyweightKg,Best3SquatKg,Best3BenchKg,Best3DeadliftKg,TotalKg,Equipment,Event,Sex
Boys,51.71,1,Micah Roberson,Mansfield Summit,45.54,70.31,43.09,83.91,197.31,Single-ply,SBD,M
Boys,59.87,1,Andrew Alcala,Mansfield Timberview,58.33,136.08,61.23,117.93,315.25,Single-ply,SBD,M
Boys,59.87,2,Triston McDonald,Mansfield Timberview,57.61,113.4,72.57,120.2,306.17,Single-ply,SBD,M
Boys,59.87,3,Seth Mathews,Mansfield Legacy,56.79,52.16,38.56,77.11,167.83,Single-ply,SBD,M
Boys,67.13,1,Tres Thomas,Mansfield Timberview,63.23,161.03,92.99,170.1,424.11,Single-ply,SBD,M
Boys,67.13,2,Joseph Terrance,Mansfield Timberview,66.41,158.76,113.4,145.15,417.3,Single-ply,SBD,M
Boys,67.13,3,Marquis Sanders,Mansfield Summit,62.51,136.08,83.91,142.88,362.87,Single-ply,SBD,M
Boys,67.13,4,Edward Onwuka,Mansfield Timberview,66.32,117.93,81.65,113.4,312.98,Single-ply,SBD,M
Boys,74.84,1,Xavier Toliver,Mansfield Summit,74.3,174.63,108.86,188.24,471.74,Single-ply,SBD,M
Boys,74.84,2,Calvion Porter,Mansfield Summit,71.49,165.56,102.06,181.44,449.06,Single-ply,SBD,M
Boys,74.84,3,Bailey Smith,Mansfield Timberview,72.94,158.76,97.52,163.29,419.57,Single-ply,SBD,M
Boys,74.84,4,Brenden Allen,Mansfield Legacy,71.4,140.61,102.06,142.88,385.55,Single-ply,SBD,M
Boys,74.84,5,Joel Pennington,Mansfield Summit,71.49,136.08,61.23,165.56,362.87,Single-ply,SBD,M
Boys,74.84,6,Hayden Ivie,Mansfield,68.86,106.59,70.31,120.2,297.1,Single-ply,SBD,M
Boys,82.1,1,Samuel Adedire,Mansfield Summit,81.47,172.37,104.33,222.26,498.95,Single-ply,SBD,M
Boys,82.1,2,Clay Robinson,Mansfield Legacy,81.01,167.83,113.4,181.44,462.66,Single-ply,SBD,M
Boys,82.1,3,Kufre Ukpong,Mansfield Summit,80.74,170.1,99.79,183.7,453.59,Single-ply,SBD,M
Boys,82.1,4,Justin O'Shields,Mansfield Legacy,80.2,149.69,97.52,163.29,410.5,Single-ply,SBD,M
Boys,89.81,1,Alex Omeke,Mansfield Timberview,89.36,142.88,131.54,185.97,460.4,Single-ply,SBD,M
Boys,89.81,2,Jason Karuma,Mansfield Timberview,85.55,163.29,86.18,172.37,421.84,Single-ply,SBD,M
Boys,89.81,3,Demarius Isaac,Mansfield Timberview,87.09,154.22,97.52,154.22,405.97,Single-ply,SBD,M
Boys,99.79,1,Cody Pettit,Mansfield Summit,93.44,219.99,129.27,217.72,566.99,Single-ply,SBD,M
Boys,99.79,2,Nigel Brobbey,Mansfield Summit,96.34,199.58,127.01,197.31,523.9,Single-ply,SBD,M
Boys,99.79,3,Josh Dimanche,Mansfield Summit,93.62,172.37,113.4,197.31,483.08,Single-ply,SBD,M
Boys,109.77,1,Cameron Summerville,Mansfield Timberview,101.79,208.65,145.15,217.72,571.53,Single-ply,SBD,M
Boys,109.77,2,Prince Omorogbe,Mansfield Summit,101.51,217.72,129.27,217.72,564.72,Single-ply,SBD,M
Boys,109.77,3,Curtis Schonhardt,Mansfield Summit,101.33,181.44,124.74,124.74,430.91,Single-ply,SBD,M
Boys,109.77,4,Brenden Barkus,Mansfield Summit,105.6,129.27,124.74,142.88,396.89,Single-ply,SBD,M
Boys,109.77,5,Gedarius Cruz,Mansfield Timberview,109.04,129.27,95.25,158.76,383.29,Single-ply,SBD,M
Boys,109.77,6,Tyler Burd,Mansfield,100.7,111.13,70.31,117.93,299.37,Single-ply,SBD,M
Boys,124.74,1,Quanard Carter,Mansfield Summit,116.48,226.8,151.95,226.8,605.55,Single-ply,SBD,M
Boys,124.74,2,Derrick Salter,Mansfield Summit,116.57,219.99,129.27,215.46,564.72,Single-ply,SBD,M
Boys,124.74,3,Blake Shephard,Mansfield Timberview,111.86,195.04,147.42,195.04,537.51,Single-ply,SBD,M
Boys,124.74,4,Avary Davis,Mansfield Summit,113.76,181.44,106.59,188.24,476.27,Single-ply,SBD,M
Boys,124.74+,1,Anthony Harris,Mansfield Timberview,166.65,185.97,111.13,181.44,478.54,Single-ply,SBD,M
Boys,124.74+,2,Matthew Pierce,Mansfield Summit,129.18,183.7,92.99,181.44,458.13,Single-ply,SBD,M
Boys,124.74+,DQ,Josh Gilliam,Mansfield Timberview,149.96,256.28,,215.46,,Single-ply,SBD,M
