Place,Sex,Name,Event,Division,WeightClassKg,Equipment,State,BodyweightKg,Squat1Kg,Squat2Kg,Squat3Kg,Best3SquatKg,Bench1Kg,Bench2Kg,Bench3Kg,Best3BenchKg,Deadlift1Kg,Deadlift2Kg,Deadlift3Kg,Best3DeadliftKg,TotalKg,BirthYear
DD,F,Emily Karl,SBD,FR-O,72,Raw,MD,71.6,-122.5,-130,-137.5,,-55,-57.5,-60,,-152.5,-162.5,-167.5,,,1988
1,M,Minh Tran,SBD,MR-Jr,66,Raw,VA,64.6,167.5,172.5,-180,172.5,112.5,-122.5,-122.5,112.5,212.5,-220,-220,212.5,497.5,1994
2,M,Jake Shankman,SBD,MR-Jr,66,Raw,VA,65.4,155,162.5,-170,162.5,100,110,-112.5,110,190,200,205,205,477.5,1995
3,M,Andrew Tran,SBD,MR-Jr,66,Raw,VA,61.2,112.5,120,127.5,127.5,67.5,72.5,75,75,127.5,137.5,142.5,142.5,345,1999
1,M,Josiah Vivero,SBD,MR-Jr,74,Raw,VA,73,220,235,242.5,242.5,142.5,-152.5,-152.5,142.5,242.5,257.5,262.5,262.5,647.5,1995
2,M,Wilson Lam,SBD,MR-Jr,74,Raw,VA,72.6,175,187.5,-192.5,187.5,110,115,-117.5,115,200,205,212.5,212.5,515,1993
1,M,Paul Xu,SBD,MR-Jr,83,Raw,VA,75.2,170,182.5,190,190,97.5,102.5,107.5,107.5,-215,215,242.5,242.5,540,1993
2,M,Clement Zhang,SBD,MR-Jr,83,Raw,VA,81.1,182.5,192.5,207.5,207.5,-100,102.5,-112.5,102.5,212.5,230,-235,230,540,1995
3,M,David Jo,SBD,MR-Jr,83,Raw,VA,81.5,147.5,157.5,165,165,100,107.5,-115,107.5,167.5,177.5,190,190,462.5,1992
4,M,Reilly Kartchner,SBD,MR-Jr,83,Raw,VA,76,157.5,167.5,177.5,177.5,82.5,87.5,92.5,92.5,165,177.5,190,190,460,1997
1,M,Adrian Acuna,SBD,MR-Jr,93,Raw,VA,92.6,207.5,215,-225,215,115,125,130,130,215,227.5,240,240,585,1994
2,M,Jacob Walsh,SBD,MR-Jr,93,Raw,VA,91,-200,200,215,215,150,-155,-155,150,195,200,215,215,580,1993
3,M,Thuan Tran,SBD,MR-Jr,93,Raw,VA,84.6,170,195,205,205,102.5,107.5,115,115,185,197.5,207.5,207.5,527.5,1993
4,M,Chad Fowler,SBD,MR-Jr,93,Raw,IN,89.1,167.5,177.5,-185,177.5,92.5,97.5,100,100,192.5,205,212.5,212.5,490,1994
5,M,Nathanael Green,SBD,MR-Jr,93,Raw,VA,90.9,147.5,160,167.5,167.5,110,115,122.5,122.5,155,165,180,180,470,1997
6,M,Stephen Arthur,SBD,MR-Jr,93,Raw,VA,86,122.5,132.5,137.5,137.5,92.5,100,105,105,152.5,162.5,172.5,172.5,415,1997
7,M,Nolan Center,SBD,MR-Jr,93,Raw,VA,92.3,125,135,140,140,72.5,77.5,-82.5,77.5,157.5,167.5,175,175,392.5,1994
1,M,Sam Fisk,SBD,MR-Jr,105,Raw,VA,93.9,225,-237.5,237.5,237.5,120,-130,-130,120,247.5,265,280,280,637.5,1995
2,M,Zachary Humphries,SBD,MR-Jr,105,Raw,VA,101.4,215,227.5,235,235,-125,132.5,140,140,225,240,255,255,630,1994
3,M,John Charette,SBD,MR-Jr,105,Raw,VA,103.1,190,205,215,215,127.5,137.5,145,145,222.5,240,250,250,610,1998
4,M,Jacob Latta-Morrisette,SBD,MR-Jr,105,Raw,DE,95.7,-175,180,187.5,187.5,120,125,-127.5,125,220,227.5,235,235,547.5,1996
5,M,Kevin Koch,SBD,MR-Jr,105,Raw,VA,94.4,165,175,-185,175,150,155,160,160,190,200,210,210,545,1994
1,M,Andrew So,SBD,MR-Jr,120,Raw,VA,117.5,225,247.5,-265,247.5,142.5,152.5,-160,152.5,227.5,247.5,270,270,670,1992
1,M,Zac Gomez,SBD,MR-M1a,66,Raw,VA,63.3,122.5,132.5,-142.5,132.5,67.5,-75,-75,67.5,137.5,147.5,157.5,157.5,357.5,1972
1,M,George James,SBD,MR-M1a,74,Raw,MD,67.7,-160,170,180,180,97.5,102.5,-107.5,102.5,200,210,212.5,212.5,495,1972
1,M,Josh Greene,SBD,MR-M1a,105,Raw,VA,99.8,-160,170,-177.5,170,97.5,102.5,-110,102.5,205,-217.5,-217.5,205,477.5,1973
1,M,Jim Begley,SBD,MR-M1b,74,Raw,VA,73,137.5,-140,-140,137.5,102.5,105,-110,105,167.5,172.5,177.5,177.5,420,1971
1,M,Sabre Schnitzer,SBD,MR-M1b,93,Raw,VA,92.6,220,235,242.5,242.5,175,182.5,-185,182.5,225,237.5,242.5,242.5,667.5,1969
2,M,Chad Rexrode,SBD,MR-M1b,93,Raw,VA,87.5,220,225,-227.5,225,152.5,-160,160,160,207.5,217.5,232.5,232.5,617.5,1968
3,M,Eric Lee,SBD,MR-M1b,93,Raw,VA,91.2,117.5,127.5,137.5,137.5,102.5,-107.5,-107.5,102.5,165,175,187.5,187.5,427.5,1969
1,M,Christopher Clarke,SBD,MR-M2a,83,Raw,VA,81.5,150,160,165,165,107.5,120,-125,120,190,200,-210,200,485,1964
1,M,Ronald Reed,SBD,MR-M2b,93,Raw,VA,90.1,122.5,132.5,140,140,90,95,100,100,142.5,152.5,160,160,400,1960
1,M,Conrad Mann,SBD,MR-M3b,74,Raw,VA,72.1,-60,62.5,67.5,67.5,90,95,-100,95,137.5,150,160,160,322.5,1948
1,M,Leonard Toyer Sr,SBD,MR-M3b,83,Raw,VA,79.6,95,100,105,105,95,100,-102.5,100,140,150,162.5,162.5,367.5,1950
1,M,Tristen Saraza,SBD,MR-O,59,Raw,MD,57.8,-110,117.5,-130,117.5,82.5,92.5,-100,92.5,155,162.5,167.5,167.5,377.5,1995
2,M,Tristen Saraza,SBD,MR-O,59,Raw,MD,57.8,-110,117.5,-130,117.5,82.5,92.5,-100,92.5,155,162.5,167.5,167.5,377.5,1995
1,M,Minh Tran,SBD,MR-O,66,Raw,VA,64.6,167.5,172.5,-180,172.5,112.5,-122.5,-122.5,112.5,212.5,-220,-220,212.5,497.5,1994
2,M,Jake Shankman,SBD,MR-O,66,Raw,VA,65.4,155,162.5,-170,162.5,100,110,-112.5,110,190,200,205,205,477.5,1995
3,M,Alan Nguyen,SBD,MR-O,66,Raw,VA,65.4,155,165,175,175,100,107.5,-112.5,107.5,160,170,182.5,182.5,465,1987
4,M,Ruben Gozon,SBD,MR-O,66,Raw,VA,60.7,122.5,137.5,142.5,142.5,82.5,95,100,100,167.5,192.5,200,200,442.5,1991
5,M,Harrison Juliano,SBD,MR-O,66,Raw,VA,63.5,142.5,-150,-150,142.5,85,87.5,-90,87.5,165,175,177.5,177.5,407.5,1990
6,M,Shoubry Sos,SBD,MR-O,66,Raw,MD,64.8,132.5,-142.5,-142.5,132.5,85,92.5,-97.5,92.5,132.5,142.5,147.5,147.5,372.5,1990
7,M,Zac Gomez,SBD,MR-O,66,Raw,VA,63.3,122.5,132.5,-142.5,132.5,67.5,-75,-75,67.5,137.5,147.5,157.5,157.5,357.5,1972
8,M,Andrew Tran,SBD,MR-O,66,Raw,VA,61.2,112.5,120,127.5,127.5,67.5,72.5,75,75,127.5,137.5,142.5,142.5,345,1999
1,M,Josiah Vivero,SBD,MR-O,74,Raw,VA,73,220,235,242.5,242.5,142.5,-152.5,-152.5,142.5,242.5,257.5,262.5,262.5,647.5,1995
2,M,Sean Chua,SBD,MR-O,74,Raw,VA,72.6,175,190,-200,190,100,107.5,112.5,112.5,205,220,232.5,232.5,535,1990
3,M,Daniel Davidson,SBD,MR-O,74,Raw,VA,68.6,157.5,167.5,-177.5,167.5,130,137.5,142.5,142.5,202.5,212.5,222.5,222.5,532.5,1981
4,M,Wilson Lam,SBD,MR-O,74,Raw,VA,72.6,175,187.5,-192.5,187.5,110,115,-117.5,115,200,205,212.5,212.5,515,1993
5,M,Manik Sarik,SBD,MR-O,74,Raw,VA,73.3,152.5,165,-177.5,165,112.5,120,-130,120,205,215,227.5,227.5,512.5,1991
6,M,George James,SBD,MR-O,74,Raw,MD,67.7,-160,170,180,180,97.5,102.5,-107.5,102.5,200,210,212.5,212.5,495,1972
7,M,William Jones,SBD,MR-O,74,Raw,MD,72.4,140,150,160,160,105,107.5,-122.5,107.5,177.5,190,205,205,472.5,1984
8,M,Jhoonho Yoon,SBD,MR-O,74,Raw,VA,70.7,132.5,145,-150,145,100,107.5,-112.5,107.5,182.5,195,202.5,202.5,455,1980
9,M,Alexander Brown,SBD,MR-O,74,Raw,VA,72.9,132.5,145,-150,145,102.5,110,-115,110,160,162.5,170,170,425,1991
10,M,Jim Begley,SBD,MR-O,74,Raw,VA,73,137.5,-140,-140,137.5,102.5,105,-110,105,167.5,172.5,177.5,177.5,420,1971
11,M,Conrad Mann,SBD,MR-O,74,Raw,VA,72.1,-60,62.5,67.5,67.5,90,95,-100,95,137.5,150,160,160,322.5,1948
DQ,M,Alhaji Sesay,SBD,MR-O,74,Raw,VA,70.8,165,180,-182.5,180,125,135,-140,135,-207.5,-207.5,-207.5,,,1983
1,M,Maxx Chewning,SBD,MR-O,83,Raw,VA,80.8,190,200,210,210,125,132.5,-137.5,132.5,245,262.5,272.5,272.5,615,1989
2,M,Johnny Duong,SBD,MR-O,83,Raw,VA,81.3,185,195,207.5,207.5,125,132.5,-140,132.5,230,250,262.5,262.5,602.5,1990
3,M,Philip Wilkerson,SBD,MR-O,83,Raw,VA,81.9,180,192.5,197.5,197.5,117.5,125,-130,125,220,247.5,-265,247.5,570,1985
4,M,James Hwang,SBD,MR-O,83,Raw,VA,81.9,180,187.5,190,190,132.5,-142.5,142.5,142.5,205,220,237.5,237.5,570,1990
5,M,Paul Xu,SBD,MR-O,83,Raw,VA,75.2,170,182.5,190,190,97.5,102.5,107.5,107.5,-215,215,242.5,242.5,540,1993
6,M,Clement Zhang,SBD,MR-O,83,Raw,VA,81.1,182.5,192.5,207.5,207.5,-100,102.5,-112.5,102.5,212.5,230,-235,230,540,1995
7,M,Wali Raffiqi,SBD,MR-O,83,Raw,VA,79.3,167.5,177.5,-182.5,177.5,110,117.5,120,120,192.5,205,212.5,212.5,510,1984
8,M,Christopher Clarke,SBD,MR-O,83,Raw,VA,81.5,150,160,165,165,107.5,120,-125,120,190,200,-210,200,485,1964
9,M,David Jo,SBD,MR-O,83,Raw,VA,81.5,147.5,157.5,165,165,100,107.5,-115,107.5,167.5,177.5,190,190,462.5,1992
10,M,Reilly Kartchner,SBD,MR-O,83,Raw,VA,76,157.5,167.5,177.5,177.5,82.5,87.5,92.5,92.5,165,177.5,190,190,460,1997
11,M,Leonard Toyer Sr,SBD,MR-O,83,Raw,VA,79.6,95,100,105,105,95,100,-102.5,100,140,150,162.5,162.5,367.5,1950
DQ,M,Kevin Burns,SBD,MR-O,83,Raw,VA,76.1,-95,97.5,100,100,-95,-100,-100,,145,150,165,165,,1968
DQ,M,Ricky Samphant,SBD,MR-O,83,Raw,VA,77.2,177.5,190,200,200,-97.5,-102.5,-102.5,,-217.5,-217.5,-217.5,,,1986
DQ,M,Rene Ulloa,SBD,MR-O,83,Raw,VA,79.6,120,127.5,132.5,132.5,95,-97.5,97.5,97.5,-190,-190,-190,,,1994
1,M,Julian Hooks,SBD,MR-O,93,Raw,FL,91.2,-240,240,-255,240,160,170,-177.5,170,265,280,-290,280,690,1988
2,M,Sabre Schnitzer,SBD,MR-O,93,Raw,VA,92.6,220,235,242.5,242.5,175,182.5,-185,182.5,225,237.5,242.5,242.5,667.5,1969
3,M,Richard Lagdon,SBD,MR-O,93,Raw,VA,91.9,-215,227.5,230,230,150,157.5,160,160,230,237.5,245,245,635,1985
4,M,Chad Rexrode,SBD,MR-O,93,Raw,VA,87.5,220,225,-227.5,225,152.5,-160,160,160,207.5,217.5,232.5,232.5,617.5,1968
5,M,Eric Davis,SBD,MR-O,93,Raw,VA,91.3,187.5,-197.5,197.5,197.5,145,-152.5,-152.5,145,257.5,267.5,-275,267.5,610,1986
6,M,Jacob Walsh,SBD,MR-O,93,Raw,VA,91,-200,200,215,215,150,-155,-155,150,195,200,215,215,580,1993
7,M,Adrian Acuna,SBD,MR-O,93,Raw,VA,92.6,207.5,215,-225,215,115,125,130,130,215,227.5,-240,227.5,572.5,1994
8,M,Shane Jensen,SBD,MR-O,93,Raw,DE,90.4,185,195,205,205,115,120,122.5,122.5,210,217.5,-222.5,217.5,545,1987
9,M,Josh Abt,SBD,MR-O,93,Raw,VA,89.1,175,185,195,195,97.5,102.5,-107.5,102.5,215,227.5,242.5,242.5,540,1989
10,M,Greg Medlock,SBD,MR-O,93,Raw,VA,89.7,172.5,185,190,190,120,-130,-130,120,215,227.5,-235,227.5,537.5,1991
11,M,Thuan Tran,SBD,MR-O,93,Raw,VA,84.6,170,195,205,205,102.5,107.5,115,115,185,197.5,207.5,207.5,527.5,1993
12,M,Chad Fowler,SBD,MR-O,93,Raw,IN,89.1,167.5,177.5,-185,177.5,92.5,97.5,100,100,192.5,205,212.5,212.5,490,1994
13,M,Cole Bramble,SBD,MR-O,93,Raw,VA,85,-185,185,190,190,97.5,102.5,-107.5,102.5,165,177.5,185,185,477.5,2000
14,M,Greg Gormley,SBD,MR-O,93,Raw,PA,88.5,157.5,165,-187.5,165,107.5,-115,-115,107.5,190,200,-210,200,472.5,1989
15,M,Nathanael Green,SBD,MR-O,93,Raw,VA,90.9,147.5,160,167.5,167.5,110,115,122.5,122.5,155,165,180,180,470,1997
16,M,Eric Lee,SBD,MR-O,93,Raw,VA,91.2,117.5,127.5,137.5,137.5,102.5,-107.5,-107.5,102.5,165,175,187.5,187.5,427.5,1969
17,M,Stephen Arthur,SBD,MR-O,93,Raw,VA,86,122.5,132.5,137.5,137.5,92.5,100,105,105,152.5,162.5,172.5,172.5,415,1997
18,M,Ronald Reed,SBD,MR-O,93,Raw,VA,90.1,122.5,132.5,140,140,90,95,100,100,142.5,152.5,160,160,400,1960
19,M,Nolan Center,SBD,MR-O,93,Raw,VA,92.3,125,135,140,140,72.5,77.5,-82.5,77.5,157.5,167.5,175,175,392.5,1994
1,M,Nikita Logan,SBD,MR-O,105,Raw,VA,103.8,245,260,270,270,160,-170,-170,160,245,260,275,275,705,1989
2,M,Sam Fisk,SBD,MR-O,105,Raw,VA,93.9,225,-237.5,237.5,237.5,120,-130,-130,120,247.5,265,280,280,637.5,1995
3,M,David Terry,SBD,MR-O,105,Raw,VA,102,215,225,235,235,125,135,142.5,142.5,230,245,260,260,637.5,1989
4,M,Zachary Humphries,SBD,MR-O,105,Raw,VA,101.4,215,227.5,235,235,-125,132.5,140,140,225,240,255,255,630,1994
5,M,Anthony Brown,SBD,MR-O,105,Raw,VA,103.9,210,220,225,225,135,-140,-140,135,235,250,265,265,625,1978
6,M,John Charette,SBD,MR-O,105,Raw,VA,103.1,190,205,215,215,127.5,137.5,145,145,222.5,240,250,250,610,1998
7,M,Jacob Latta-Morrisette,SBD,MR-O,105,Raw,DE,95.7,-175,180,187.5,187.5,120,125,-127.5,125,220,227.5,235,235,547.5,1996
8,M,Kevin Koch,SBD,MR-O,105,Raw,VA,94.4,165,175,-185,175,150,155,160,160,190,200,210,210,545,1994
9,M,Jason Trask,SBD,MR-O,105,Raw,MD,96.6,165,175,-185,175,105,115,125,125,190,200,210,210,510,1987
10,M,John Wallace,SBD,MR-O,105,Raw,VA,102.5,210,220,225,225,130,132.5,137.5,137.5,130,135,140,140,502.5,1999
11,M,Sean Strumpf,SBD,MR-O,105,Raw,MD,103.5,160,170,175,175,117.5,125,130,130,187.5,197.5,-205,197.5,502.5,1991
12,M,Josh Greene,SBD,MR-O,105,Raw,VA,99.8,-160,170,-177.5,170,97.5,102.5,-110,102.5,205,-217.5,-217.5,205,477.5,1973
1,M,Matthew Cronin,SBD,MR-O,120,Raw,VA,118.1,265,280,287.5,287.5,197.5,207.5,-215,207.5,260,272.5,282.5,282.5,777.5,1990
2,M,Scott Koscielniak,SBD,MR-O,120,Raw,MD,117.5,217.5,230,242.5,242.5,137.5,147.5,155,155,260,277.5,292.5,292.5,690,1983
3,M,Andrew So,SBD,MR-O,120,Raw,VA,117.5,225,247.5,-265,247.5,142.5,152.5,-160,152.5,227.5,247.5,270,270,670,1992
4,M,Ivan Linatoc,SBD,MR-O,120,Raw,VA,110.2,195,212.5,-227.5,212.5,142.5,150,-160,150,220,250,-262.5,250,612.5,1989
5,M,Alexander Din,SBD,MR-O,120,Raw,VA,112.7,170,180,190,190,130,-137.5,137.5,137.5,185,195,202.5,202.5,530,1990
6,M,Arian Abedi,SBD,MR-O,120,Raw,VA,117.8,162.5,172.5,185,185,110,117.5,-125,117.5,165,177.5,187.5,187.5,490,1999
7,M,Malcolm Stidham,SBD,MR-O,120,Raw,VA,118.7,167.5,177.5,187.5,187.5,75,85,-92.5,85,200,210,217.5,217.5,490,1999
1,M,Cole Bramble,SBD,MR-T1,93,Raw,VA,85,-185,185,190,190,97.5,102.5,-107.5,102.5,165,177.5,185,185,477.5,2000
1,M,John Wallace,SBD,MR-T2,105,Raw,VA,102.5,210,220,225,225,130,132.5,137.5,137.5,130,135,140,140,502.5,1999
1,M,Arian Abedi,SBD,MR-T2,120,Raw,VA,117.8,162.5,172.5,185,185,110,117.5,-125,117.5,165,177.5,187.5,187.5,490,1999
2,M,Malcolm Stidham,SBD,MR-T2,120,Raw,VA,118.7,167.5,177.5,187.5,187.5,75,85,-92.5,85,200,210,217.5,217.5,490,1999
1,F,Lindsey Blystone,SBD,F-O,84+,Single-ply,VA,92.9,165,-175,175,175,80,85,92.5,92.5,145,152.5,165,165,432.5,1991
1,F,Deborah Hwang,SBD,FR-Jr,57,Raw,VA,55.6,-90,90,95,95,-42.5,42.5,-45,42.5,90,95,100,100,237.5,1998
2,F,Renee Mercier,SBD,FR-Jr,57,Raw,VA,56.3,72.5,77.5,82.5,82.5,45,-50,-50,45,90,95,100,100,227.5,1996
3,F,Hannah Treichler,SBD,FR-Jr,57,Raw,VA,56.2,55,57.5,62.5,62.5,32.5,35,-37.5,35,65,67.5,72.5,72.5,170,1998
1,F,Isabella Herzog,SBD,FR-Jr,63,Raw,VA,62,75,80,-85,80,35,37.5,40,40,82.5,87.5,92.5,92.5,212.5,1999
2,F,London Hall,SBD,FR-Jr,63,Raw,VA,58.4,50,52.5,55,55,40,42.5,-45,42.5,82.5,85,92.5,92.5,190,1997
3,F,Macy Blakeley,SBD,FR-Jr,63,Raw,VA,60.9,55,57.5,62.5,62.5,35,37.5,40,40,65,70,72.5,72.5,175,1997
1,F,Ellen Liverpool,SBD,FR-Jr,72,Raw,VA,71,145,152.5,160,160,65,70,75,75,162.5,172.5,183,183,418,1993
2,F,Audrey Carpenter,SBD,FR-Jr,72,Raw,VA,71.9,130,140,-150,140,62.5,67.5,72.5,72.5,145,155,162.5,162.5,375,1993
3,F,Nguyen Le Hoang Nguyen,SBD,FR-Jr,72,Raw,VA,63.4,90,95,100,100,37.5,42.5,-47.5,42.5,132.5,140,145,145,287.5,1994
4,F,Christina Hall,SBD,FR-Jr,72,Raw,VA,63.9,75,82.5,87.5,87.5,40,42.5,45,45,100,107.5,112.5,112.5,245,1999
5,F,Claire Sparrowgrove,SBD,FR-Jr,72,Raw,VA,69.8,55,57.5,62.5,62.5,32.5,35,-37.5,35,65,67.5,72.5,72.5,170,2000
1,F,Karla Portillo,SBD,FR-M1a,52,Raw,MD,51.8,90,95,100,100,52.5,55,57.5,57.5,95,102.5,110,110,267.5,1977
1,F,Karla Portillo,SBD,FR-O,52,Raw,MD,51.8,90,95,100,100,52.5,55,57.5,57.5,95,102.5,110,110,267.5,1977
2,F,Kirsten Evans,SBD,FR-O,52,Raw,VA,50.6,75,-90,-95,75,50,-55,-62.5,50,87.5,95,102.5,102.5,227.5,1990
1,F,Natalie Green,SBD,FR-O,57,Raw,DC,56,85,95,97.5,97.5,42.5,47.5,50,50,107.5,120,125,125,272.5,1992
2,F,Deborah Hwang,SBD,FR-O,57,Raw,MD,52.2,-90,90,95,95,-42.5,42.5,-45,42.5,90,95,100,100,237.5,1998
3,F,Renee Mercier,SBD,FR-O,57,Raw,VA,56.3,72.5,77.5,82.5,82.5,45,-50,-50,45,90,95,100,100,227.5,1996
4,F,Hannah Treichler,SBD,FR-O,57,Raw,VA,56.2,55,57.5,62.5,62.5,32.5,35,-37.5,35,65,67.5,72.5,72.5,170,1998
1,F,Heather Baker,SBD,FR-O,63,Raw,VA,61.5,105,110,115,115,65,67.5,70,70,120,130,-137.5,130,315,1980
2,F,Joy Burg,SBD,FR-O,63,Raw,VA,60.8,92.5,-97.5,-97.5,92.5,52.5,-57.5,-57.5,52.5,117.5,127.5,137.5,137.5,282.5,1965
3,F,Joy Burg,SBD,FR-O,63,Raw,VA,60.8,92.5,-97.5,-97.5,92.5,52.5,-57.5,-57.5,52.5,117.5,127.5,137.5,137.5,282.5,1965
4,F,Isabella Herzog,SBD,FR-O,63,Raw,VA,62,75,80,-85,80,35,37.5,40,40,82.5,87.5,92.5,92.5,212.5,1999
5,F,London Hall,SBD,FR-O,63,Raw,VA,58.4,50,52.5,55,55,40,42.5,-45,42.5,82.5,85,92.5,92.5,190,1997
6,F,Macy Blakeley,SBD,FR-O,63,Raw,VA,60.9,55,57.5,62.5,62.5,35,37.5,40,40,65,70,72.5,72.5,175,1997
1,F,Ellen Liverpool,SBD,FR-O,72,Raw,VA,71,145,152.5,160,160,65,70,75,75,162.5,172.5,183,183,418,1993
2,F,Audrey Carpenter,SBD,FR-O,72,Raw,VA,71.9,130,140,-150,140,62.5,67.5,72.5,72.5,145,155,162.5,162.5,375,1993
4,F,Angela Roark,SBD,FR-O,72,Raw,VA,69.9,-105,-105,105,105,62.5,67.5,-72.5,67.5,145,155,160,160,332.5,1986
5,F,Lauren Parrinello,SBD,FR-O,72,Raw,VA,63.4,102.5,105,107.5,107.5,60,62.5,65,65,130,140,142.5,142.5,315,1992
6,F,Nguyen Le Hoang Nguyen,SBD,FR-O,72,Raw,VA,63.4,90,95,100,100,37.5,42.5,-47.5,42.5,132.5,140,145,145,287.5,1994
7,F,Rebecca Cooper,SBD,FR-O,72,Raw,VA,70.1,87.5,-92.5,92.5,92.5,47.5,50,52.5,52.5,122.5,130,140,140,285,1984
8,F,Erica Lim,SBD,FR-O,72,Raw,MD,71.6,105,110,-122.5,110,40,42.5,45,45,125,-130,130,130,285,1990
9,F,Christina Hall,SBD,FR-O,72,Raw,VA,63.9,75,82.5,87.5,87.5,40,42.5,45,45,100,107.5,112.5,112.5,245,1999
10,F,Rachel Boehm,SBD,FR-O,72,Raw,VA,67.7,-82.5,82.5,-85,82.5,40,42.5,-45,42.5,85,95,105,105,230,1982
11,F,Claire Sparrowgrove,SBD,FR-O,72,Raw,VA,69.8,55,57.5,62.5,62.5,32.5,35,-37.5,35,65,67.5,72.5,72.5,170,2000
1,F,Carlyn Todorow,SBD,FR-O,84,Raw,PA,79.8,140,145,-147.5,145,85,-87.5,-87.5,85,175,-180,-180,175,405,1986
2,F,Dawn Williams,SBD,FR-O,84,Raw,VA,82.6,-125,-140,140,140,87.5,92.5,97.5,97.5,145,152.5,157.5,157.5,395,1978
3,F,Alexandra Biga,SBD,FR-O,84,Raw,VA,74.6,125,137.5,-142.5,137.5,-62.5,65,-72.5,65,125,142.5,152.5,152.5,355,1987
4,F,Arielle Zigelman,SBD,FR-O,84,Raw,VA,82.4,80,87.5,92.5,92.5,42.5,45,47.5,47.5,107.5,117.5,127.5,127.5,267.5,1992
1,F,Amina Abdelatey,SBD,FR-O,84+,Raw,VA,89.4,135,140,145,145,57.5,62.5,65,65,132.5,142.5,152.5,152.5,362.5,1998
2,F,Allison Shaffer,SBD,FR-O,84+,Raw,VA,117.3,-127.5,127.5,-137.5,127.5,72.5,-80,-80,72.5,145,157.5,-162.5,157.5,357.5,1981
3,F,Helena Labriny,SBD,FR-O,84+,Raw,VA,93.2,107.5,120,-130,120,65,70,-75,70,147.5,157.5,165,165,355,1998
