Name,Team,BodyweightKg,Best3SquatKg,Best3BenchKg,Best3DeadliftKg,TotalKg,Sex,Event,Equipment,WeightClassKg,Place,Division
T. Gillies,sco,51.9,75,32.5,77.5,185,F,SBD,Single-ply,52,1,Open
R. Shaw,yne,52.2,90,30,110,230,F,SBD,Single-ply,56,1,Open
R. Bailey,sw,56.5,,,,,F,SBD,Single-ply,60,DQ,Open
Leanne Brown,sco,63.2,112.5,60,115,287.5,F,SBD,Single-ply,67.5,1,Open
Marie Thornton,yne,68,147.5,55,157.5,360,F,SBD,Single-ply,75,1,Open
Jennifer Busby,wm,83.7,140,65,155,360,F,SBD,Single-ply,90,1,Open
