Place,Name,BodyweightKg,Squat1Kg,Squat2Kg,Squat3Kg,Best3SquatKg,Bench1Kg,Bench2Kg,Bench3Kg,Best3BenchKg,Deadlift1Kg,Deadlift2Kg,Deadlift3Kg,Best3DeadliftKg,Deadlift4Kg,TotalKg,WeightClassKg,Sex,CyrillicName,BirthYear,Event,Division,Equipment
1,Sergey Zhuravlev,51.70,-190,190,210,210,100,110,-112.5,110,190,200,-210,200,,520.0,52,M,Сергей Журавлёв,1960,SBD,Open,Single-ply
2,Sergey Savinykh,51.50,170,177.5,180,180,-105,105,110,110,175,190,192.5,192.5,,482.5,52,M,Сергей Савиных,1983,SBD,Open,Single-ply
3,Igor Artemyev,51.90,160,165,-167.5,165,110,112.5,115,115,-175,175,-180,175,,455.0,52,M,Игорь Артемьев,1971,SBD,Open,Single-ply
4,Shamil Gilyazov,51.70,140,-150,-152.5,140,82.5,87.5,90,90,155,165,-170,165,,395.0,52,M,Шамиль Гилязов,1981,SBD,Open,Single-ply
DQ,Aleksey Svistunov,51.60,-175,-175,-175,,,,,,,,,,,,52,M,Алексей Свистунов,1969,SBD,Open,Single-ply
1,Nikolay Asabin,55.60,200,210,215,215,120,125,130,130,200,210,-215,210,,555.0,56,M,Николай Асабин,1978,SBD,Open,Single-ply
3,Oleg Artemyev,55.85,170,175,180,180,120,125,-130,125,160,170,-175,170,,475.0,56,M,Олег Артемьев,1971,SBD,Open,Single-ply
4,Mikhail Shpagin,56.00,150,-170,-175,150,-100,100,-110,100,170,-200,,170,,420.0,56,M,Михаил Шпагин,1981,SBD,Open,Single-ply
2,Denis Rasskazov,55.80,182.5,192.5,-197.5,192.5,100,107.5,-112.5,107.5,-200,200,,200,,500.0,56,M,Денис Рассказов,1982,SBD,Open,Single-ply
1,Mikhail Andryukhin,59.50,245,252.5,-255,252.5,-140,140,-147.5,140,240,250,-262.5,250,,642.5,60,M,Михаил Андрюхин,1970,SBD,Open,Single-ply
2,Fanil Mukhamatyanov,59.95,225,-235,235,235,170,180,185,185,200,207.5,-212.5,207.5,,627.5,60,M,Фаниль Мухаматьянов,1972,SBD,Open,Single-ply
3,Aleksandr Marenok,59.65,215,225,-240,225,127.5,-132.5,-132.5,127.5,215,-222.5,,215,,567.5,60,M,Александр Маренок,1976,SBD,Open,Single-ply
4,Ilya Kokorev,59.75,185,-195,-200,185,110,120,-125,120,220,-237.5,-237.5,220,,525.0,60,M,Илья Кокорев,1973,SBD,Open,Single-ply
5,Denis Perminov,60.00,-180,180,-200,180,110,-120,120,120,200,-220,-220,200,,500.0,60,M,Денис Перминов,1978,SBD,Open,Single-ply
6,Tengiz Otyrba,59.45,180,195,200,200,102.5,110,115,115,190,-205,,190,,505.0,60,M,Тенгиз Отырба,1972,SBD,Open,Single-ply
7,Mikhail Tumanov,58.45,-140,142.5,150,150,-87.5,87.5,-95,87.5,160,-180,180,180,,417.5,60,M,Михаил Туманов,1981,SBD,Open,Single-ply
8,Igor Posolkov,58.65,137.5,-145,-147.5,137.5,-87.5,87.5,-95,87.5,-160,165,175,175,,400.0,60,M,Игорь Посолков,1978,SBD,Open,Single-ply
1,Nikolay Sokolov,64.00,245,-260,260,260,160,-167.5,167.5,167.5,245,-250,-252.5,245,,672.5,67.5,M,Николай Соколов,1979,SBD,Open,Single-ply
2,Ruslan Araslanov,67.00,225,230,240,240,160,-165,-165,160,240,-250,250,250,,650.0,67.5,M,Руслан Арасланов,1976,SBD,Open,Single-ply
3,Evgeniy Baranov,66.50,235,-245,245,245,-160,-160,160,160,235,-242.5,,235,,640.0,67.5,M,Евгений Баранов,1972,SBD,Open,Single-ply
4,Alexey Osokin,67.45,195,210,220,220,170,180,-187.5,180,200,220,240,240,,640.0,67.5,M,Алексей Осокин,1979,SBD,Open,Single-ply
5,Oleg Ryabinnikov,67.50,230,-237.5,-237.5,230,135,-140,140,140,245,-252.5,-255,245,,615.0,67.5,M,Олег Рябинников,1978,SBD,Open,Single-ply
6,Igor Sobolev,67.00,215,-225,-225,215,155,162.5,165,165,230,-260,-260,230,,610.0,67.5,M,Игорь Соболев,1971,SBD,Open,Single-ply
7,Anatoly Zvyagintsev,65.10,215,227.5,-237.5,227.5,147.5,155,160,160,215,-227.5,-227.5,215,,602.5,67.5,M,Анатолий Звягинцев,1978,SBD,Open,Single-ply
8,Yuriy Baboshin,67.25,210,220,-225,220,-145,145,-150,145,205,215,,215,,580.0,67.5,M,Юрий Бабошин,1954,SBD,Open,Single-ply
9,Aleksandr Matveev,67.00,210,215,-220,215,-132.5,135,-140,135,210,-220,,210,,560.0,67.5,M,Александр Матвеев,1974,SBD,Open,Single-ply
10,Anton Poptsov,66.40,200,210,-215,210,115,120,-122.5,120,195,202.5,-212.5,202.5,,532.5,67.5,M,Антон Попцов,1982,SBD,Open,Single-ply
11,Yuriy Timofeev,61.60,-125,125,135,135,90,95,-100,95,145,-155,-155,145,,375.0,67.5,M,Юрий Тимофеев,1979,SBD,Open,Single-ply
12,Valeriy Bogdanov,65.90,60,,,60,175,180,182.5,182.5,60,,,60,,302.5,67.5,M,Валерий Богданов,1970,SBD,Open,Single-ply
DQ,Andrey Sidorov,67.20,255,265,-270,265,-175,175,180,180,-255,-255,-255,,,,67.5,M,Андрей Сидоров,1974,SBD,Open,Single-ply
DQ,Roman Vlasov,65.45,-225,225,235,235,120,-130,-130,120,-230,-230,,,,,67.5,M,Роман Власов,1977,SBD,Open,Single-ply
DQ,Dmitriy Dudnik,67.20,-230,-230,-230,,,,,,,,,,,,67.5,M,Дмитрий Дудник,1979,SBD,Open,Single-ply
DQ,Igor Muler,66.20,-280,-280,-280,,,,,,,,,,,,67.5,M,Игорь Мулер,1969,SBD,Open,Single-ply
1,Viktor Baranov,72.80,290,300,307.5,307.5,170,175,-180,175,290,300,310,310,,792.5,75,M,Виктор Баранов,1967,SBD,Open,Single-ply
2,Viktor Furazhkin,73.50,280,-300,300,300,185,-195,-195,185,280,290,-300,290,,775.0,75,M,Виктор Фуражкин,1969,SBD,Open,Single-ply
3,Sergey Ushakov,74.80,275,285,-300,285,180,195,201,201,260,-270,-270,260,,746.0,75,M,Сергей Ушаков,1974,SBD,Open,Single-ply
4,Vladimir Sokolov,72.20,255,265,275,275,165,-172.5,172.5,172.5,265,280,-297.5,280,,727.5,75,M,Владимир Соколов,1976,SBD,Open,Single-ply
5,Sergey Kozlov,73.80,265,-275,-275,265,-170,-170,170,170,270,280,-285,280,,715.0,75,M,Сергей Козлов,1975,SBD,Open,Single-ply
6,Arslanali Saidov,74.75,260,-270,270,270,140,145,150,150,-250,280,-285,280,,700.0,75,M,Арсланали Саидов,1970,SBD,Open,Single-ply
7,Sergey Guschin,75.00,255,-265,270,270,-127.5,127.5,135,135,280,295,-305,295,,700.0,75,M,Сергей Гущин,1974,SBD,Open,Single-ply
8,Eduard Titov,74.50,250,-265,270,270,140,145,-152.5,145,250,270,-285,270,,685.0,75,M,Эдуард Титов,1968,SBD,Open,Single-ply
9,Vladislav Novokreschenov,74.50,260,-265,-265,260,-170,170,182.5,182.5,220,240,-257.5,240,,682.5,75,M,Владислав Новокрещенов,1974,SBD,Open,Single-ply
10,Dmitriy Kuznetsov,74.45,250,257.5,262.5,262.5,170,-177.5,177.5,177.5,240,-260,-260,240,,680.0,75,M,Дмитрий Кузнецов,1973,SBD,Open,Single-ply
11,Vladimir Vorontsov,74.80,240,-250,-250,240,185,195,202.5,202.5,200,230,,230,,672.5,75,M,Владимир Воронцов,1972,SBD,Open,Single-ply
12,Aleksandr Altsybeev,75.00,230,240,247.5,247.5,140,-147.5,150,150,250,260,265,265,,662.5,75,M,Александр Алцыбеев,1978,SBD,Open,Single-ply
13,Evgeniy Nechaev,74.65,240,-250,-250,240,-170,170,177.5,177.5,-240,-240,240,240,,657.5,75,M,Евгений Нечаев,1978,SBD,Open,Single-ply
14,Aleksey Sazonov,74.45,235,-250,255,255,-160,162.5,167.5,167.5,200,-210,-210,200,,622.5,75,M,Алексей Сазонов,1979,SBD,Open,Single-ply
15,Dmitriy Panov,74.60,210,220,227.5,227.5,135,140,150,150,210,220,-230,220,,597.5,75,M,Дмитрий Панов,1978,SBD,Open,Single-ply
DQ,Vyacheslav Smakotin,74.60,-235,235,-250,235,,,,,,,,,,,75,M,Вячеслав Смакотин,1976,SBD,Open,Single-ply
DQ,Mikhail Lanovskiy,74.50,225,-235,235,235,-135,-135,-140,,,,,,,,75,M,Михаил Лановский,1975,SBD,Open,Single-ply
DQ,Aleksandr Aksenov,74.75,-215,215,-225,215,-150,-150,-155,,,,,,,,75,M,Александр Аксенов,1958,SBD,Open,Single-ply
DQ,Aleksandr Khokhlov,74.10,-260,-260,-260,,,,,,,,,,,,75,M,Александр Хохлов,1970,SBD,Open,Single-ply
DQ,Aleksey Neveykov,75.00,-255,-255,-255,,,,,,,,,,,,75,M,Алексей Невейков,1966,SBD,Open,Single-ply
DQ,Andrey Chesnokov,74.50,-275,-275,-275,,,,,,,,,,,,75,M,Андрей Чесноков,1974,SBD,Open,Single-ply
DQ,Andrey Erokhov,75.00,-240,-240,,,,,,,,,,,,,75,M,Андрей Ерохов,1974,SBD,Open,Single-ply
DQ,Nikolay Kolosov,75.00,-235,-235,,,,,,,,,,,,,75,M,Николай Колосов,1960,SBD,Open,Single-ply
1,Sergey Mor,81.70,295,305,310,310,210,215,-220,215,300,310,-315,310,,835.0,82.5,M,Сергей Мор,1969,SBD,Open,Single-ply
2,Alexey Kharauzov,81.60,285,295,-305,295,-202.5,202.5,207.5,207.5,285,-295,295,295,,797.5,82.5,M,Алексей Хараузов,1973,SBD,Open,Single-ply
3,Sergey Nochnoy,80.60,290,-305,,290,205,215,-225,215,285,-295,-295,285,,790.0,82.5,M,Сергей Ночной,1965,SBD,Open,Single-ply
4,Aleksandr Ratataev,81.30,-275,275,-280,275,212.5,-217.5,,212.5,260,,267.5,267.5,,755.0,82.5,M,Александр Рататаев,1971,SBD,Open,Single-ply
5,Vladimir Rudenko,82.50,292.5,300,307.5,307.5,167.5,175,177.5,177.5,270,-280,-280,270,,755.0,82.5,M,Владимир Руденко,1981,SBD,Open,Single-ply
6,Vitaliy Redyuk,82.10,-270,270,280,280,170,180,185,185,270,-280,280,280,,745.0,82.5,M,Виталий Редюк,1973,SBD,Open,Single-ply
7,Aleksey Onofrienko,81.70,275,280,-290,280,145,152.5,160,160,280,290,-295,290,,730.0,82.5,M,Алексей Онофриенко,1974,SBD,Open,Single-ply
8,Yuriy Kuznetsov,81.20,260,267.5,-275,267.5,160,167.5,-172.5,167.5,260,280,-285,280,,715.0,82.5,M,Юрий Кузнецов,1971,SBD,Open,Single-ply
9,Vadim Usanov,82.00,,,240,240,,,175,175,,,300,300,,715.0,82.5,M,Вадим Усанов,1977,SBD,Open,Single-ply
10,Mikhail Lavrov,81.50,-245,245,260,260,150,-155,155,155,240,260,265,265,,680.0,82.5,M,Михаил Лавров,1980,SBD,Open,Single-ply
11,Viktor Manishin,79.80,235,240,247.5,247.5,167.5,172.5,177.5,177.5,250,-275,-275,250,,675.0,82.5,M,Виктор Манишин,1979,SBD,Open,Single-ply
12,Sergey Vlaznev,80.75,-215,215,225,225,170,177.5,185,185,240,255,-265,255,,665.0,82.5,M,Сергей Влазнев,1975,SBD,Open,Single-ply
13,Yuriy Titov,79.80,235,245,-250,245,160,-170,170,170,245,-260,-260,245,,660.0,82.5,M,Юрий Титов,1974,SBD,Open,Single-ply
14,Aleksandr Gornostaev,79.05,250,-255,-255,250,150,-157.5,162.5,162.5,215,225,-235,225,,637.5,82.5,M,Александр Горностаев,1974,SBD,Open,Single-ply
15,Pavel Mitin,81.70,,,215,215,,,160,160,,,255,255,,630.0,82.5,M,Павел Митин,1969,SBD,Open,Single-ply
16,Ararat Varosyan,80.85,,,245,245,,,135,135,,,247.5,247.5,,627.5,82.5,M,Арарат Варосян,1977,SBD,Open,Single-ply
17,Vladimir Kovalev,75.25,-210,210,220,220,125,132.5,140,140,240,250,-260,250,,610.0,82.5,M,Владимир Ковалев,1976,SBD,Open,Single-ply
18,Roman Kovalenko,80.65,-220,220,-230,220,105,110,-112.5,110,260,280,-290,280,,610.0,82.5,M,Роман Коваленко,1980,SBD,Open,Single-ply
19,Sergiy Maryniuk,79.55,,,200,200,,,100,100,,,220,220,,520.0,82.5,M,Сергій Маринюк,1954,SBD,Open,Single-ply
DQ,Tagu Papava,80.85,-260,-260,-260,,,,,,,,,,,,82.5,M,Тагу Папава,1977,SBD,Open,Single-ply
DQ,Pavel Perov,82.50,-230,-230,-230,,,,,,,,,,,,82.5,M,Павел Перов,1966,SBD,Open,Single-ply
DQ,Ivan Dmitriev,82.50,-235,-235,-235,,,,,,,,,,,,82.5,M,Иван Дмитриев,1970,SBD,Open,Single-ply
1,Dmitriy Fedenko,88.40,310,320,330,330,200,210,-215,210,300,320,330,330,342.5,870.0,90,M,Дмитрий Феденко,1975,SBD,Open,Single-ply
2,Galim Ismagilov,88.80,290,300,305,305,187.5,192.5,-197.5,192.5,310,320,330,330,,827.5,90,M,Галим Исмагилов,1975,SBD,Open,Single-ply
3,Nikolai Kurakin,89.25,295,305,312.5,312.5,-200,200,-207.5,200,300,310,-317.5,310,,822.5,90,M,Николай Куракин,1967,SBD,Open,Single-ply
4,Alexei Sharovatov,88.85,275,-285,-285,275,-197.5,197.5,210,210,300,320,330,330,,815.0,90,M,Алексей Шароватов,1979,SBD,Open,Single-ply
5,Georgiy Funtikov,86.35,295,-305,305,305,190,-197.5,-197.5,190,-300,305,-315,305,,800.0,90,M,Георгий Фунтиков,1976,SBD,Open,Single-ply
6,Anton Bogdanov,87.90,290,300,310,310,185,190,195,195,270,280,-290,280,,785.0,90,M,Антон Богданов,1973,SBD,Open,Single-ply
7,Yuriy Ustinov,89.30,260,-280,290,290,175,185,-190,185,280,310,,310,,785.0,90,M,Юрий Устинов,1975,SBD,Open,Single-ply
8,Andrey Sorokin,89.75,290,300,-310,300,190,-200,-200,190,295,-300,-300,295,,785.0,90,M,Андрей Сорокин,1974,SBD,Open,Single-ply
9,Sergey Zalozhkov,89.75,290,300,-310,300,-165,165,175,175,275,295,310,310,,785.0,90,M,Сергей Заложков,1974,SBD,Open,Single-ply
10,Alexei Malunin,89.00,-260,260,272.5,272.5,-190,190,200,200,282.5,302.5,,302.5,,775.0,90,M,Алексей Малунин,1978,SBD,Open,Single-ply
11,Sergey Kharitonov,90.00,280,290,-300,290,175,182.5,-187.5,182.5,300,-305,-312.5,300,,772.5,90,M,Сергей Харитонов,1977,SBD,Open,Single-ply
12,Sergey Rykov,87.55,265,275,280,280,175,185,190,190,-265,265,275,275,,745.0,90,M,Сергей Рыков,1958,SBD,Open,Single-ply
13,Arsen Baykov,89.50,265,275,285,285,175,-185,-185,175,270,285,-300,285,,745.0,90,M,Арсен Байков,1981,SBD,Open,Single-ply
14,Vladimir Sedov,87.80,265,275,-280,275,175,-180,180,180,270,-290,-290,270,,725.0,90,M,Владимир Седов,1978,SBD,Open,Single-ply
15,Vladimir Firsov,84.40,-265,-265,265,265,170,-180,180,180,240,260,270,270,,715.0,90,M,Владимир Фирсов,1972,SBD,Open,Single-ply
16,Aleksandr Kashkarbaev,88.75,255,270,-275,270,150,160,165,165,255,270,280,280,,715.0,90,M,Александр Кашкарбаев,1976,SBD,Open,Single-ply
17,Mikhail Dulskiy,89.30,250,260,-270,260,140,145,150,150,280,295,-305,295,,705.0,90,M,Михаил Дульский,1976,SBD,Open,Single-ply
18,Mikhail Zolotarev,89.40,-250,-250,250,250,180,190,-195,190,250,-265,-265,250,,690.0,90,M,Михаил Золотарев,1979,SBD,Open,Single-ply
19,Evgeniy Parshuta,88.05,-240,245,-260,245,150,155,157.5,157.5,250,260,265,265,,667.5,90,M,Евгений Паршута,1980,SBD,Open,Single-ply
DQ,Evgeniy Bokov,87.95,-240,-250,260,260,150,160,170,170,-250,-250,,,,,90,M,Евгений Боков,1978,SBD,Open,Single-ply
DQ,Eduard Bolshakov,84.35,-305,305,-315,305,,,,,,,,,,,90,M,Эдуард Большаков,1969,SBD,Open,Single-ply
DQ,Vladimir Aksyutin,88.80,,,290,290,,,185,185,,,,,,,90,M,Владимир Аксютин,1974,SBD,Open,Single-ply
DQ,Vladimir Kanyukov,89.90,-270,-270,-270,,,,,,,,,,,,90,M,Владимир Канюков,1967,SBD,Open,Single-ply
DQ,Sergey Vorsin,90.00,-267.5,-267.5,-275,,,,,,,,,,,,90,M,Сергей Ворсин,1974,SBD,Open,Single-ply
DQ,Dmitriy Zaklyakov,88.90,-260,-270,-270,,,,,,,,,,,,90,M,Дмитрий Закляков,1980,SBD,Open,Single-ply
DQ,Sergey Stepanenko,89.65,,,,,,,,,,,,,,,90,M,Сергей Степаненко,1974,SBD,Open,Single-ply
DQ,Valeriy Volodko,88.75,-300,-300,-300,,,,,,,,,,,,90,M,Валерий Володько,1964,SBD,Open,Single-ply
1,Evgeniy Grachev,98.30,305,317.5,325,325,172.5,-180,-180,172.5,325,337.5,347.5,347.5,,845.0,100,M,Евгений Грачев,1973,SBD,Open,Single-ply
2,Sergey Kozlov,98.60,300,310,-315,310,205,210,-212.5,210,300,315,325,325,,845.0,100,M,Сергей Козлов,1962,SBD,Open,Single-ply
3,Andrey Babikov,99.00,-320,-320,320,320,185,-195,-200,185,270,285,295,295,,800.0,100,M,Андрей Бабиков,1971,SBD,Open,Single-ply
4,Azamat Islamov,99.00,290,-300,300,300,170,-180,-180,170,-322.5,-322.5,322.5,322.5,,792.5,100,M,Азамат Исламов,1967,SBD,Open,Single-ply
5,Mikhail Potemkin,97.30,270,290,300,300,160,-170,170,170,320,-330,-337.5,320,,790.0,100,M,Михаил Потемкин,1959,SBD,Open,Single-ply
6,Sergey Sidenko,99.30,285,-305,-305,285,-200,200,-205,200,260,285,300,300,,785.0,100,M,Сергей Сиденко,1961,SBD,Open,Single-ply
7,Sergey Apasov,97.80,-260,260,270,270,210,220,-225,220,280,-290,,280,,770.0,100,M,Сергей Апасов,1976,SBD,Open,Single-ply
8,Igor Medvedev,98.30,265,280,300,300,170,180,190,190,-245,255,275,275,,765.0,100,M,Игорь Медведев,1980,SBD,Open,Single-ply
9,Aleksey Gorbachev,97.30,265,-275,-275,265,205,210,215,215,260,270,280,280,,760.0,100,M,Алексей Горбачев,1979,SBD,Open,Single-ply
10,Sergey Anatskiy,96.50,280,300,310,310,165,175,180,180,240,260,265,265,,755.0,100,M,Сергей Анацкий,1966,SBD,Open,Single-ply
11,Vasiliy Babkin,92.40,275,-285,,275,-170,-170,170,170,280,-290,,280,,725.0,100,M,Василий Бабкин,1974,SBD,Open,Single-ply
12,Aleksandr Kamozin,98.40,260,270,-280,270,170,-180,-180,170,250,265,270,270,,710.0,100,M,Александр Камозин,1973,SBD,Open,Single-ply
DQ,Aleksandr Kuznetsov,98.00,330,345,-355,345,205,-215,215,215,-325,-325,,,,,100,M,Александр Кузнецов,1972,SBD,Open,Single-ply
DQ,Aleksey Ponukaev,94.00,295,305,-310,305,-205,-205,-205,,,,,,,,100,M,Алексей Понукаев,1973,SBD,Open,Single-ply
DQ,Vladimir Belousov,98.40,270,-280,280,280,-180,-180,-180,,,,,,,,100,M,Владимир Белоусов,1971,SBD,Open,Single-ply
DQ,Sergey Safronov,98.30,-270,270,275,275,-155,-160,-160,,,,,,,,100,M,Сергей Сафронов,1975,SBD,Open,Single-ply
DQ,Aleksandr Yurmanov,98.50,250,-260,-260,250,,,,,,,,,,,100,M,Александр Юрманов,1952,SBD,Open,Single-ply
DQ,Sergey Burmistrov,99.70,-340,-340,-340,,,,,,,,,,,,100,M,Сергей Бурмистров,1969,SBD,Open,Single-ply
DQ,Vladimir Kotkov,95.00,-265,-265,-270,,,,,,,,,,,,100,M,Владимир Котков,1980,SBD,Open,Single-ply
1,Alexei Malyarenko,108.35,-330,330,345,345,220,-232.5,-232.5,220,320,335,-340,335,,900.0,110,M,Алексей Маляренко,1971,SBD,Open,Single-ply
2,Yevgeny Birun,109.70,340,-345,347.5,347.5,-200,200,-202.5,200,335,345,-355,345,,892.5,110,M,Евгений Бирун,1973,SBD,Open,Single-ply
3,Konstantin Kuznetsov,109.90,-305,305,325,325,212.5,222.5,230,230,322.5,-342.5,-342.5,322.5,,877.5,110,M,Константин Кузнецов,1972,SBD,Open,Single-ply
4,Valentin Dedyulia,107.10,-340,350,360,360,205,215,-220,215,-300,300,,300,,875.0,110,M,Валентин Дедюля,1977,SBD,Open,Single-ply
5,Nikolai Platoshechkin,110.00,350,-360,-360,350,200,210,212.5,212.5,275,-325,,275,,837.5,110,M,Николай Платошечкин,1969,SBD,Open,Single-ply
6,Vadim Sosnovskiy,106.35,-310,310,320,320,195,205,210,210,300,-325,-325,300,,830.0,110,M,Вадим Сосновский,1977,SBD,Open,Single-ply
7,Maksim Novikov,107.50,290,-312.5,,290,180,190,197.5,197.5,300,315,-325,315,,802.5,110,M,Максим Новиков,1976,SBD,Open,Single-ply
8,Mikhail Puzanov,107.95,-260,270,280,280,-180,180,-187.5,180,280,295,305,305,,765.0,110,M,Михаил Пузанов,1970,SBD,Open,Single-ply
9,Maksim Chevernozhenko,108.70,280,-290,295,295,175,182.5,187.5,187.5,260,272.5,-282.5,272.5,,755.0,110,M,Максим Чеверноженко,1977,SBD,Open,Single-ply
10,Dmitriy Chechurin,101.60,225,-235,235,235,155,162.5,167.5,167.5,-250,250,,250,,652.5,110,M,Дмитрий Чечурин,1977,SBD,Open,Single-ply
11,Vyacheslav Aksenov,109.30,180,195,210,210,130,137.5,142.5,142.5,225,237.5,247.5,247.5,,600.0,110,M,Вячеслав Аксенов,1981,SBD,Open,Single-ply
DQ,Vyacheslav Piskunov,107.90,-370,-400,400,400,-205,-205,-205,,,,,,,,110,M,Вячеслав Пискунов,1951,SBD,Open,Single-ply
DQ,Andrey Schukin,109.50,-290,,,,,,,,,,,,,,110,M,Андрей Щукин,1966,SBD,Open,Single-ply
1,Maxim Podtynnyy,121.60,372.5,390,400,400,207.5,-217.5,-217.5,207.5,350,370,,370,,977.5,125,M,Максим Подтынный,1972,SBD,Open,Single-ply
2,Aleksandr Serebryakov,118.45,-365,365,-372.5,365,200,210,220,220,320,-335,-335,320,,905.0,125,M,Александр Серебряков,1979,SBD,Open,Single-ply
3,Igor Gagin,113.95,350,-370,-375,350,215,225,230,230,290,-320,-320,290,,870.0,125,M,Игорь Гагин,1969,SBD,Open,Single-ply
4,Roman Misyura,122.60,325,340,-345,340,-190,-190,190,190,-300,-300,300,300,,830.0,125,M,Роман Мисюра,1970,SBD,Open,Single-ply
5,Aleksandr Oleynik,110.20,295,-310,310,310,180,185,190,190,280,285,-290,285,,785.0,125,M,Александр Олейник,1978,SBD,Open,Single-ply
6,Mikhail Bulychev,119.00,260,275,282.5,282.5,-200,200,-210,200,260,275,-287.5,275,,757.5,125,M,Михаил Булычев,1973,SBD,Open,Single-ply
7,Stanislav Goryachev,111.30,280,300,310,310,170,180,-185,180,260,-280,-280,260,,750.0,125,M,Станислав Горячев,1975,SBD,Open,Single-ply
8,Gennadiy Rybin,117.40,280,-290,290,290,175,-180,180,180,260,-265,-265,260,,730.0,125,M,Геннадий Рыбин,1959,SBD,Open,Single-ply
9,Sergey Ovsyannikov,112.20,250,-270,270,270,155,165,-172.5,165,230,245,-255,245,,680.0,125,M,Сергей Овсянников,1979,SBD,Open,Single-ply
DQ,Oleg Troshin,114.40,-300,-325,,,,,,,,,,,,,125,M,Олег Трошин,1982,SBD,Open,Single-ply
1,Maxim Gurianov,134.60,365,385,-400,385,240,-250,250,250,340,355,372.5,372.5,,1007.5,125+,M,Максим Гурьянов,1975,SBD,Open,Single-ply
2,Yuriy Fomin,145.30,350,362.5,372.5,372.5,220,232.5,235,235,320,330,337.5,337.5,,945.0,125+,M,Юрий Фомин,1969,SBD,Open,Single-ply
3,Arkadiy Vasnetsov,135.80,-300,-300,300,300,-200,200,210,210,280,300,310,310,,820.0,125+,M,Аркадий Васнецов,1976,SBD,Open,Single-ply
4,Konstantin Zelenin,144.90,260,275,285,285,220,225,230,230,277.5,287.5,-297.5,287.5,,802.5,125+,M,Константин Зеленин,1977,SBD,Open,Single-ply
5,Sergey Ryzhkov,126.20,280,-300,-300,280,-180,-180,180,180,-230,230,,230,,690.0,125+,M,Сергей Рыжков,1979,SBD,Open,Single-ply
DQ,Sergey Grinyaev,125.25,,,,,,,,,,,,,,,125+,M,Сергей Гриняев,1977,SBD,Open,Single-ply
DQ,Igor Mironov,126.40,,,,,,,,,,,,,,,125+,M,Игорь Миронов,1963,SBD,Open,Single-ply
1,Natalya Shapovalova,44.00,115,-120,120,120,60,65,-67.5,65,115,122.5,130,130,,315.0,44,F,Наталья Шаповалова,1983,SBD,Open,Single-ply
2,Natalya Kolesnikova,43.80,105,112.5,117.5,117.5,52.5,55,57.5,57.5,105,-115,117.5,117.5,,292.5,44,F,Наталия Колесникова,1975,SBD,Open,Single-ply
3,Natalya Tulina,43.80,100,110,112.5,112.5,-55,-55,55,55,102.5,107.5,115,115,,282.5,44,F,Наталья Тулина,1959,SBD,Open,Single-ply
4,Anna Alekseeva,43.90,100,-105,-105,100,-47.5,50,-55,50,107.5,-112.5,-120,107.5,,257.5,44,F,Анна Алексеева,1976,SBD,Open,Single-ply
5,Yuliya Blazhko,43.30,102.5,-107.5,110,110,45,47.5,50,50,65,72.5,85,85,,245.0,44,F,Юлия Блажко,1983,SBD,Open,Single-ply
6,Alla Kochergina,42.40,-90,-90,90,90,-55,-55,55,55,-90,90,,90,,235.0,44,F,Алла Кочергина,1979,SBD,Open,Single-ply
7,Maria Chushchina,39.80,80,85,90,90,35,40,42.5,42.5,80,90,-102.5,90,,222.5,44,F,Мария Чущина,1985,SBD,Open,Single-ply
DQ,Olga Golubeva,42.10,-55,-55,55,55,-35,-40,-40,,,,,,,,44,F,Ольга Голубева,1970,SBD,Open,Single-ply
DQ,Natalya Krikunova,44.00,-110,-110,-110,,,,,,,,,,,,44,F,Наталья Крикунова,1981,SBD,Open,Single-ply
1,Natalya Salamon,48.00,145,155,-160,155,77.5,-85,85,85,150,-160,-160,150,,390.0,48,F,Наталья Саламон,1970,SBD,Open,Single-ply
2,Djamilya Fasakhova,47.60,127.5,135,140,140,70,75,-80,75,125,132.5,137.5,137.5,,352.5,48,F,Джамиля Фасахова,1968,SBD,Open,Single-ply
3,Tatyana Telegina,47.90,125,135,142.5,142.5,60,67.5,-72.5,67.5,115,122.5,125,125,,335.0,48,F,Татьяна Телегина,1961,SBD,Open,Single-ply
4,Nadezhda Smirnova,47.80,105,112.5,117.5,117.5,60,-65,65,65,107.5,112.5,117.5,117.5,,300.0,48,F,Надежда Смирнова,1979,SBD,Open,Single-ply
5,Natalya Zherebtsova,47.95,97.5,105,112.5,112.5,55,60,62.5,62.5,100,107.5,112.5,112.5,,287.5,48,F,Наталья Жеребцова,1977,SBD,Open,Single-ply
6,Margarita Dzina,46.80,97.5,-102.5,102.5,102.5,52.5,-57.5,-57.5,52.5,120,-135,-135,120,,275.0,48,F,Маргарита Дзина,1969,SBD,Open,Single-ply
7,Elena Cherkavskaya,47.90,90,95,-100,95,-45,45,47.5,47.5,90,100,110,110,,252.5,48,F,Елена Черкавская,1966,SBD,Open,Single-ply
8,Natalya Mikhaylova,48.00,100,105,-107.5,105,45,47.5,-50,47.5,95,100,-102.5,100,,252.5,48,F,Наталья Михайлова,1979,SBD,Open,Single-ply
9,Irina Gabova,48.00,90,100,-110,100,-50,50,-55,50,100,-110,-110,100,,250.0,48,F,Ирина Габова,1979,SBD,Open,Single-ply
10,Svetlana Davydenko,46.40,90,95,97.5,97.5,-55,55,57.5,57.5,85,92.5,95,95,,250.0,48,F,Светлана Давыденко,1973,SBD,Open,Single-ply
DQ,Ekaterina Glinkina,48.00,110,117.5,122.5,122.5,57.5,60,-62.5,60,-110,-110,-110,,,,48,F,Екатерина Глинкина,1984,SBD,Open,Single-ply
1,Tatyana Noskova,52.00,150,-162.5,162.5,162.5,85,92.5,97.5,97.5,-145,145,-152.5,145,,405.0,52,F,Татьяна Носкова,1970,SBD,Open,Single-ply
2,Tatyana Zebarova,51.40,120,130,137.5,137.5,75,-82.5,82.5,82.5,155,160,165,165,,385.0,52,F,Татьяна Зебарова,1967,SBD,Open,Single-ply
3,Anzhelika Smirnova,49.95,140,150,-155,150,70,75,-77.5,75,150,-155,-155,150,,375.0,52,F,Анжелика Смирнова,1982,SBD,Open,Single-ply
4,Svetlana Nikolaenko,50.00,-140,145,150,150,77.5,82.5,-85,82.5,-135,135,-140,135,,367.5,52,F,Светлана Николаенко,1979,SBD,Open,Single-ply
5,Galina Lyubeznaya,51.10,137.5,-145,-150,137.5,67.5,-72.5,75,75,132.5,142.5,-152.5,142.5,,355.0,52,F,Галина Любезная,1980,SBD,Open,Single-ply
6,Svetlana Karpenko,51.20,135,-142.5,147.5,147.5,67.5,72.5,75,75,-120,120,130,130,,352.5,52,F,Светлана Карпенко,1972,SBD,Open,Single-ply
7,Anna Lobanova,50.90,140,147.5,-152.5,147.5,60,65,67.5,67.5,125,-132.5,-132.5,125,,340.0,52,F,Анна Лобанова,1980,SBD,Open,Single-ply
8,Danna Maschenko,52.00,125,135,140,140,-65,-65,67.5,67.5,130,-135,-135,130,,337.5,52,F,Данна Мащенко,1977,SBD,Open,Single-ply
9,Lyubov Pavlova,52.00,-125,125,-132.5,125,-67.5,67.5,72.5,72.5,132.5,137.5,-142.5,137.5,,335.0,52,F,Любовь Павлова,1970,SBD,Open,Single-ply
10,Svetlana Samar,51.80,-122.5,122.5,-130,122.5,67.5,72.5,-75,72.5,125,135,-142.5,135,,330.0,52,F,Светлана Самар,1979,SBD,Open,Single-ply
11,Vera Kholyavina,51.10,130,-140,140,140,60,62.5,67.5,67.5,110,120,-125,120,,327.5,52,F,Вера Холявина,1984,SBD,Open,Single-ply
12,Tatyana Illyushko,51.90,-115,115,122.5,122.5,62.5,67.5,-72.5,67.5,125,130,135,135,,325.0,52,F,Татьяна Иллюшко,1975,SBD,Open,Single-ply
13,Marina Udodova,51.95,110,117.5,-122.5,117.5,50,55,60,60,-125,127.5,-137.5,127.5,,305.0,52,F,Марина Удодова,1979,SBD,Open,Single-ply
14,Olga Grishanova,51.30,120,-125,-125,120,52.5,-55,55,55,125,-140,-140,125,,300.0,52,F,Ольга Гришанова,1976,SBD,Open,Single-ply
15,Marina Kravchenko,51.30,-115,115,120,120,55,60,-65,60,110,-117.5,-117.5,110,,290.0,52,F,Марина Кравченко,1981,SBD,Open,Single-ply
16,Elena Malykh,51.65,105,-115,115,115,50,52.5,55,55,90,95,100,100,,270.0,52,F,Елена Малых,1983,SBD,Open,Single-ply
17,Elena Matienko,51.50,100,-107.5,-107.5,100,-47.5,52.5,55,55,100,110,115,115,,270.0,52,F,Елена Матиенко,1977,SBD,Open,Single-ply
18,Tatyana Golovina,50.50,90,105,-112.5,105,45,-50,,45,110,115,-122.5,115,,265.0,52,F,Татьяна Головина,1978,SBD,Open,Single-ply
19,Galiya Rezepova,51.65,90,100,107.5,107.5,42.5,47.5,-50,47.5,90,100,110,110,,265.0,52,F,Галия Резепова,1983,SBD,Open,Single-ply
20,Alena Ryzhkova,51.80,85,-90,90,90,45,50,-52.5,50,100,107.5,-112.5,107.5,,247.5,52,F,Алена Рыжкова,1979,SBD,Open,Single-ply
DQ,Olga Soshina,51.15,97.5,102.5,-105,102.5,-50,-50,-50,,,,,,,,52,F,Ольга Сошина,1985,SBD,Open,Single-ply
DQ,Irina Tatarova,51.40,,,,,,,,,,,,,,,52,F,Ирина Татарова,1975,SBD,Open,Single-ply
1,Valentina Nelyubova,55.45,160,170,177.5,177.5,110,117.5,122.5,122.5,160,167.5,175,175,,475.0,56,F,Валентина Нелюбова,1966,SBD,Open,Single-ply
2,Inna Filimonova #1,55.45,170,180,190,190,82.5,90,92.5,92.5,155,162.5,170,170,,452.5,56,F,Инна Филимонова,1976,SBD,Open,Single-ply
3,Natalya Ivanova,55.15,167.5,-175,-180,167.5,-92.5,-92.5,92.5,92.5,172.5,175,180,180,,440.0,56,F,Наталья Иванова,1964,SBD,Open,Single-ply
4,Yelena Perfilyeva,55.85,155,-170,170,170,82.5,87.5,90,90,145,155,165,165,,425.0,56,F,Елена Перфильева,1978,SBD,Open,Single-ply
5,Viktoriya Petukhova,54.80,-150,150,165,165,75,-80,-80,75,140,155,-162.5,155,,395.0,56,F,Виктория Петухова,1977,SBD,Open,Single-ply
6,Larisa Karpova,55.15,140,147.5,-152.5,147.5,65,-70,-72.5,65,160,167.5,172.5,172.5,,385.0,56,F,Лариса Карпова,1971,SBD,Open,Single-ply
7,Anastasia Yakovleva,55.40,145,155,165,165,55,60,-62.5,60,145,155,160,160,,385.0,56,F,Анастасия Яковлева,1983,SBD,Open,Single-ply
8,Lyudmila Yushina,55.10,137.5,145,152.5,152.5,-67.5,67.5,77.5,77.5,137.5,147.5,-152.5,147.5,,377.5,56,F,Людмила Юшина,1983,SBD,Open,Single-ply
9,Yulia Chepushtanova,55.05,137.5,145,150,150,-77.5,80,-82.5,80,135,142.5,-147.5,142.5,,372.5,56,F,Юлия Чепуштанова,1980,SBD,Open,Single-ply
10,Inna Metlina,55.35,130,140,150,150,-55,60,65,65,125,-135,135,135,,350.0,56,F,Инна Метлина,1977,SBD,Open,Single-ply
11,Victoria Borodkina,55.50,135,-145,145,145,60,-62.5,-62.5,60,135,-140,,135,,340.0,56,F,Виктория Бородкина,1979,SBD,Open,Single-ply
12,Valeriya Lyovochkina,55.00,-135,135,-140,135,-55,55,60,60,140,-145,145,145,,340.0,56,F,Валерия Лёвочкина,1964,SBD,Open,Single-ply
13,Larisa Sviderskaya,55.40,130,-135,135,135,-67.5,67.5,70,70,127.5,132.5,-135,132.5,,337.5,56,F,Лариса Свидерская,1967,SBD,Open,Single-ply
14,Natalya Igosheva,55.80,115,125,-130,125,65,70,-75,70,110,117.5,122.5,122.5,,317.5,56,F,Наталья Игошева,1981,SBD,Open,Single-ply
15,Tatyana Kovalenko,54.80,110,117.5,-122.5,117.5,55,60,-62.5,60,105,112.5,120,120,,297.5,56,F,Татьяна Коваленко,1982,SBD,Open,Single-ply
DQ,Tatyana Gavrilova,54.20,-135,-135,-135,,,,,,,,,,,,56,F,Татьяна Гаврилова,1963,SBD,Open,Single-ply
DQ,Irina Sidorova,55.35,-175,-175,-175,,,,,,,,,,,,56,F,Ирина Сидорова,1975,SBD,Open,Single-ply
DQ,Tatyana Semenova,54.70,-125,-130,-130,,,,,,,,,,,,56,F,Татьяна Семенова,1971,SBD,Open,Single-ply
DQ,Elena Bolsheborodova,55.00,-135,-135,-135,,,,,,,,,,,,56,F,Елена Большебородова,1974,SBD,Open,Single-ply
1,Irina Abramova,58.65,200,210,-215,210,100,105,110,110,200,215,-225,215,,535.0,60,F,Ирина Абрамова,1974,SBD,Open,Single-ply
2,Elena Fomina,59.00,197.5,207.5,-215,207.5,115,-120,-120,115,187.5,195,-200,195,,517.5,60,F,Елена Фомина,1969,SBD,Open,Single-ply
3,Svetlana Fishchenko,59.75,170,180,190,190,-110,-110,110,110,170,180,187.5,187.5,,487.5,60,F,Светлана Фищенко,1965,SBD,Open,Single-ply
4,Diana Sidorova,59.40,180,-190,190,190,-95,-95,95,95,180,190,-202.5,190,,475.0,60,F,Диана Сидорова,1975,SBD,Open,Single-ply
5,Natalya Kashirina,59.75,160,-172.5,-175,160,85,90,92.5,92.5,180,195,202.5,202.5,,455.0,60,F,Наталья Каширина,1954,SBD,Open,Single-ply
6,Elena Kuleshova,59.45,-147.5,155,160,160,100,105,-107.5,105,160,170,-175,170,,435.0,60,F,Елена Кулешова,1969,SBD,Open,Single-ply
7,Veronika Kanutkina,58.95,155,-165,165,165,75,80,-82.5,80,150,-160,-160,150,,395.0,60,F,Вероника Кануткина,1979,SBD,Open,Single-ply
8,Natalya Mirzoeva,58.25,130,145,155,155,-70,-70,70,70,145,155,-160,155,,380.0,60,F,Наталья Мирзоева,1968,SBD,Open,Single-ply
9,Inna Zakharova,59.75,140,-150,150,150,65,70,77.5,77.5,150,-170,-172.5,150,,377.5,60,F,Инна Захарова,1976,SBD,Open,Single-ply
10,Irina Pinina,59.90,125,140,-147.5,140,87.5,-92.5,-92.5,87.5,135,147.5,-155,147.5,,375.0,60,F,Ирина Пинина,1963,SBD,Open,Single-ply
11,Lyubov Loschinina,59.10,-135,140,-150,140,57.5,62.5,65,65,145,155,165,165,,370.0,60,F,Любовь Лощинина,1974,SBD,Open,Single-ply
12,Anastasia Sukhacheva,59.50,142.5,-147.5,147.5,147.5,60,65,67.5,67.5,142.5,-155,155,155,,370.0,60,F,Анастасия Сухачева,1980,SBD,Open,Single-ply
13,Nadezhda Rastorgueva,59.50,135,140,142.5,142.5,65,67.5,-70,67.5,140,-160,-160,140,,350.0,60,F,Надежда Расторгуева,1958,SBD,Open,Single-ply
14,Olga Pantina,58.40,-135,-135,135,135,70,-77.5,-77.5,70,135,-145,-145,135,,340.0,60,F,Ольга Пантина,1979,SBD,Open,Single-ply
15,Elina Deryagina,59.20,-125,130,137.5,137.5,-55,55,60,60,130,135,140,140,,337.5,60,F,Элина Дерягина,1953,SBD,Open,Single-ply
16,Irina Berman,59.05,-120,120,127.5,127.5,50,-55,-55,50,120,132.5,140,140,,317.5,60,F,Ирина Берман,1975,SBD,Open,Single-ply
17,Yuliya Babina,58.00,110,-120,125,125,60,-70,-70,60,130,-145,-145,130,,315.0,60,F,Юлия Бабина,1974,SBD,Open,Single-ply
18,Margarita Sokolova,59.10,-110,110,-115,110,60,-65,-67.5,60,135,-140,-140,135,,305.0,60,F,Маргарита Соколова,1977,SBD,Open,Single-ply
19,Nadezhda Fedyashova,58.00,90,97.5,102.5,102.5,50,55,60,60,80,90,-100,90,,252.5,60,F,Надежда Федяшова,1982,SBD,Open,Single-ply
DQ,Natalya Kurenkova,58.80,-120,-120,-120,,,,,,,,,,,,60,F,Наталья Куренкова,1981,SBD,Open,Single-ply
DQ,Anzhela Kozlova,59.05,-110,-117.5,-117.5,,,,,,,,,,,,60,F,Анжела Козлова,1978,SBD,Open,Single-ply
1,Svetlana Dedyulya,67.30,-200,200,210,210,140,147.5,152.5,152.5,200,-210,210,210,,572.5,67.5,F,Светлана Дедюля,1975,SBD,Open,Single-ply
2,Natalya Magula,67.20,-210,210,217.5,217.5,-110,-110,110,110,200,210,-215,210,,537.5,67.5,F,Наталья Магула,1966,SBD,Open,Single-ply
3,Yulia Zaugolova,61.60,-175,175,-185,175,80,85,90,90,170,177.5,-182.5,177.5,,442.5,67.5,F,Юлия Зауголова,1981,SBD,Open,Single-ply
4,Elena Melikhova,67.10,140,145,150,150,85,90,92.5,92.5,150,157.5,165,165,,407.5,67.5,F,Елена Мелихова,1972,SBD,Open,Single-ply
5,Elena Nikulina,60.85,150,-160,160,160,70,-75,-75,70,150,160,-170,160,,390.0,67.5,F,Елена Никулина,1977,SBD,Open,Single-ply
6,Aleksandra Yudintseva,67.25,-140,140,-145,140,60,65,-67.5,65,130,-137.5,-137.5,130,,335.0,67.5,F,Александра Юдинцева,1972,SBD,Open,Single-ply
7,Elena Sheverdina,65.75,120,-127.5,130,130,-70,-70,70,70,-130,130,-142.5,130,,330.0,67.5,F,Елена Шевердина,1968,SBD,Open,Single-ply
8,Marina Kravchenko,61.15,-115,115,122.5,122.5,57.5,60,65,65,110,125,130,130,,317.5,67.5,F,Марина Кравченко,1981,SBD,Open,Single-ply
DQ,Lyudmila Yurinskaya,65.25,-165,-165,-165,,,,,,,,,,,,67.5,F,Людмила Юринская,1970,SBD,Open,Single-ply
1,Olesya Rychkova,74.85,205,-215,215,215,125,-130,-130,125,220,-230,-230,220,,560.0,75,F,Олеся Рычкова,1974,SBD,Open,Single-ply
2,Anna Terentyeva,73.35,180,195,-205,195,115,125,-130,125,180,190,200,200,,520.0,75,F,Анна Терентьева,1975,SBD,Open,Single-ply
3,Svetlana Samokhina,68.20,150,162.5,167.5,167.5,102.5,110,112.5,112.5,152.5,157.5,160,160,,440.0,75,F,Светлана Самохина,1975,SBD,Open,Single-ply
4,Svetlana Bochko,71.90,150,160,167.5,167.5,80,-87.5,87.5,87.5,162.5,175,-187.5,175,,430.0,75,F,Светлана Бочко,1963,SBD,Open,Single-ply
5,Lyudmila Vanderova,72.65,-150,150,-160,150,-70,,70,70,160,165,170,170,,390.0,75,F,Людмила Вандерова,1968,SBD,Open,Single-ply
6,Larisa Schepina,68.65,100,110,115,115,62.5,70,72.5,72.5,112.5,122.5,125,125,,312.5,75,F,Лариса Щепина,1970,SBD,Open,Single-ply
1,Elena Ignatenkova,79.25,225,235,245,245,-130,130,135,135,217.5,225,237.5,237.5,,617.5,82.5,F,Елена Игнатенкова,1971,SBD,Open,Single-ply
2,Natalya Zotova-Payusova,78.80,210,220,230,230,140,145,150,150,215,227.5,235,235,,615.0,82.5,F,Наталья Зотова,1975,SBD,Open,Single-ply
3,Elena Yurik,77.50,-200,200,,200,140,145,150,150,200,,,200,,550.0,82.5,F,Елена Юрик,1977,SBD,Open,Single-ply
4,Tatyana Ponomareva,76.10,100,115,122.5,122.5,-65,65,72.5,72.5,120,135,142.5,142.5,,337.5,82.5,F,Татьяна Пономарева,1962,SBD,Open,Single-ply
1,Galina Karpova,96.00,205,-220,230,230,110,117.5,132.5,132.5,200,210,-215,210,,572.5,90+,F,Галина Карпова,1968,SBD,Open,Single-ply
