Place,Name,State,WeightClassKg,BodyweightKg,Age,Best3SquatKg,Best3BenchKg,Best3DeadliftKg,TotalKg,Sex,Division,Equipment,Event
DQ,Vince Cadag,NV,90,87.8,19,182.5,122.5,,,M,Juniors 18-19,Raw,SBD
1,Zachary Manzi,NV,100,96.6,17,180,130,220,530,M,Juniors 16-17,Raw,SBD
1,Ruben Gay,NV,100,99.2,35,215,140,307.5,662.5,M,Open,Raw,SBD
1,Jean-Luc Badon,NV,110,108.6,28,245,167.5,227.5,640,M,Open,Raw,SBD
1,Brandon Allen,NV,140,133.2,28,275,227.5,185,687.5,M,Open,Raw,SBD
1,Sean Reisner,NV,90,87.8,28,260,142.5,272.5,675,M,Open,Wraps,SBD
1,Ruben Gay,NV,100,99.2,35,,,307.5,307.5,M,Open,Raw,D
