Division,WeightClassKg,Place,Name,Team,BodyweightKg,Best3SquatKg,Best3BenchKg,Best3DeadliftKg,TotalKg,Equipment,Event,Sex
Boys,51.71,1,Jordan Wilkerson,Keller Central,51.53,167.83,88.45,176.9,433.18,Single-ply,SBD,M
Boys,51.71,2,Stephen Gaut,Keller Central,51.71,142.88,86.18,156.49,385.55,Single-ply,SBD,M
Boys,51.71,3,Chandler Bush,Elysian Fields,50.8,133.81,61.23,142.88,337.93,Single-ply,SBD,M
Boys,51.71,4,Braden Marking,Royse City,51.17,122.47,47.63,115.67,285.76,Single-ply,SBD,M
Boys,51.71,5,Braylin Witherspoon,South Garland,50.71,88.45,54.43,120.2,263.08,Single-ply,SBD,M
Boys,55.79,1,Kyle Humphrey,Sherman,55.61,131.54,95.25,133.81,360.61,Single-ply,SBD,M
Boys,55.79,2,Timothy Hutton,Paradise,55.61,122.47,72.57,131.54,326.59,Single-ply,SBD,M
Boys,55.79,3,Zack Doyle,Royse City,53.07,129.27,68.04,120.2,317.51,Single-ply,SBD,M
Boys,55.79,DQ,Mason Vison,Sanger,53.71,115.67,,,,Single-ply,SBD,M
Boys,59.87,1,Logan Combs,Royse City,57.97,163.29,97.52,170.1,430.91,Single-ply,SBD,M
Boys,59.87,2,Chance Cruz,Argyle,58.97,151.95,68.04,170.1,390.09,Single-ply,SBD,M
Boys,59.87,3,Zack Carter,Sanger,59.78,142.88,72.57,142.88,358.34,Single-ply,SBD,M
Boys,59.87,4,Kollin Moss,Royse City,58.33,133.81,74.84,147.42,356.07,Single-ply,SBD,M
Boys,59.87,5,Kyle Amos,Royse City,56.61,131.54,61.23,149.69,342.46,Single-ply,SBD,M
Boys,67.13,1,Tajohn Livingston,South Garland,61.69,174.63,79.38,210.92,464.93,Single-ply,SBD,M
Boys,67.13,2,Kai Green,Keller Central,67.04,183.7,86.18,195.04,464.93,Single-ply,SBD,M
Boys,67.13,3,Kevin Romero,Sherman,65.77,147.42,108.86,185.97,442.25,Single-ply,SBD,M
Boys,67.13,4,Cameron Washington,Sherman,66.04,161.03,88.45,185.97,435.45,Single-ply,SBD,M
Boys,67.13,5,Carlos Triplett,Hurst Bell,66.04,167.83,79.38,181.44,428.64,Single-ply,SBD,M
Boys,67.13,6,Jaron Humphrey,Wichita Falls Hirschi,66.59,172.37,108.86,145.15,426.38,Single-ply,SBD,M
Boys,67.13,7,Stone Crisp,Elysian Fields,62.69,136.08,106.59,170.1,412.77,Single-ply,SBD,M
Boys,67.13,8,Gage Trujillo,Keller,64.5,136.08,102.06,136.08,374.21,Single-ply,SBD,M
Boys,67.13,9,Robin Cung,Royse City,64.68,138.35,74.84,161.03,374.21,Single-ply,SBD,M
Boys,67.13,10,Henry Robinson,Argyle,65.32,113.4,83.91,138.35,335.66,Single-ply,SBD,M
Boys,67.13,11,Ian Clark,Keller Central,60.51,95.25,70.31,124.74,290.3,Single-ply,SBD,M
Boys,67.13,DQ,Ryan Collins,Lucas Lovejoy,67.13,,,,,Single-ply,SBD,M
Boys,67.13,DQ,Tj Bah,Hurst Bell,67.13,174.63,92.99,,,Single-ply,SBD,M
Boys,74.84,1,Noah Moreno,Keller Central,74.3,226.8,142.88,183.7,553.38,Single-ply,SBD,M
Boys,74.84,2,DeVante Clayton,Sherman,72.94,199.58,117.93,215.46,532.97,Single-ply,SBD,M
Boys,74.84,3,Carlos Encarnacion,Keller Central,74.84,219.99,111.13,199.58,530.7,Single-ply,SBD,M
Boys,74.84,4,Tony Miknavich,Garland Rowlett,74.21,185.97,117.93,208.65,512.56,Single-ply,SBD,M
Boys,74.84,5,Gabriel Dexter,Forney,74.03,195.04,124.74,174.63,494.42,Single-ply,SBD,M
Boys,74.84,6,Cody Hunter,Sherman,71.76,181.44,115.67,195.04,492.15,Single-ply,SBD,M
Boys,74.84,7,Kisi Moeakiola,Hurst Bell,74.21,190.51,117.93,176.9,485.34,Single-ply,SBD,M
Boys,74.84,8,Daniel Delgado,South Garland,74.21,183.7,99.79,181.44,464.93,Single-ply,SBD,M
Boys,74.84,9,Greg Stringfellow,Argyle,73.94,176.9,88.45,172.37,437.72,Single-ply,SBD,M
Boys,74.84,10,Calvin Ball,Keller,73.12,167.83,74.84,183.7,426.38,Single-ply,SBD,M
Boys,74.84,11,Dylan Copeland,Keller Central,73.71,129.27,83.91,149.69,362.87,Single-ply,SBD,M
Boys,74.84,DQ,Justin Taylor,Paradise,74.84,,,,,Single-ply,SBD,M
Boys,82.1,1,Zack Luna,Keller,81.28,213.19,129.27,206.38,548.85,Single-ply,SBD,M
Boys,82.1,2,Stanley Coleman,Keller Central,79.02,226.8,140.61,172.37,539.77,Single-ply,SBD,M
Boys,82.1,3,Naton Edwards,Argyle,80.65,188.24,115.67,231.33,535.24,Single-ply,SBD,M
Boys,82.1,4,Isaiah Ganaway,Keller Central,79.47,210.92,115.67,204.12,530.7,Single-ply,SBD,M
Boys,82.1,5,Seth Kim,Euless Trinity,81.65,181.44,111.13,197.31,489.88,Single-ply,SBD,M
Boys,82.1,6,Jacob Robinson,Paradise,78.83,195.04,97.52,190.51,483.08,Single-ply,SBD,M
Boys,82.1,7,Damon Metzger,Keller Central,79.38,161.03,92.99,190.51,444.52,Single-ply,SBD,M
Boys,89.81,1,Landon Sleeper,Keller Central,89.81,254.01,142.88,204.12,601.01,Single-ply,SBD,M
Boys,89.81,2,Beni Kabongo,Hurst Bell,88.27,190.51,127.01,226.8,544.31,Single-ply,SBD,M
Boys,89.81,3,Josh Vakapuna,Hurst Bell,89.72,197.31,136.08,195.04,528.44,Single-ply,SBD,M
Boys,89.81,4,Cheyenne Ayers,Hurst Bell,86.45,210.92,111.13,204.12,526.17,Single-ply,SBD,M
Boys,89.81,5,Kaleb Evans,Paradise,87.45,204.12,104.33,217.72,526.17,Single-ply,SBD,M
Boys,89.81,6,Eric Cooper,Keller Central,87.36,183.7,102.06,183.7,469.47,Single-ply,SBD,M
Boys,89.81,7,Jake Rodriguez,Argyle,83.46,163.29,106.59,197.31,467.2,Single-ply,SBD,M
Boys,89.81,DQ,Keyshawn Watkins,Hurst Bell,89.81,,,,,Single-ply,SBD,M
Boys,89.81,DQ,Jacoby Roberts,Euless Trinity,89.81,,,,,Single-ply,SBD,M
Boys,89.81,DQ,Tristan Reilly,Sanger,89.09,190.51,,,,Single-ply,SBD,M
Boys,99.79,1,Brock Prengler,Lucas Lovejoy,99.16,235.87,142.88,231.33,610.08,Single-ply,SBD,M
Boys,99.79,2,Sergio Arriaga,Lucas Lovejoy,99.43,240.4,120.2,233.6,594.21,Single-ply,SBD,M
Boys,99.79,3,Brett Carter,Sanger,93.62,226.8,133.81,204.12,564.72,Single-ply,SBD,M
Boys,99.79,4,Kahn Mavaega,Euless Trinity,99.7,208.65,115.67,226.8,551.11,Single-ply,SBD,M
Boys,99.79,5,Travis Chapman,Euless Trinity,98.52,206.38,127.01,213.19,546.58,Single-ply,SBD,M
Boys,99.79,6,Pedro Tobar,South Garland,95.89,208.65,108.86,215.46,532.97,Single-ply,SBD,M
Boys,99.79,7,Cade McGuffin,Keller Central,99.79,208.65,117.93,208.65,535.24,Single-ply,SBD,M
Boys,99.79,8,Kyle McIver,Keller Central,97.07,172.37,92.99,201.85,467.2,Single-ply,SBD,M
Boys,99.79,DQ,Jimmy Nguyen,Keller Central,94.12,142.88,68.04,,,Single-ply,SBD,M
Boys,99.79,DQ,Chris Lockett,Garland Rowlett,95.07,226.8,113.4,,,Single-ply,SBD,M
Boys,109.77,1,Spencer King,Justin Northwest,104.42,247.21,120.2,235.87,603.28,Single-ply,SBD,M
Boys,109.77,2,Owen Petrie,Argyle,108.14,219.99,133.81,244.94,598.74,Single-ply,SBD,M
Boys,109.77,3,Justin Shipman,Castleberry,102.78,235.87,136.08,210.92,582.87,Single-ply,SBD,M
Boys,109.77,4,Mason Holzer,Sanger,102.6,233.6,122.47,195.04,551.11,Single-ply,SBD,M
Boys,109.77,5,Jt Sleeper,Keller Central,108.5,204.12,111.13,163.29,478.54,Single-ply,SBD,M
Boys,109.77,DQ,Hudson West,Euless Trinity,104.69,174.63,129.27,,,Single-ply,SBD,M
Boys,124.74,1,Jackson Skelton,Northwest Eaton,112.4,226.8,129.27,222.26,578.33,Single-ply,SBD,M
Boys,124.74,2,Marcus Sanchez,South Garland,123.1,238.14,131.54,192.78,562.45,Single-ply,SBD,M
Boys,124.74,3,Darius Dunlap,Garland Rowlett,112.22,238.14,127.01,192.78,557.92,Single-ply,SBD,M
Boys,124.74,4,Chris Solis,Garland Rowlett,110.95,231.33,145.15,170.1,546.58,Single-ply,SBD,M
Boys,124.74,5,Israel Gutierrez,Sherman,115.48,210.92,120.2,195.04,526.17,Single-ply,SBD,M
Boys,124.74,6,Christian Villalobos,South Garland,111.31,204.12,108.86,183.7,496.68,Single-ply,SBD,M
Boys,124.74,7,David Aleamotua,Euless Trinity,122.11,183.7,133.81,156.49,474,Single-ply,SBD,M
Boys,124.74,8,Jayton Polley,Argyle,110.77,161.03,106.59,197.31,464.93,Single-ply,SBD,M
Boys,124.74,DQ,Lotu Asaeli,Euless Trinity,121.38,215.46,120.2,,,Single-ply,SBD,M
Boys,124.74,DQ,Jeremiah Franks,Garland Rowlett,122.11,210.92,106.59,,,Single-ply,SBD,M
Boys,124.74,DQ,Jake Palmer,Forney,116.3,249.48,131.54,,,Single-ply,SBD,M
Boys,124.74,DQ,Rudy Vasquez,Sherman,120.93,251.74,138.35,,,Single-ply,SBD,M
Boys,124.74+,1,TK Walton,Sherman,143.15,247.21,165.56,242.67,655.44,Single-ply,SBD,M
Boys,124.74+,2,Brendan Fredericks,Northwest Eaton,131.27,272.16,129.27,249.48,650.91,Single-ply,SBD,M
Boys,124.74+,3,Gabriel Aplicano-Tito,Garland Rowlett,125.74,260.82,154.22,222.26,637.3,Single-ply,SBD,M
Boys,124.74+,4,Adrian Alcantara,Keller Central,129.73,247.21,136.08,224.53,607.81,Single-ply,SBD,M
Boys,124.74+,5,Sau Saafi,Euless Trinity,127.28,219.99,136.08,179.17,535.24,Single-ply,SBD,M
Boys,124.74+,6,Chris Tobar,Sherman,131.27,206.38,142.88,165.56,514.83,Single-ply,SBD,M
Boys,124.74+,7,Adam Dorsey,Keller Central,142.97,192.78,138.35,158.76,489.88,Single-ply,SBD,M
Boys,124.74+,8,Josh Hicks,Argyle,125.37,183.7,113.4,181.44,478.54,Single-ply,SBD,M
Boys,124.74+,DQ,Alex Ederson,Keller Fossil Ridge,141.25,263.08,127.01,,,Single-ply,SBD,M
Boys,124.74+,DQ,Alvin Veal,Euless Trinity,142.88,197.31,,,,Single-ply,SBD,M
Boys,124.74+,DQ,Cruz Tobar,Sherman,187.79,235.87,163.29,,,Single-ply,SBD,M
