Division,WeightClassKg,Place,Name,Team,BodyweightKg,Best3SquatKg,Best3BenchKg,Best3DeadliftKg,TotalKg,Equipment,Event,Sex
Girls,44.23,1,Haley Walls,Fairfield,43,108.86,47.63,99.79,256.28,Single-ply,SBD,F
Girls,44.23,2,Jessica Taylor,Gilmer,43.54,92.99,45.36,95.25,233.6,Single-ply,SBD,F
Girls,44.23,3,Caley Starks,Mabank,41.1,99.79,40.82,81.65,222.26,Single-ply,SBD,F
Girls,44.23,4,Madison Baugh,Canton,43.09,83.91,38.56,90.72,213.19,Single-ply,SBD,F
Girls,44.23,5,Desiree Tilman,Tyler Chapel Hill,42.91,70.31,36.29,104.33,210.92,Single-ply,SBD,F
Girls,44.23,6,Joseline Vega,Ferris,40.64,77.11,31.75,90.72,199.58,Single-ply,SBD,F
Girls,44.23,7,Ashyln Garcia,Fairfield,43.73,74.84,40.82,77.11,192.78,Single-ply,SBD,F
Girls,44.23,8,Rebeca Granillo,Athens,42.73,54.43,27.22,74.84,156.49,Single-ply,SBD,F
Girls,44.23,9,Katie Miller,Caddo Mills,41.55,56.7,20.41,70.31,147.42,Single-ply,SBD,F
Girls,44.23,10,Bayleigh Goss,Paris North Lamar,43.54,65.77,,70.31,136.08,Single-ply,SD,F
Girls,47.85,1,Karina Castillo,Gilmer,46.99,120.2,54.43,113.4,288.03,Single-ply,SBD,F
Girls,47.85,2,Jenifer Jamie,Henderson,47.17,113.4,40.82,102.06,256.28,Single-ply,SBD,F
Girls,47.85,3,Addison Barnes,Bullard,47.54,104.33,34.02,102.06,240.4,Single-ply,SBD,F
Girls,47.85,4,Valerie Nguyen,Mabank,46.99,95.25,38.56,83.91,217.72,Single-ply,SBD,F
Girls,47.85,5,Joselyn Chavez,Ferris,46.63,77.11,31.75,81.65,190.51,Single-ply,SBD,F
Girls,47.85,6,Ellen Holmes,Henderson,47.17,72.57,29.48,81.65,183.7,Single-ply,SBD,F
Girls,47.85,7,Stacy Nicholas,Mabank,47.08,120.2,,,120.2,Single-ply,S,F
Girls,51.94,1,Kaylor Williams,Tyler Chapel Hill,51.71,124.74,52.16,140.61,317.51,Single-ply,SBD,F
Girls,51.94,2,Jodi Isaac,Henderson,49.9,122.47,61.23,131.54,315.25,Single-ply,SBD,F
Girls,51.94,3,Hope DeMaranville,Midlothian Heritage,49.26,108.86,63.5,113.4,285.76,Single-ply,SBD,F
Girls,51.94,4,Ashli Watkins,Mabank,50.89,106.59,52.16,124.74,283.5,Single-ply,SBD,F
Girls,51.94,5,Bethany Pruitt,Fairfield,51.17,115.67,52.16,106.59,274.42,Single-ply,SBD,F
Girls,51.94,6,Ansley Downs,Paris,50.71,108.86,54.43,99.79,263.08,Single-ply,SBD,F
Girls,51.94,7,Calissa Burch,Mabank,51.35,102.06,45.36,113.4,260.82,Single-ply,SBD,F
Girls,51.94,8,Sharay Rodriguez,Athens,51.71,104.33,45.36,104.33,254.01,Single-ply,SBD,F
Girls,51.94,9,Ashley Riffe,Canton,50.89,99.79,47.63,104.33,251.74,Single-ply,SBD,F
Girls,51.94,10,Grace Carnes,Tyler Chapel Hill,50.8,97.52,40.82,108.86,247.21,Single-ply,SBD,F
Girls,51.94,11,Kailey Griffith,Gilmer,51.53,99.79,,,99.79,Single-ply,S,F
Girls,51.94,DQ,Sydney Jo Sears,Center,50.71,,,,,Single-ply,SBD,F
Girls,56.02,1,Nichole Howard,Kaufman,55.07,142.88,79.38,133.81,356.07,Single-ply,SBD,F
Girls,56.02,2,Victoria Urquidez,Gilmer,55.52,120.2,65.77,133.81,319.78,Single-ply,SBD,F
Girls,56.02,3,Emerald Bienavidez,Brownsboro,55.97,131.54,52.16,136.08,319.78,Single-ply,SBD,F
Girls,56.02,4,Annie Stevenson,Gilmer,56.02,122.47,52.16,129.27,303.91,Single-ply,SBD,F
Girls,56.02,5,Elizabeth Chavez,Center,54.25,129.27,45.36,111.13,285.76,Single-ply,SBD,F
Girls,56.02,6,Leticia Chavez,Fairfield,53.61,108.86,54.43,115.67,278.96,Single-ply,SBD,F
Girls,56.02,7,Carla Perez,Canton,52.89,102.06,45.36,106.59,254.01,Single-ply,SBD,F
Girls,56.02,8,Selina Beal,Gilmer,56.02,104.33,49.9,99.79,254.01,Single-ply,SBD,F
Girls,56.02,9,Keyundra Williams,Center,55.88,92.99,40.82,90.72,224.53,Single-ply,SBD,F
Girls,56.02,10,Anna Perez,Paris,53.8,127.01,61.23,,188.24,Single-ply,SB,F
Girls,60.1,1,Faith Burleson,Mabank,58.51,120.2,74.84,147.42,342.46,Single-ply,SBD,F
Girls,60.1,2,Karsyn Barragan,Tatum,58.6,136.08,56.7,149.69,342.46,Single-ply,SBD,F
Girls,60.1,3,Abby Hendrix,Midlothian Heritage,59.51,145.15,68.04,127.01,340.19,Single-ply,SBD,F
Girls,60.1,4,Sydney Bell,Gilmer,58.24,133.81,56.7,136.08,326.59,Single-ply,SBD,F
Girls,60.1,5,Sarah Richmond,Fairfield,57.52,115.67,58.97,111.13,285.76,Single-ply,SBD,F
Girls,60.1,6,Brooklyn Thomas,Rusk,60.1,111.13,54.43,120.2,285.76,Single-ply,SBD,F
Girls,60.1,7,Edith Cockerell,Fairfield,56.34,115.67,49.9,113.4,278.96,Single-ply,SBD,F
Girls,60.1,8,Abbie Phillips,Wills Point,57.79,102.06,58.97,115.67,276.69,Single-ply,SBD,F
Girls,60.1,9,Chloe Wilson,Fairfield,58.06,102.06,58.97,92.99,254.01,Single-ply,SBD,F
Girls,60.1,10,Brenda Guerro,Brownsboro,59.15,97.52,43.09,113.4,254.01,Single-ply,SBD,F
Girls,60.1,11,Alyssa Huff,Bullard,60.06,92.99,47.63,99.79,240.4,Single-ply,SBD,F
Girls,60.1,12,Abby Gonzalez,Emory Rains,58.88,129.27,,,129.27,Single-ply,S,F
Girls,67.36,1,Shiann Rice,Paris North Lamar,65.95,156.49,86.18,154.22,396.89,Single-ply,SBD,F
Girls,67.36,2,Jayla Sims,Paris,64.95,158.76,77.11,151.95,387.82,Single-ply,SBD,F
Girls,67.36,3,Maddi Isaacs,Fairfield,63.14,138.35,65.77,142.88,347,Single-ply,SBD,F
Girls,67.36,4,Cierra Anderson,Gilmer,64.32,154.22,61.23,127.01,342.46,Single-ply,SBD,F
Girls,67.36,5,Maiya Rodriguez,Kaufman,60.6,154.22,52.16,129.27,335.66,Single-ply,SBD,F
Girls,67.36,6,Cynthia Ilechie,Paris North Lamar,63.5,120.2,61.23,140.61,322.05,Single-ply,SBD,F
Girls,67.36,7,Patricia Hernandez,Canton,63.41,136.08,52.16,124.74,312.98,Single-ply,SBD,F
Girls,67.36,8,Amy Reynolds,Waxahachie Life,65.86,127.01,72.57,113.4,312.98,Single-ply,SBD,F
Girls,67.36,9,Carmen Lopez,Athens,65.68,138.35,61.23,111.13,310.71,Single-ply,SBD,F
Girls,67.36,10,Kendal Riley,Mabank,64.23,120.2,61.23,124.74,306.17,Single-ply,SBD,F
Girls,67.36,11,Hailey Stiles,Quinlan Ford,65.23,124.74,52.16,127.01,303.91,Single-ply,SBD,F
Girls,67.36,12,Karson Milford,Center,63.41,129.27,49.9,122.47,301.64,Single-ply,SBD,F
Girls,75.07,1,Anna Hooten,Emory Rains,74.12,165.56,81.65,151.95,399.16,Single-ply,SBD,F
Girls,75.07,2,Marshae Davis,Gilmer,73.57,154.22,70.31,156.49,381.02,Single-ply,SBD,F
Girls,75.07,3,Alexis Hathaway,Bullard,73.12,165.56,70.31,138.35,374.21,Single-ply,SBD,F
Girls,75.07,4,Audree Shelton,Bullard,69.31,158.76,54.43,138.35,351.53,Single-ply,SBD,F
Girls,75.07,5,Bopa Loeuk,Emory Rains,68.58,156.49,65.77,120.2,342.46,Single-ply,SBD,F
Girls,75.07,6,Charity Campbell,Bullard,73.03,142.88,49.9,124.74,317.51,Single-ply,SBD,F
Girls,75.07,7,Morgan Medley,Canton,70.13,136.08,52.16,122.47,310.71,Single-ply,SBD,F
Girls,75.07,8,Julia Duke,Canton,69.4,122.47,52.16,131.54,306.17,Single-ply,SBD,F
Girls,75.07,9,Gwenesynn Mitchell,Van,69.94,127.01,49.9,124.74,301.64,Single-ply,SBD,F
Girls,75.07,10,Tylie Bruce,Fairfield,71.85,106.59,63.5,120.2,290.3,Single-ply,SBD,F
Girls,75.07,11,Emily Lone,Paris North Lamar,71.94,113.4,68.04,102.06,283.5,Single-ply,SBD,F
Girls,75.07,12,Bailey Jones,Fairfield,73.48,113.4,54.43,113.4,281.23,Single-ply,SBD,F
Girls,75.07,13,Megan Gerlach,Canton,72.12,133.81,45.36,,179.17,Single-ply,SB,F
Girls,75.07,14,Megan Gebauer,Canton,67.68,127.01,,,127.01,Single-ply,S,F
Girls,82.33,1,Jamie Wilkinson,Fairfield,80.92,181.44,97.52,131.54,410.5,Single-ply,SBD,F
Girls,82.33,2,Jaeda Garrett,Rusk,80.92,161.03,63.5,176.9,401.43,Single-ply,SBD,F
Girls,82.33,3,Cheyenne Stevenson,Bullard,78.47,149.69,56.7,161.03,367.41,Single-ply,SBD,F
Girls,82.33,4,Alivia Jackson,Diboll,79.38,142.88,56.7,131.54,331.12,Single-ply,SBD,F
Girls,82.33,5,Courtney Esqueda,Paris North Lamar,76.11,113.4,47.63,161.03,322.05,Single-ply,SBD,F
Girls,82.33,6,Elizabeth Whitwell,Longview Spring Hill,78.38,117.93,54.43,138.35,310.71,Single-ply,SBD,F
Girls,82.33,7,Charity Star,Fairfield,81.01,113.4,63.5,131.54,308.44,Single-ply,SBD,F
Girls,82.33,8,Hannah Lindsey,Caddo Mills,79.2,124.74,54.43,124.74,303.91,Single-ply,SBD,F
Girls,82.33,9,Kailan Randle,Center,79.92,136.08,45.36,115.67,297.1,Single-ply,SBD,F
Girls,82.33,10,Christina Ferguson,Fairfield,79.74,106.59,54.43,102.06,263.08,Single-ply,SBD,F
Girls,82.33,11,Iveiya Daniels,Fairfield,82.1,92.99,54.43,95.25,242.67,Single-ply,SBD,F
Girls,90.04,1,Anabelle Price,Bullard,87.36,172.37,79.38,142.88,394.63,Single-ply,SBD,F
Girls,90.04,2,Jocalynn Fountain,Gilmer,82.46,172.37,74.84,145.15,392.36,Single-ply,SBD,F
Girls,90.04,3,Tyrmia Thompson,Athens,87.36,161.03,65.77,165.56,392.36,Single-ply,SBD,F
Girls,90.04,4,Zahia Cooper,Henderson,82.74,158.76,70.31,129.27,358.34,Single-ply,SBD,F
Girls,90.04,5,Takaira Scott,Ferris,87.72,138.35,63.5,151.95,353.8,Single-ply,SBD,F
Girls,90.04,6,Deja Sikes,Paris,87.36,133.81,92.99,120.2,347,Single-ply,SBD,F
Girls,90.04,7,Raelynn Johnson,Paris,84.91,117.93,70.31,124.74,312.98,Single-ply,SBD,F
Girls,90.04,8,Nancy Castillo,Paris North Lamar,83.19,122.47,58.97,120.2,301.64,Single-ply,SBD,F
Girls,90.04,10,David-Lee Martinez,Rusk,83.1,122.47,52.16,115.67,290.3,Single-ply,SBD,F
Girls,90.04,11,Aubrey Stone,Emory Rains,86.64,115.67,52.16,106.59,274.42,Single-ply,SBD,F
Girls,90.04,12,Faith Besherse,Canton,84.91,95.25,34.02,99.79,229.06,Single-ply,SBD,F
Girls,100.02,1,Robyn Lewis,Mabank,97.79,192.78,61.23,145.15,399.16,Single-ply,SBD,F
Girls,100.02,2,Savannah Reynolds,Pittsburg,94.26,190.51,56.7,131.54,378.75,Single-ply,SBD,F
Girls,100.02,3,Heather Coe,Bullard,99.43,161.03,61.23,149.69,371.95,Single-ply,SBD,F
Girls,100.02,4,Natalia Mendoza,Crandall,97.7,145.15,61.23,138.35,344.73,Single-ply,SBD,F
Girls,100.02,5,Otilia Olague,Henderson,97.34,142.88,61.23,136.08,340.19,Single-ply,SBD,F
Girls,100.02,6,Celina Cervantes,Paris North Lamar,91.9,122.47,70.31,145.15,337.93,Single-ply,SBD,F
Girls,100.02,7,Maddy Haglar,Fairfield,92.9,120.2,49.9,124.74,294.84,Single-ply,SBD,F
Girls,100.02,8,Hayden Walker,Athens,96.25,124.74,49.9,117.93,292.57,Single-ply,SBD,F
Girls,100.02,9,Baylee Brown,Athens,92.53,140.61,58.97,,199.58,Single-ply,SB,F
Girls,100.02,9,Elissia Robinson,Emory Rains,90.17,131.54,43.09,120.2,294.84,Single-ply,SBD,F
Girls,117.71,1,Jorden Kimble,Paris,113.4,185.97,106.59,158.76,451.32,Single-ply,SBD,F
Girls,117.71,2,Ashley Irving,Texarkana Liberty-Eylau,108.59,181.44,86.18,151.95,419.57,Single-ply,SBD,F
Girls,117.71,3,Bonnie Clifton,Gilmer,113.58,163.29,74.84,156.49,394.63,Single-ply,SBD,F
Girls,117.71,4,Jocie Fuller,Canton,104.78,163.29,74.84,131.54,369.68,Single-ply,SBD,F
Girls,117.71,5,Tori Lewis,Henderson,105.41,170.1,56.7,138.35,365.14,Single-ply,SBD,F
Girls,117.71,6,Victoria Ayars,Brownsboro,107.14,158.76,65.77,136.08,360.61,Single-ply,SBD,F
Girls,117.71,7,Tabitha Barksdale,Waxahachie Life,104.42,147.42,81.65,127.01,356.07,Single-ply,SBD,F
Girls,117.71,8,Katlynn White,Quinlan Ford,114.49,149.69,63.5,124.74,337.93,Single-ply,SBD,F
Girls,117.71,9,Alysia Daniel,Canton,111.49,142.88,52.16,138.35,333.39,Single-ply,SBD,F
Girls,117.71,10,Kiole Johnson,Waxahachie Life,101.15,136.08,70.31,124.74,331.12,Single-ply,SBD,F
Girls,117.71,11,Myra Lopez,Wills Point,105.14,127.01,43.09,138.35,308.44,Single-ply,SBD,F
Girls,117.71,12,Garyn Short,Pittsburg,102.69,102.06,56.7,122.47,281.23,Single-ply,SBD,F
Girls,117.71+,1,Shannie Jones,Gilmer,117.75,190.51,68.04,142.88,401.43,Single-ply,SBD,F
Girls,117.71+,2,Leighann Langston,Bullard,136.62,176.9,70.31,131.54,378.75,Single-ply,SBD,F
Girls,117.71+,3,Makailah McConnell,Gilmer,119.93,138.35,72.57,142.88,353.8,Single-ply,SBD,F
Girls,117.71+,4,Baileigh Hevron,Paris North Lamar,145.24,142.88,52.16,154.22,349.27,Single-ply,SBD,F
Girls,117.71+,5,Kristin Phillips,Brownsboro,137.17,161.03,54.43,131.54,347,Single-ply,SBD,F
Girls,,NS,Shelby Ferguson,Diboll,,,,,,Single-ply,SBD,F
Girls,,NS,Kristen Phillips,Brownsboro,,,,,,Single-ply,SBD,F
Girls,,NS,Ti'Dache Waters,Gilmer,,,,,,Single-ply,SBD,F
Girls,,NS,Darielle Haynes,Ferris,,,,,,Single-ply,SBD,F
Girls,,NS,Rylie Sharp,Midlothian Heritage,,,,,,Single-ply,SBD,F
Girls,,NS,Lisa Vega,Terrell,,,,,,Single-ply,SBD,F
Girls,,NS,Tiyhah Braxton,Texarkana Liberty-Eylau,,,,,,Single-ply,SBD,F
Girls,,NS,Emily Bartlett,Texarkana Liberty-Eylau,,,,,,Single-ply,SBD,F
Girls,,NS,Victoria Clark,Huntington,,,,,,Single-ply,SBD,F
Girls,,NS,Tori Lee,Henderson,,,,,,Single-ply,SBD,F
Girls,,NS,Serenity Wilson,Gilmer,,,,,,Single-ply,SBD,F
Girls,,NS,Cami Kelley,Midlothian Heritage,,,,,,Single-ply,SBD,F
