Name,Sex,BodyweightKg,WeightClassKg,Tested,Bench1Kg,Bench2Kg,Bench3Kg,Best3BenchKg,TotalKg,Place,Division,Age,Event,Equipment
Olivia Mcmahon,F,72.12,75,Yes,74.84,77.11,86.18,86.18,86.18,1,Open,,B,Multi-ply
Brandon Greene,M,73.26,75,No,142.88,156.49,,156.49,156.49,1,Open,,B,Multi-ply
Scott Sceppe,M,89.45,90,No,,335.66,,335.66,335.66,1,Open,,B,Multi-ply
Jim Shaughnessy,M,88.68,90,No,195.04,,,195.04,195.04,1,Masters,,B,Multi-ply
Paul Jr,M,109.32,110,No,,192.78,,192.78,192.78,1,Juniors,18,B,Raw
David Balsdon,M,109.77,110,Yes,183.7,,,183.7,183.7,2,Juniors,20,B,Raw
Glen Russo,M,135.4,140,No,,421.84,,421.84,421.84,1,Open,,B,Multi-ply
Paul Charland,M,146.06,140+,No,,272.16,,272.16,272.16,1,Open,,B,Multi-ply
Scot Mendelson,M,,140+,No,,,,,,DQ,Open,,B,Multi-ply
