Division,WeightClassKg,Place,Name,Team,BodyweightKg,Best3SquatKg,Best3BenchKg,Best3DeadliftKg,TotalKg,Equipment,Event,Sex
Boys,51.71,1,Miguel Arroyo,San Angelo Lake View,51.62,124.74,68.04,136.08,328.85,Single-ply,SBD,M
Boys,55.79,1,Cody Coombs,San Angelo Lake View,54.98,145.15,88.45,149.69,383.29,Single-ply,SBD,M
Boys,55.79,2,Ryan Folds,San Angelo Grape Creek,52.16,154.22,79.38,127.01,360.61,Single-ply,SBD,M
Boys,55.79,3,Alejandro Castro,Eldorado,53.43,102.06,70.31,145.15,317.51,Single-ply,SBD,M
Boys,55.79,4,Jose DeLeon,Sterling City,53.52,102.06,61.23,117.93,281.23,Single-ply,SBD,M
Boys,59.87,1,Luke Krueger,Snyder,57.97,181.44,79.38,167.83,428.64,Single-ply,SBD,M
Boys,59.87,2,Keegan Gonzales,Mertzon Irion County,58.51,158.76,97.52,154.22,410.5,Single-ply,SBD,M
Boys,59.87,3,Luis Morales,San Angelo Central,59.24,165.56,88.45,156.49,410.5,Single-ply,SBD,M
Boys,59.87,4,Anthony Olivares,Eldorado,56.7,149.69,77.11,145.15,371.95,Single-ply,SBD,M
Boys,59.87,5,Ali Mata,Snyder,59.87,127.01,70.31,151.95,349.27,Single-ply,SBD,M
Boys,59.87,6,Daniel Pugh,Sterling City,59.51,131.54,65.77,120.2,317.51,Single-ply,SBD,M
Boys,67.13,1,Josue Rodriques,Sterling City,62.78,170.1,97.52,188.24,455.86,Single-ply,SBD,M
Boys,67.13,2,Kevin Yates,Christoval,66.95,183.7,90.72,170.1,444.52,Single-ply,SBD,M
Boys,67.13,3,Omar Durate,San Angelo Central,63.87,176.9,77.11,181.44,435.45,Single-ply,SBD,M
Boys,67.13,4,Jeffrey Harlin,Mertzon Irion County,66.9,154.22,72.57,151.95,378.75,Single-ply,SBD,M
Boys,67.13,5,Kraig Cadena,Eldorado,66.5,145.15,72.57,158.76,376.48,Single-ply,SBD,M
Boys,67.13,6,Gavin DeLeon,San Angelo Grape Creek,62.6,122.47,65.77,149.69,337.93,Single-ply,SBD,M
Boys,74.84,1,Caleb Wilson,Mertzon Irion County,74.03,272.16,129.27,240.4,641.83,Single-ply,SBD,M
Boys,74.84,2,Tavenn Raynor,Sterling City,74.66,170.1,124.74,204.12,498.95,Single-ply,SBD,M
Boys,74.84,3,Raymond Parsons,San Angelo Grape Creek,74.3,181.44,111.13,201.85,494.42,Single-ply,SBD,M
Boys,74.84,4,Jake Everett,Sterling City,72.03,183.7,113.4,190.51,487.61,Single-ply,SBD,M
Boys,74.84,5,Mario Martinez,San Angelo Central,72.03,183.7,113.4,185.97,483.08,Single-ply,SBD,M
Boys,74.84,6,Caleb Ramirez,San Angelo Lake View,74.84,154.22,104.33,199.58,458.13,Single-ply,SBD,M
Boys,74.84,7,James Vordick,San Angelo Grape Creek,74.84,176.9,90.72,181.44,449.06,Single-ply,SBD,M
Boys,74.84,8,Zack White,San Angelo Lake View,73.12,147.42,106.59,170.1,424.11,Single-ply,SBD,M
Boys,74.84,9,Jesus DeLuna,Eldorado,68.49,163.29,81.65,172.37,417.3,Single-ply,SBD,M
Boys,74.84,10,Keanu Hernandez,Eldorado,70.76,163.29,81.65,165.56,410.5,Single-ply,SBD,M
Boys,74.84,11,Michael Gonzales,Sterling City,68.76,149.69,63.5,156.49,369.68,Single-ply,SBD,M
Boys,74.84,12,Blaine Aker,Eldorado,74.66,131.54,56.7,156.49,344.73,Single-ply,SBD,M
Boys,82.1,1,Enrique Barron,Snyder,81.56,226.8,124.74,226.8,578.33,Single-ply,SBD,M
Boys,82.1,2,Noah Nandin,San Angelo Lake View,82.01,176.9,113.4,210.92,501.22,Single-ply,SBD,M
Boys,82.1,3,Francisco Muniz,San Angelo Lake View,79.38,165.56,104.33,213.19,483.08,Single-ply,SBD,M
Boys,82.1,4,Julio Narvaez,Eldorado,78.56,163.29,95.25,161.03,419.57,Single-ply,SBD,M
Boys,89.81,1,Caleb Thomas,Snyder,85.82,226.8,124.74,229.06,580.6,Single-ply,SBD,M
Boys,89.81,2,Anthony Gloria,San Angelo Lake View,88.72,208.65,129.27,199.58,537.51,Single-ply,SBD,M
Boys,89.81,3,Java Smith,San Angelo Lake View,86.27,215.46,113.4,192.78,521.63,Single-ply,SBD,M
Boys,89.81,4,Cameron Geiger,San Angelo Central,84.91,176.9,115.67,206.38,498.95,Single-ply,SBD,M
Boys,89.81,5,John Daniel Lopez,San Angelo Central,88,188.24,113.4,197.31,498.95,Single-ply,SBD,M
Boys,89.81,6,David Luera,San Angelo Lake View,89.72,183.7,104.33,197.31,485.34,Single-ply,SBD,M
Boys,89.81,7,Hunter Redman,San Angelo Grape Creek,83.01,138.35,102.06,149.69,390.09,Single-ply,SBD,M
Boys,89.81,DQ,Hank Levison,San Angelo Grape Creek,82.55,201.85,,,,Single-ply,SBD,M
Boys,99.79,1,Alex Perez,San Angelo Grape Creek,98.43,267.62,149.69,231.33,648.64,Single-ply,SBD,M
Boys,99.79,2,Paul Mata,Snyder,99.79,249.48,163.29,208.65,621.42,Single-ply,SBD,M
Boys,99.79,3,Nick Gonzalez,San Angelo Central,96.71,199.58,127.01,183.7,510.29,Single-ply,SBD,M
Boys,99.79,4,Peyton Menchaca,San Angelo Central,94.71,197.31,111.13,174.63,483.08,Single-ply,SBD,M
Boys,99.79,5,Trace Hariman,Eldorado,92.53,181.44,113.4,170.1,464.93,Single-ply,SBD,M
Boys,99.79,6,Jerry Cuellar,Eldorado,95.35,124.74,83.91,117.93,326.59,Single-ply,SBD,M
Boys,99.79,7,Colt Cox,San Angelo Grape Creek,97.07,102.06,68.04,122.47,292.57,Single-ply,SBD,M
Boys,109.77,1,Sam Sentena,San Angelo Lake View,105.32,190.51,127.01,226.8,544.31,Single-ply,SBD,M
Boys,124.74,1,Adrian Hernandez,San Angelo Grape Creek,114.31,249.48,149.69,254.01,653.17,Single-ply,SBD,M
Boys,124.74,2,Donnie Bowers,San Angelo Central,120.47,244.94,133.81,219.99,598.74,Single-ply,SBD,M
Boys,124.74,3,Orlando Aguero,Sterling City,120.93,226.8,124.74,222.26,573.79,Single-ply,SBD,M
Boys,124.74,4,Luis Nunez,San Angelo Grape Creek,121.56,208.65,99.79,183.7,492.15,Single-ply,SBD,M
Boys,124.74,DQ,Taylor Elkins,Mertzon Irion County,123.56,,,,,Single-ply,SBD,M
Boys,124.74+,1,Antonio Perez,San Angelo Grape Creek,124.92,269.89,195.04,247.21,712.14,Single-ply,SBD,M
Boys,124.74+,2,Cedric Smith,San Angelo Central,132.9,272.16,151.95,238.14,662.24,Single-ply,SBD,M
Boys,124.74+,3,Elijah Davis,San Angelo Lake View,162.75,258.55,149.69,249.48,657.71,Single-ply,SBD,M
Boys,124.74+,4,Sergio Rivero,San Angelo Central,134.72,226.8,145.15,215.46,587.4,Single-ply,SBD,M
Boys,124.74+,5,Desmond Salamanca,San Angelo Central,129.64,199.58,145.15,217.72,562.45,Single-ply,SBD,M
