Division,WeightClassKg,Place,Name,Team,BodyweightKg,Best3SquatKg,Best3BenchKg,Best3DeadliftKg,TotalKg,Equipment,Event,Sex
Boys,51.71,1,Joey Rodriguez,Edinburg Idea College Prep,51.62,165.56,90.72,170.1,426.38,Single-ply,SBD,M
Boys,51.71,2,Fabian Garcia,Edinburg Idea College Prep,51.71,156.49,90.72,149.69,396.89,Single-ply,SBD,M
Boys,51.71,3,Christian Pena,Benavides,50.89,133.81,79.38,142.88,356.07,Single-ply,SBD,M
Boys,51.71,4,Jordan Barrera,Santa Gertrudis Academy,51.17,83.91,45.36,111.13,240.4,Single-ply,SBD,M
Boys,51.71,5,Joseph Norman,Corpus Christi John Paul II High School,45.81,79.38,56.7,99.79,235.87,Single-ply,SBD,M
Boys,55.79,1,Adrian Campos,Freer,55.07,185.97,117.93,172.37,476.27,Single-ply,SBD,M
Boys,55.79,2,Niko Munoz,Falfurrias,55.79,174.63,106.59,181.44,462.66,Single-ply,SBD,M
Boys,55.79,3,Chris Trevino,San Diego,55.61,142.88,97.52,167.83,408.23,Single-ply,SBD,M
Boys,55.79,4,Uziel Vasquez,Edinburg Idea College Prep,54.61,129.27,58.97,113.4,301.64,Single-ply,SBD,M
Boys,55.79,5,Jude Punzalan,Santa Gertrudis Academy,55.79,102.06,47.63,111.13,260.82,Single-ply,SBD,M
Boys,55.79,6,Guadalupe Garcia,Agua Dulce,54.07,92.99,54.43,108.86,256.28,Single-ply,SBD,M
Boys,55.79,DQ,AJ Perez,Ben Bolt-Palito Blanco,55.07,,,,,Single-ply,SBD,M
Boys,59.87,1,Austin Mendez,San Diego,59.6,149.69,99.79,188.24,437.72,Single-ply,SBD,M
Boys,59.87,2,Michael Lopez,Robstown,58.79,127.01,79.38,133.81,340.19,Single-ply,SBD,M
Boys,59.87,3,Bobby Nunez,San Diego,59.69,113.4,77.11,142.88,333.39,Single-ply,SBD,M
Boys,59.87,DQ,Ramses Vasquez,Edinburg Idea College Prep,59.87,,,,,Single-ply,SBD,M
Boys,59.87,DQ,Jose Cantu,Benavides,58.15,,,,,Single-ply,SBD,M
Boys,67.13,1,Anthony Perez,San Diego,66.86,283.5,158.76,249.48,691.73,Single-ply,SBD,M
Boys,67.13,2,Alejandro Ramirez,Hebbronville,67.13,217.72,117.93,199.58,535.24,Single-ply,SBD,M
Boys,67.13,3,Richard Rea,Freer,65.59,183.7,102.06,210.92,496.68,Single-ply,SBD,M
Boys,67.13,4,Felix Del Rio,Robstown,66.32,181.44,120.2,183.7,485.34,Single-ply,SBD,M
Boys,67.13,5,Jose Saenz,San Diego,65.86,149.69,99.79,174.63,424.11,Single-ply,SBD,M
Boys,67.13,6,Antonio De La Rosa,Santa Gertrudis Academy,63.68,138.35,83.91,161.03,383.29,Single-ply,SBD,M
Boys,67.13,7,Rolando Ramos,Hebbronville,60.96,131.54,68.04,133.81,333.39,Single-ply,SBD,M
Boys,67.13,8,Robert Cadena,Falfurrias,65.59,124.74,63.5,120.2,308.44,Single-ply,SBD,M
Boys,67.13,9,Leonel Gerrero,Hebbronville,65.5,113.4,72.57,120.2,306.17,Single-ply,SBD,M
Boys,67.13,10,DeShawn Fillmore,Corpus Christi John Paul II High School,64.14,106.59,61.23,127.01,294.84,Single-ply,SBD,M
Boys,67.13,11,Ricky Ramon,Three Rivers,62.87,90.72,61.23,106.59,258.55,Single-ply,SBD,M
Boys,67.13,DQ,Jesus Gonzalez,Benavides,62.41,122.47,,,,Single-ply,SBD,M
Boys,67.13,DQ,Fabian Ferager,Benavides,63.59,,,,,Single-ply,SBD,M
Boys,67.13,DQ,Lane Stone,Santa Gertrudis Academy,64.5,97.52,,,,Single-ply,SBD,M
Boys,67.13,DQ,Jack Edwards,Santa Gertrudis Academy,61.05,97.52,,,,Single-ply,SBD,M
Boys,74.84,1,Lee Bazan,San Diego,74.39,244.94,151.95,224.53,621.42,Single-ply,SBD,M
Boys,74.84,2,Joaquin Leija,Agua Dulce,68.04,154.22,104.33,192.78,451.32,Single-ply,SBD,M
Boys,74.84,3,Adrian Perez,Robstown,72.3,117.93,79.38,149.69,347,Single-ply,SBD,M
Boys,74.84,4,Jarran Carillo,Three Rivers,73.94,127.01,70.31,147.42,344.73,Single-ply,SBD,M
Boys,74.84,DQ,Andrew Nevarez,Edinburg Idea College Prep,74.03,,,,,Single-ply,SBD,M
Boys,82.1,1,Oscar Salazar,Hebbronville,82.1,210.92,183.7,210.92,605.55,Single-ply,SBD,M
Boys,82.1,2,Joseph Zapata,Falfurrias,77.66,183.7,145.15,188.24,517.1,Single-ply,SBD,M
Boys,82.1,3,Dale Baez,Hebbronville,80.2,199.58,122.47,185.97,508.02,Single-ply,SBD,M
Boys,82.1,4,Jeron Adams,San Diego,81.83,190.51,104.33,165.56,460.4,Single-ply,SBD,M
Boys,82.1,5,Kenny Guerra,Benavides,78.11,142.88,79.38,174.63,396.89,Single-ply,SBD,M
Boys,82.1,6,Daniel Narvaez,Falfurrias,80.74,142.88,90.72,158.76,392.36,Single-ply,SBD,M
Boys,82.1,7,Emiliano Sanchez,Edinburg Idea College Prep,79.38,142.88,86.18,136.08,365.14,Single-ply,SBD,M
Boys,82.1,8,Eduardo Hernandez,Agua Dulce,76.2,131.54,72.57,147.42,351.53,Single-ply,SBD,M
Boys,82.1,9,Ricardo Cantu,Freer,82.1,138.35,79.38,133.81,351.53,Single-ply,SBD,M
Boys,82.1,DQ,Paul Baez,Hebbronville,81.83,,,,,Single-ply,SBD,M
Boys,82.1,DQ,Rey Peralez,Benavides,77.66,129.27,,,,Single-ply,SBD,M
Boys,82.1,DQ,Dylan Vela,Santa Gertrudis Academy,78.38,,,,,Single-ply,SBD,M
Boys,82.1,DQ,John Mollinar,Corpus Christi John Paul II High School,76.75,145.15,90.72,,,Single-ply,SBD,M
Boys,89.81,1,John Martinez,Falfurrias,86.64,226.8,172.37,219.99,619.15,Single-ply,SBD,M
Boys,89.81,2,Joseph Araujo,San Diego,87.09,233.6,142.88,233.6,610.08,Single-ply,SBD,M
Boys,89.81,3,Caleb Marshall,Hebbronville,84.73,167.83,136.08,190.51,494.42,Single-ply,SBD,M
Boys,89.81,4,Marcos Gonzalez,Ben Bolt-Palito Blanco,89.63,204.12,120.2,170.1,494.42,Single-ply,SBD,M
Boys,89.81,5,Cody Rosas,Robstown,89.54,197.31,92.99,183.7,474,Single-ply,SBD,M
Boys,89.81,6,Alex Diaz,Three Rivers,84.19,158.76,90.72,167.83,417.3,Single-ply,SBD,M
Boys,89.81,7,Miguel Solano,Alice,86,154.22,90.72,151.95,396.89,Single-ply,SBD,M
Boys,89.81,8,Pablo Fernandez,Alice,83.19,113.4,70.31,127.01,310.71,Single-ply,SBD,M
Boys,89.81,DQ,Jacob Loera,Alice,83.28,183.7,129.27,,,Single-ply,SBD,M
Boys,89.81,DQ,Tristian Perez,Ben Bolt-Palito Blanco,89.54,,,,,Single-ply,SBD,M
Boys,89.81,DQ,Grayson May,Santa Gertrudis Academy,83.73,,,,,Single-ply,SBD,M
Boys,89.81,DQ,Ivan Naranjo,Robstown,87.82,226.8,147.42,,,Single-ply,SBD,M
Boys,99.79,1,Juan Chavera,Falfurrias,95.89,208.65,95.25,158.76,462.66,Single-ply,SBD,M
Boys,99.79,2,Alejandro Gómez,Hebbronville,91.44,183.7,106.59,149.69,439.98,Single-ply,SBD,M
Boys,99.79,3,Vicente Zavala,Santa Gertrudis Academy,99.06,151.95,97.52,183.7,433.18,Single-ply,SBD,M
Boys,99.79,4,Joseph Fillmore,Corpus Christi John Paul II High School,93.71,145.15,86.18,197.31,428.64,Single-ply,SBD,M
Boys,99.79,5,Gage Garza,Corpus Christi John Paul II High School,90.99,149.69,102.06,174.63,426.38,Single-ply,SBD,M
Boys,99.79,6,Jacob Rico,Corpus Christi John Paul II High School,96.8,102.06,68.04,136.08,306.17,Single-ply,SBD,M
Boys,109.77,1,Mason Pena,Ben Bolt-Palito Blanco,105.96,181.44,124.74,192.78,498.95,Single-ply,SBD,M
Boys,109.77,2,Darriel Gonzalez,Hebbronville,109.04,222.26,83.91,156.49,462.66,Single-ply,SBD,M
Boys,109.77,3,Andrew Zuniga,Three Rivers,105.87,167.83,113.4,172.37,453.59,Single-ply,SBD,M
Boys,109.77,4,Santos Castillo,Agua Dulce,102.33,185.97,102.06,154.22,442.25,Single-ply,SBD,M
Boys,109.77,5,John Soliz,Corpus Christi John Paul II High School,100.15,170.1,79.38,181.44,430.91,Single-ply,SBD,M
Boys,109.77,6,Xavier Martinez,Three Rivers,102.51,165.56,102.06,149.69,417.3,Single-ply,SBD,M
Boys,109.77,7,Jesse Perez,Agua Dulce,105.14,158.76,77.11,158.76,394.63,Single-ply,SBD,M
Boys,109.77,8,Albert Pena,Corpus Christi John Paul II High School,107.41,129.27,83.91,156.49,369.68,Single-ply,SBD,M
Boys,109.77,9,Juanito Cabrera,Falfurrias,105.23,142.88,70.31,151.95,365.14,Single-ply,SBD,M
Boys,109.77,10,Jarrett Barden,Santa Gertrudis Academy,102.24,131.54,72.57,142.88,347,Single-ply,SBD,M
Boys,109.77,DQ,Brandon Rodriguez,Robstown,105.87,206.38,,,,Single-ply,SBD,M
Boys,109.77,DQ,Noah Cortinas,Corpus Christi John Paul II High School,103.87,129.27,,,,Single-ply,SBD,M
Boys,124.74,1,Michael Salaiz,San Diego,118.57,317.51,190.51,263.08,771.11,Single-ply,SBD,M
Boys,124.74,2,Paul Pena,Robstown,121.11,199.58,115.67,204.12,519.36,Single-ply,SBD,M
Boys,124.74,3,Juan Cortez,Alice,111.49,183.7,115.67,217.72,517.1,Single-ply,SBD,M
Boys,124.74,4,Ryan Garcia,Edinburg Idea College Prep,124.74,181.44,90.72,181.44,453.59,Single-ply,SBD,M
Boys,124.74,5,Isreal Espinoza,Robstown,122.2,136.08,102.06,145.15,383.29,Single-ply,SBD,M
Boys,124.74,6,Keoki Bray,Three Rivers,121.02,108.86,56.7,129.27,294.84,Single-ply,SBD,M
Boys,124.74,DQ,John Ayala,Corpus Christi John Paul II High School,116.85,,,,,Single-ply,SBD,M
Boys,124.74+,1,Jonathan Rodriguez,Agua Dulce,145.24,265.35,140.61,226.8,632.76,Single-ply,SBD,M
Boys,124.74+,2,Aaron Flores,Santa Gertrudis Academy,149.23,231.33,102.06,226.8,560.19,Single-ply,SBD,M
Boys,124.74+,3,Ademar Garcia,Hebbronville,135.26,174.63,102.06,163.29,439.98,Single-ply,SBD,M
Boys,124.74+,4,Anthony Allen,Corpus Christi John Paul II High School,127.55,142.88,79.38,174.63,396.89,Single-ply,SBD,M
Boys,124.74+,5,Matthew Torres,Santa Gertrudis Academy,125.74,142.88,90.72,142.88,376.48,Single-ply,SBD,M
