Division,WeightClassKg,Place,Name,Team,BodyweightKg,Best3SquatKg,Best3BenchKg,Best3DeadliftKg,TotalKg,Equipment,Event,Sex
Boys,51.71,1,Johnny Garza,Pattonville Prairiland,51.26,111.13,72.57,149.69,333.39,Single-ply,SBD,M
Boys,51.71,2,Carson Johnson,Paris,50.89,120.2,70.31,133.81,324.32,Single-ply,SBD,M
Boys,51.71,3,Vandon Lassiter,Paris North Lamar,50.58,108.86,68.04,124.74,301.64,Single-ply,SBD,M
Boys,51.71,4,Roman Colsten,Commerce,51.48,113.4,52.16,113.4,278.96,Single-ply,SBD,M
Boys,55.79,1,Austin Mullennix,Sadler S & S Cons,55.34,185.97,92.99,167.83,446.79,Single-ply,SBD,M
Boys,55.79,2,Deuntre Adamson,Paris,55.25,158.76,88.45,172.37,419.57,Single-ply,SBD,M
Boys,55.79,3,Bryan Rodriguez,Greenville,54.43,172.37,83.91,156.49,412.77,Single-ply,SBD,M
Boys,55.79,4,Jaden Brown,Paris North Lamar,54.43,138.35,74.84,181.44,394.63,Single-ply,SBD,M
Boys,55.79,5,Luke Elrod,Paris North Lamar,54.66,113.4,72.57,131.54,317.51,Single-ply,SBD,M
Boys,55.79,6,Lane Davis,Mount Pleasant Chapel Hill,53.75,83.91,49.9,102.06,235.87,Single-ply,SBD,M
Boys,59.87,1,Keiotti Bray,Paris,57.83,208.65,124.74,188.24,521.63,Single-ply,SBD,M
Boys,59.87,2,Blayce Lassiter,Paris North Lamar,56.25,161.03,74.84,156.49,392.36,Single-ply,SBD,M
Boys,59.87,3,Kole Barrentine,Pattonville Prairiland,59.87,131.54,81.65,176.9,390.09,Single-ply,SBD,M
Boys,59.87,4,Anthony Henry,Gainesville,56.7,147.42,79.38,145.15,371.95,Single-ply,SBD,M
Boys,59.87,5,Tj Blakenship,Gainesville,59.19,136.08,65.77,154.22,356.07,Single-ply,SBD,M
Boys,67.13,1,Gage Dollins,Paris Chisum,65.54,219.99,106.59,213.19,539.77,Single-ply,SBD,M
Boys,67.13,2,Mike Acevedo,Anna,67.13,199.58,138.35,199.58,537.51,Single-ply,SBD,M
Boys,67.13,3,Nick Reid,Anna,66,222.26,102.06,195.04,519.36,Single-ply,SBD,M
Boys,67.13,4,Luke Kirkbride,Denison,65.09,195.04,108.86,199.58,503.49,Single-ply,SBD,M
Boys,67.13,5,Omar Villegas,Melissa,67.13,192.78,106.59,190.51,489.88,Single-ply,SBD,M
Boys,67.13,6,Alejandro Vasequez,Greenville,63.96,195.04,92.99,174.63,462.66,Single-ply,SBD,M
Boys,67.13,7,Luke Havens,Denison,66,174.63,102.06,181.44,458.13,Single-ply,SBD,M
Boys,67.13,8,Hayden Justice,Paris North Lamar,66.68,165.56,108.86,172.37,446.79,Single-ply,SBD,M
Boys,67.13,9,Caleb Ashley,Paris Chisum,65.09,156.49,102.06,176.9,435.45,Single-ply,SBD,M
Boys,67.13,10,Korrighan Smith,Commerce,64.86,163.29,88.45,167.83,419.57,Single-ply,SBD,M
Boys,67.13,11,Antonio Landaverde,Mount Pleasant,66.22,151.95,90.72,170.1,412.77,Single-ply,SBD,M
Boys,67.13,12,Kyle Stewart,Greenville,63.5,151.95,95.25,163.29,410.5,Single-ply,SBD,M
Boys,67.13,13,Ethan Mayes,Mount Pleasant Chapel Hill,66.68,149.69,70.31,181.44,401.43,Single-ply,SBD,M
Boys,67.13,14,Zane Phillips,Mount Pleasant,65.77,154.22,79.38,163.29,396.89,Single-ply,SBD,M
Boys,67.13,15,Giteaus Young,Paris,62.55,149.69,86.18,151.95,387.82,Single-ply,SBD,M
Boys,67.13,16,Maverick Bowen,Gainesville,66.68,154.22,83.91,145.15,383.29,Single-ply,SBD,M
Boys,67.13,17,Joey Mecaskey,Pattonville Prairiland,66.9,133.81,88.45,154.22,376.48,Single-ply,SBD,M
Boys,67.13,18,Gavin Watts,Pattonville Prairiland,67.13,149.69,68.04,154.22,371.95,Single-ply,SBD,M
Boys,67.13,19,Joaquin Collins,Melissa,67.13,151.95,72.57,142.88,367.41,Single-ply,SBD,M
Boys,67.13,20,Keane Ortega,Sadler S & S Cons,60.1,120.2,72.57,163.29,356.07,Single-ply,SBD,M
Boys,67.13,21,Abel Moreno,Pattonville Prairiland,62.82,138.35,72.57,142.88,353.8,Single-ply,SBD,M
Boys,67.13,22,Alex Vaseleck,Mount Pleasant,63.05,136.08,61.23,140.61,337.93,Single-ply,SBD,M
Boys,67.13,23,Austin Spears,Paris North Lamar,66.45,117.93,63.5,138.35,319.78,Single-ply,SBD,M
Boys,67.13,24,Didier Serrano,Mount Pleasant,60.33,97.52,52.16,129.27,278.96,Single-ply,SBD,M
Boys,67.13,25,Brandon Halliburton,Anna,60.1,99.79,52.16,106.59,258.55,Single-ply,SBD,M
Boys,74.84,1,Zavion Jackson,Greenville,74.16,233.6,113.4,188.24,535.24,Single-ply,SBD,M
Boys,74.84,2,Dwayne Wilson,Gainesville,74.84,219.99,92.99,199.58,512.56,Single-ply,SBD,M
Boys,74.84,3,Victor Martinez,Anna,74.62,185.97,111.13,195.04,492.15,Single-ply,SBD,M
Boys,74.84,4,Drew Bush,Paris,73.16,183.7,111.13,192.78,487.61,Single-ply,SBD,M
Boys,74.84,5,Dustin Newman,Mount Pleasant Chapel Hill,74.62,188.24,95.25,199.58,483.08,Single-ply,SBD,M
Boys,74.84,6,Bryce Evans,Paris North Lamar,74.62,185.97,106.59,190.51,483.08,Single-ply,SBD,M
Boys,74.84,7,Zeb Garrett,Paris North Lamar,70.31,165.56,99.79,197.31,462.66,Single-ply,SBD,M
Boys,74.84,8,Connor Straughan,Commerce,73.71,170.1,99.79,172.37,442.25,Single-ply,SBD,M
Boys,74.84,9,Devin Walters,Mount Pleasant Chapel Hill,69.85,156.49,95.25,181.44,433.18,Single-ply,SBD,M
Boys,74.84,10,Jack Parker,Melissa,74.84,165.56,97.52,170.1,433.18,Single-ply,SBD,M
Boys,74.84,11,Montrel McCarty,Paris,71.67,151.95,104.33,172.37,428.64,Single-ply,SBD,M
Boys,74.84,12,Gage Moore,Sadler S & S Cons,73.48,147.42,104.33,172.37,424.11,Single-ply,SBD,M
Boys,74.84,13,Joey Baggs,Sadler S & S Cons,69.85,127.01,90.72,172.37,390.09,Single-ply,SBD,M
Boys,74.84,14,Kanon Tongson,Paris Chisum,68.95,147.42,83.91,156.49,387.82,Single-ply,SBD,M
Boys,74.84,15,Juan Cervantes,Paris North Lamar,73.03,149.69,95.25,142.88,387.82,Single-ply,SBD,M
Boys,74.84,16,Aidan Hicks,Pattonville Prairiland,74.39,151.95,81.65,154.22,387.82,Single-ply,SBD,M
Boys,74.84,17,Marvin Norris,Paris Chisum,68.72,142.88,77.11,136.08,356.07,Single-ply,SBD,M
Boys,74.84,DQ,Conner Smith,Commerce,70.31,,,,,Single-ply,SBD,M
Boys,82.1,1,Amyri Cox,Anna,78.93,219.99,133.81,235.87,589.67,Single-ply,SBD,M
Boys,82.1,2,Gian Carlos,Greenville,80.29,233.6,122.47,201.85,557.92,Single-ply,SBD,M
Boys,82.1,3,Connor Glass,Sadler S & S Cons,80.29,210.92,115.67,204.12,530.7,Single-ply,SBD,M
Boys,82.1,4,Mason Ford,Gainesville,80.74,206.38,117.93,172.37,496.68,Single-ply,SBD,M
Boys,82.1,5,Braylon Brown,Melissa,79.83,192.78,99.79,170.1,462.66,Single-ply,SBD,M
Boys,82.1,6,Conner Smith,Sadler S & S Cons,75.75,172.37,97.52,183.7,453.59,Single-ply,SBD,M
Boys,82.1,7,David Walters,Mount Pleasant Chapel Hill,78.24,165.56,70.31,183.7,419.57,Single-ply,SBD,M
Boys,82.1,8,Hayden Thomas,Pattonville Prairiland,82.1,149.69,99.79,170.1,419.57,Single-ply,SBD,M
Boys,82.1,9,Granger Ervin,Pattonville Prairiland,79.38,149.69,79.38,179.17,408.23,Single-ply,SBD,M
Boys,82.1,10,Johquan Caldwell,Paris,80.83,142.88,86.18,170.1,399.16,Single-ply,SBD,M
Boys,82.1,11,Henry Serrano,Commerce,80.51,147.42,90.72,158.76,396.89,Single-ply,SBD,M
Boys,82.1,12,Josh Hysmith,Denison,80.29,127.01,90.72,170.1,387.82,Single-ply,SBD,M
Boys,82.1,13,Angel Perez,Mount Pleasant,80.74,151.95,68.04,158.76,378.75,Single-ply,SBD,M
Boys,82.1,14,Jacob Isbell,Mount Pleasant Chapel Hill,79.38,136.08,70.31,170.1,376.48,Single-ply,SBD,M
Boys,82.1,DQ,Jake Reynolds,Sadler S & S Cons,80.74,136.08,,,,Single-ply,SBD,M
Boys,89.81,1,Tucker Momon,Greenville,87.77,256.28,129.27,256.28,641.83,Single-ply,SBD,M
Boys,89.81,2,Andrew Murphy,Paris,89.36,217.72,122.47,215.46,555.65,Single-ply,SBD,M
Boys,89.81,3,Caden Hayes,Melissa,84.14,215.46,120.2,204.12,539.77,Single-ply,SBD,M
Boys,89.81,4,Will Hauptrief,Melissa,83.91,208.65,115.67,185.97,510.29,Single-ply,SBD,M
Boys,89.81,5,Sam Whittenburg,Sadler S & S Cons,88.68,183.7,120.2,201.85,505.76,Single-ply,SBD,M
Boys,89.81,6,Carter Renfro,Paris North Lamar,88.45,174.63,120.2,204.12,498.95,Single-ply,SBD,M
Boys,89.81,7,José Cortés,Pattonville Prairiland,89.81,195.04,115.67,185.97,496.68,Single-ply,SBD,M
Boys,89.81,8,Justin Mays,Melissa,89.13,197.31,92.99,188.24,478.54,Single-ply,SBD,M
Boys,89.81,9,Jayvin Rodriguez,Melissa,88.45,195.04,115.67,165.56,476.27,Single-ply,SBD,M
Boys,89.81,10,Javin Cary,Paris,89.13,170.1,97.52,185.97,453.59,Single-ply,SBD,M
Boys,89.81,11,Dakota Butrill,Denison,85.5,167.83,97.52,185.97,451.32,Single-ply,SBD,M
Boys,89.81,12,Trent Tennon,Paris,85.73,161.03,97.52,192.78,451.32,Single-ply,SBD,M
Boys,89.81,13,Chance Knight,Commerce,86.41,192.78,97.52,154.22,444.52,Single-ply,SBD,M
Boys,89.81,14,Javantae Black,Paris,86.64,151.95,99.79,183.7,435.45,Single-ply,SBD,M
Boys,89.81,15,Pablo Peralta,Pattonville Prairiland,82.33,149.69,83.91,179.17,412.77,Single-ply,SBD,M
Boys,89.81,16,Jose Perez,Anna,86.64,156.49,92.99,163.29,412.77,Single-ply,SBD,M
Boys,89.81,17,Astin Ledbetter,Mount Pleasant,88.22,149.69,79.38,181.44,410.5,Single-ply,SBD,M
Boys,89.81,18,Dane Warren,Mount Pleasant Chapel Hill,89.13,106.59,65.77,117.93,290.3,Single-ply,SBD,M
Boys,99.79,1,Yovanni Juarez,Gainesville,94.35,299.37,185.97,208.65,694,Single-ply,SBD,M
Boys,99.79,2,Simon Rico,Greenville,99.56,281.23,154.22,231.33,666.78,Single-ply,SBD,M
Boys,99.79,3,Devin Miller,Gainesville,94.57,217.72,185.97,215.46,619.15,Single-ply,SBD,M
Boys,99.79,4,Caleb Kroese,Melissa,99.34,226.8,111.13,215.46,553.38,Single-ply,SBD,M
Boys,99.79,5,Omahri Davis,Commerce,91.17,185.97,90.72,226.8,503.49,Single-ply,SBD,M
Boys,99.79,6,Edgar Aguilar,Sadler S & S Cons,97.3,181.44,124.74,195.04,501.22,Single-ply,SBD,M
Boys,99.79,7,Satchel Swain,Paris,99.2,183.7,120.2,188.24,492.15,Single-ply,SBD,M
Boys,99.79,8,Mason Doyle,Denison,99.34,183.7,99.79,208.65,492.15,Single-ply,SBD,M
Boys,99.79,9,Kody Kerr,Sadler S & S Cons,92.08,181.44,108.86,188.24,478.54,Single-ply,SBD,M
Boys,99.79,10,Jesse Mireles,Denison,99.34,172.37,127.01,174.63,474,Single-ply,SBD,M
Boys,99.79,11,Elias Elizando,Mount Pleasant,90.04,165.56,86.18,167.83,419.57,Single-ply,SBD,M
Boys,99.79,12,Eli Olglesby,Anna,97.98,165.56,102.06,149.69,417.3,Single-ply,SBD,M
Boys,99.79,13,Chance Pittner,Sadler S & S Cons,97.98,154.22,113.4,147.42,415.04,Single-ply,SBD,M
Boys,99.79,14,Reid Pinckard,Mount Pleasant,93.67,147.42,88.45,145.15,381.02,Single-ply,SBD,M
Boys,109.77,1,Drew Williams,Denison,109.32,276.69,163.29,226.8,666.78,Single-ply,SBD,M
Boys,109.77,2,Quin Dangerfield,Paris,109.13,238.14,154.22,242.67,635.03,Single-ply,SBD,M
Boys,109.77,3,Jesse Coffey,Gainesville,108.41,226.8,156.49,204.12,587.4,Single-ply,SBD,M
Boys,109.77,4,Quran Anglin,Paris North Lamar,108.41,204.12,154.22,210.92,569.26,Single-ply,SBD,M
Boys,109.77,5,Anthony Peak,Commerce,106.59,226.8,136.08,195.04,557.92,Single-ply,SBD,M
Boys,109.77,6,Roberto Nava,Gainesville,107.27,217.72,158.76,181.44,557.92,Single-ply,SBD,M
Boys,109.77,7,Tin Le,Gainesville,108.18,231.33,113.4,185.97,530.7,Single-ply,SBD,M
Boys,109.77,8,Wesley Estes,Paris Chisum,105.91,142.88,102.06,156.49,401.43,Single-ply,SBD,M
Boys,109.77,DQ,Ian Lail,Mount Pleasant Chapel Hill,107.95,204.12,,,,Single-ply,SBD,M
Boys,124.74,1,Oscar Osorio,Greenville,112.49,244.94,167.83,233.6,646.37,Single-ply,SBD,M
Boys,124.74,2,Jose Conejo,Denison,113.85,272.16,145.15,226.8,644.1,Single-ply,SBD,M
Boys,124.74,3,Kyle Brooks,Denison,121.79,249.48,142.88,244.94,637.3,Single-ply,SBD,M
Boys,124.74,4,Anthony Cork,Commerce,124.28,233.6,151.95,204.12,589.67,Single-ply,SBD,M
Boys,124.74,5,Johan de la Rosa,Gainesville,119.52,233.6,127.01,217.72,578.33,Single-ply,SBD,M
Boys,124.74,6,Wes Brooks,Denison,120.43,224.53,136.08,210.92,571.53,Single-ply,SBD,M
Boys,124.74,7,Jaedon Murphy,Paris,121.11,210.92,131.54,213.19,555.65,Single-ply,SBD,M
Boys,124.74,8,Colton Mitchell,Denison,124.06,210.92,124.74,190.51,526.17,Single-ply,SBD,M
Boys,124.74,9,Jayston Jones,Commerce,116.35,195.04,127.01,170.1,492.15,Single-ply,SBD,M
Boys,124.74,10,Ethan Thomas,Sadler S & S Cons,121.56,181.44,102.06,204.12,487.61,Single-ply,SBD,M
Boys,124.74,11,Bryce Hollinshead,Paris North Lamar,114.76,188.24,104.33,183.7,476.27,Single-ply,SBD,M
Boys,124.74,12,Matt Billmeier,Sadler S & S Cons,110.45,165.56,129.27,170.1,464.93,Single-ply,SBD,M
Boys,124.74,13,Zander Gonzales,Melissa,115.44,197.31,92.99,172.37,462.66,Single-ply,SBD,M
Boys,124.74,14,Braylon Bryant,Paris Chisum,120.2,147.42,102.06,181.44,430.91,Single-ply,SBD,M
Boys,124.74,15,Braedem Wilkins,Paris North Lamar,117.03,165.56,104.33,156.49,426.38,Single-ply,SBD,M
Boys,124.74,16,Blake Mays,Mount Pleasant,111.58,170.1,115.67,136.08,421.84,Single-ply,SBD,M
Boys,124.74+,1,Garrett Bowen,Melissa,125.65,233.6,127.01,183.7,544.31,Single-ply,SBD,M
Boys,124.74+,2,Devin Moten,Paris,129.27,199.58,117.93,208.65,526.17,Single-ply,SBD,M
Boys,124.74+,3,Luke Hohenberger,Paris North Lamar,128.82,183.7,102.06,174.63,460.4,Single-ply,SBD,M
Boys,124.74+,4,Garrett Felsberg,Paris North Lamar,134.72,158.76,120.2,133.81,412.77,Single-ply,SBD,M
Boys,124.74+,5,Rylie Miner,Paris North Lamar,141.29,174.63,111.13,,285.76,Single-ply,SB,M
