Division,WeightClassKg,Place,Name,Team,BodyweightKg,Best3SquatKg,Best3BenchKg,Best3DeadliftKg,TotalKg,Equipment,Event,Sex
Boys,51.71,1,Nate Garza,Georgetown,51.26,140.61,79.38,136.08,356.07,Single-ply,SBD,M
Boys,51.71,2,D'Anthony Jackson,Belton,41.23,83.91,43.09,104.33,231.33,Single-ply,SBD,M
Boys,51.71,3,Pedro Cunha,Georgetown East View,46.27,79.38,45.36,83.91,208.65,Single-ply,SBD,M
Boys,55.79,1,Max Castelli,Belton,55.7,174.63,88.45,167.83,430.91,Single-ply,SBD,M
Boys,55.79,2,Aidan Cusack,Austin Lake Travis,53.98,131.54,77.11,149.69,358.34,Single-ply,SBD,M
Boys,55.79,3,Rudy Pina,Del Valle,55.34,117.93,88.45,149.69,356.07,Single-ply,SBD,M
Boys,55.79,4,Jonathan Flores,Mexia,52.16,106.59,72.57,117.93,297.1,Single-ply,SBD,M
Boys,59.87,1,Marc Anthony Govea-Gonzales,Del Valle,58.06,149.69,92.99,170.1,412.77,Single-ply,SBD,M
Boys,59.87,2,Freddie Greer,Mexia,57.61,108.86,83.91,142.88,335.66,Single-ply,SBD,M
Boys,59.87,3,Andrew Medina,Belton,56.34,127.01,61.23,140.61,328.85,Single-ply,SBD,M
Boys,59.87,4,Max Cervantes,Mexia,59.87,124.74,86.18,102.06,312.98,Single-ply,SBD,M
Boys,59.87,5,Richard Castellano,Georgetown,59.87,106.59,65.77,136.08,308.44,Single-ply,SBD,M
Boys,59.87,6,Joseph Knox,Belton,59.87,106.59,52.16,127.01,285.76,Single-ply,SBD,M
Boys,67.13,1,Alex Hernandez,Jarrell,65.77,190.51,120.2,188.24,498.95,Single-ply,SBD,M
Boys,67.13,2,Jalil Wright,Mexia,62.6,136.08,83.91,183.7,403.7,Single-ply,SBD,M
Boys,67.13,3,Britton Carraway,Austin Lake Travis,63.05,124.74,102.06,165.56,392.36,Single-ply,SBD,M
Boys,67.13,4,Junior Cox,Belton,62.41,140.61,102.06,145.15,387.82,Single-ply,SBD,M
Boys,67.13,5,Gerald Fountain,Belton,65.77,131.54,86.18,165.56,383.29,Single-ply,SBD,M
Boys,67.13,6,Kyle Gascon,Belton,61.05,170.1,68.04,138.35,376.48,Single-ply,SBD,M
Boys,67.13,7,Dajohn Higgins,Hutto,62.14,136.08,65.77,167.83,369.68,Single-ply,SBD,M
Boys,67.13,8,Aiden Aldaco,Georgetown,64.41,131.54,90.72,142.88,365.14,Single-ply,SBD,M
Boys,67.13,9,Nathan Hunt,Belton,60.33,145.15,68.04,145.15,358.34,Single-ply,SBD,M
Boys,67.13,10,Gabe Driscoll,Del Valle,61.69,129.27,72.57,142.88,344.73,Single-ply,SBD,M
Boys,67.13,11,Tyler Miller,Austin Lake Travis,67.13,113.4,83.91,142.88,340.19,Single-ply,SBD,M
Boys,67.13,12,Jeremiah Barron,Georgetown East View,64.41,117.93,95.25,120.2,333.39,Single-ply,SBD,M
Boys,67.13,13,Aaron Barragan,Georgetown,64.41,102.06,68.04,145.15,315.25,Single-ply,SBD,M
Boys,67.13,14,Erik Espinoza,Georgetown,65.77,83.91,58.97,142.88,285.76,Single-ply,SBD,M
Boys,74.84,1,Samuel Garcia,Belton,74.84,176.9,124.74,222.26,523.9,Single-ply,SBD,M
Boys,74.84,2,Christian Castillo,Belton,70.81,197.31,115.67,208.65,521.63,Single-ply,SBD,M
Boys,74.84,3,Jordan Kuglin,Georgetown East View,71.58,174.63,102.06,179.17,455.86,Single-ply,SBD,M
Boys,74.84,4,Travis Taylor,Hutto,72.12,172.37,90.72,188.24,451.32,Single-ply,SBD,M
Boys,74.84,5,Mekhi Kimble,Hutto,71.67,165.56,90.72,185.97,442.25,Single-ply,SBD,M
Boys,74.84,6,TJ Eldridge,Pflugerville Hendrickson,69.85,147.42,104.33,183.7,435.45,Single-ply,SBD,M
Boys,74.84,7,Jordan Phoenix,Hutto,70.31,156.49,83.91,188.24,428.64,Single-ply,SBD,M
Boys,74.84,8,Ryan Wall,Georgetown East View,70.76,129.27,90.72,165.56,385.55,Single-ply,SBD,M
Boys,74.84,9,Tyler Carnes,Hutto,73.94,142.88,79.38,158.76,381.02,Single-ply,SBD,M
Boys,74.84,10,Angel Hernandez,Del Valle,72.12,136.08,79.38,151.95,367.41,Single-ply,SBD,M
Boys,74.84,11,Jairez Lambert,Hutto,73.48,124.74,77.11,142.88,344.73,Single-ply,SBD,M
Boys,74.84,12,Brandon Bradford,Georgetown,72.57,113.4,70.31,154.22,337.93,Single-ply,SBD,M
Boys,74.84,13,Taco Williams,Georgetown,70.76,117.93,65.77,149.69,333.39,Single-ply,SBD,M
Boys,74.84,14,Tyler Fithian,Georgetown,73.94,104.33,68.04,142.88,315.25,Single-ply,SBD,M
Boys,74.84,15,Aiden Valencia,Georgetown,73.48,111.13,70.31,129.27,310.71,Single-ply,SBD,M
Boys,74.84,16,David Okoh,Hutto,68.95,115.67,61.23,129.27,306.17,Single-ply,SBD,M
Boys,74.84,DQ,Xavier Phoenix,Hutto,70.76,127.01,,,,Single-ply,SBD,M
Boys,74.84,DQ,Josh Haro,Austin Lake Travis,71.67,,,,,Single-ply,SBD,M
Boys,82.1,1,Devyn Raper,Belton,79.15,199.58,136.08,217.72,553.38,Single-ply,SBD,M
Boys,82.1,2,Roman Anderson,Pflugerville Hendrickson,80.74,197.31,124.74,183.7,505.76,Single-ply,SBD,M
Boys,82.1,3,Isiah Quinten-Jackson,Georgetown East View,75.61,181.44,122.47,176.9,480.81,Single-ply,SBD,M
Boys,82.1,4,Thomas Thornburg,Georgetown East View,78.83,151.95,95.25,181.44,428.64,Single-ply,SBD,M
Boys,82.1,5,Martin Aguado,Jarrell,81.65,151.95,111.13,151.95,415.04,Single-ply,SBD,M
Boys,82.1,6,Alec Dean,Belton,77.93,142.88,113.4,136.08,392.36,Single-ply,SBD,M
Boys,82.1,7,Josh Allen,Del Valle,75.75,124.74,56.7,149.69,331.12,Single-ply,SBD,M
Boys,82.1,DQ,Dre Langhorn,Georgetown,81.65,138.35,79.38,,,Single-ply,SBD,M
Boys,82.1,DQ,Caden Wolfe,Georgetown,81.65,90.72,77.11,,,Single-ply,SBD,M
Boys,89.81,1,Keaton Kaulfus,Belton,87.32,199.58,145.15,208.65,553.38,Single-ply,SBD,M
Boys,89.81,2,Alan Hernandez,Georgetown,89.81,215.46,133.81,204.12,553.38,Single-ply,SBD,M
Boys,89.81,3,Elijah Clough,Georgetown,89.81,183.7,102.06,226.8,512.56,Single-ply,SBD,M
Boys,89.81,4,Javier Preciado,Hutto,88.9,185.97,117.93,199.58,503.49,Single-ply,SBD,M
Boys,89.81,5,Brock Bujonch,Hutto,85.73,183.7,92.99,197.31,474,Single-ply,SBD,M
Boys,89.81,6,Randy Schoolcraft,Belton,86.09,183.7,120.2,158.76,462.66,Single-ply,SBD,M
Boys,89.81,7,Camren Willwerth,Del Valle,84.37,158.76,90.72,172.37,421.84,Single-ply,SBD,M
Boys,89.81,8,Dawson Scott,Mexia,89.81,156.49,90.72,167.83,415.04,Single-ply,SBD,M
Boys,89.81,9,Cedavian Robinson,Hutto,84.37,138.35,97.52,165.56,401.43,Single-ply,SBD,M
Boys,89.81,10,JaBryan Busby,Mexia,82.55,136.08,102.06,161.03,399.16,Single-ply,SBD,M
Boys,89.81,11,Jaxon Waters,Georgetown,89.81,142.88,83.91,136.08,362.87,Single-ply,SBD,M
Boys,89.81,DQ,Cole Nelson,Georgetown,89.81,127.01,,,,Single-ply,SBD,M
Boys,99.79,1,Devin Martinez,Belton,98.07,238.14,147.42,244.94,630.49,Single-ply,SBD,M
Boys,99.79,2,Jawaun Howard,Belton,98.34,219.99,165.56,210.92,596.47,Single-ply,SBD,M
Boys,99.79,3,Adam Vineyard,Georgetown East View,97.98,233.6,142.88,213.19,589.67,Single-ply,SBD,M
Boys,99.79,4,Andrew Mace,Belton,93.53,208.65,129.27,210.92,548.85,Single-ply,SBD,M
Boys,99.79,5,Bryan Luna,Mexia,99.79,206.38,127.01,185.97,519.36,Single-ply,SBD,M
Boys,99.79,6,Matthew Hudson,Mexia,99.79,179.17,115.67,174.63,469.47,Single-ply,SBD,M
Boys,99.79,7,Caleb Sammons,Georgetown East View,98.88,163.29,113.4,183.7,460.4,Single-ply,SBD,M
Boys,99.79,8,Alex Thiel,Georgetown,99.79,158.76,102.06,181.44,442.25,Single-ply,SBD,M
Boys,99.79,9,Hector Montoya,Georgetown,99.79,158.76,92.99,158.76,410.5,Single-ply,SBD,M
Boys,99.79,10,Ryan Durnell,Austin Lake Travis,97.98,151.95,90.72,149.69,392.36,Single-ply,SBD,M
Boys,99.79,11,Alex Mahanna,Georgetown,99.79,142.88,83.91,151.95,378.75,Single-ply,SBD,M
Boys,99.79,12,Jacob Estrada,Georgetown,99.79,142.88,88.45,142.88,374.21,Single-ply,SBD,M
Boys,99.79,13,Jaylen Miears,Mexia,99.79,115.67,95.25,151.95,362.87,Single-ply,SBD,M
Boys,99.79,14,Nathan Carlin,Georgetown,99.79,129.27,86.18,142.88,358.34,Single-ply,SBD,M
Boys,99.79,DQ,Brendan Hargrove,Georgetown,99.79,,,,,Single-ply,SBD,M
Boys,99.79,DQ,Logan Tipton,Hutto,99.79,,,,,Single-ply,SBD,M
Boys,109.77,1,Jace Chambers,Pflugerville Hendrickson,105.69,215.46,149.69,254.01,619.15,Single-ply,SBD,M
Boys,109.77,2,Miguel Vivero,Georgetown East View,105.23,229.06,140.61,217.72,587.4,Single-ply,SBD,M
Boys,109.77,3,Joey Gonzalez,Georgetown East View,103.87,229.06,113.4,231.33,573.79,Single-ply,SBD,M
Boys,109.77,4,Jacob Sinkwich,Belton,108.41,195.04,120.2,185.97,501.22,Single-ply,SBD,M
Boys,109.77,5,Seth Kurklin,Georgetown East View,102.97,147.42,113.4,176.9,437.72,Single-ply,SBD,M
Boys,109.77,6,Diego Hipolito,Hutto,106.59,167.83,77.11,188.24,433.18,Single-ply,SBD,M
Boys,109.77,7,Hudson Sarver,Austin Lake Travis,100.7,136.08,97.52,170.1,403.7,Single-ply,SBD,M
Boys,109.77,8,Alexander Velasquez,Hutto,104.78,154.22,81.65,156.49,392.36,Single-ply,SBD,M
Boys,109.77,9,Haans Cook,Georgetown,109.77,136.08,72.57,136.08,344.73,Single-ply,SBD,M
Boys,109.77,DQ,Juan Mora,Hutto,101.6,158.76,92.99,,,Single-ply,SBD,M
Boys,124.74,1,Sidney Sherwood,Belton,122.11,294.84,192.78,190.51,678.12,Single-ply,SBD,M
Boys,124.74,2,Josh Jett,Georgetown,124.74,231.33,129.27,226.8,587.4,Single-ply,SBD,M
Boys,124.74,3,Thomas Clawson,Jarrell,115.67,206.38,142.88,210.92,560.19,Single-ply,SBD,M
Boys,124.74,4,Dawson Weiss,Austin Lake Travis,115.21,183.7,129.27,183.7,496.68,Single-ply,SBD,M
Boys,124.74,5,Todd Moon,Austin Lake Travis,112.94,199.58,111.13,183.7,494.42,Single-ply,SBD,M
Boys,124.74,6,Cody Beran,Del Valle,116.57,183.7,117.93,183.7,485.34,Single-ply,SBD,M
Boys,124.74,7,Cole Smith,Georgetown East View,114.76,167.83,102.06,185.97,455.86,Single-ply,SBD,M
Boys,124.74,8,Armando Barron,Del Valle,123.83,158.76,95.25,167.83,421.84,Single-ply,SBD,M
Boys,124.74,9,Seth Aguirre,Hutto,113.4,158.76,86.18,167.83,412.77,Single-ply,SBD,M
Boys,124.74,10,Albert Castro,Del Valle,114.76,124.74,92.99,156.49,374.21,Single-ply,SBD,M
Boys,124.74,11,Sergio Trinidad,Hutto,113.4,120.2,74.84,161.03,356.07,Single-ply,SBD,M
Boys,124.74,12,Jacob Guerrero,Del Valle,112.94,124.74,88.45,136.08,349.27,Single-ply,SBD,M
Boys,124.74,DQ,Jaimie Escobedo,Mexia,122.02,,,,,Single-ply,SBD,M
Boys,124.74+,1,Tyler Noles,Georgetown,125.19,294.84,215.46,226.8,737.09,Single-ply,SBD,M
Boys,124.74+,2,Michael Rodriguez,Georgetown East View,137.62,231.33,147.42,231.33,610.08,Single-ply,SBD,M
Boys,124.74+,3,Petr Svoboda,Pflugerville Hendrickson,144.7,233.6,140.61,224.53,598.74,Single-ply,SBD,M
Boys,124.74+,4,Tre Flores,Georgetown,125.19,183.7,106.59,167.83,458.13,Single-ply,SBD,M
Boys,124.74+,5,Jacob Kyle,Mexia,141.52,161.03,106.59,185.97,453.59,Single-ply,SBD,M
Boys,124.74+,6,Willis Bannon,Georgetown,125.19,151.95,92.99,165.56,410.5,Single-ply,SBD,M
Boys,124.74+,DQ,Noe Ibarra,Georgetown,125.19,272.16,142.88,,,Single-ply,SBD,M
Boys,,NS,Nicholas Grasso,Georgetown,,,,,,Single-ply,SBD,M
Boys,,NS,Brayden Wilson,Georgetown,,,,,,Single-ply,SBD,M
Boys,,NS,Grant Ticknor,Georgetown,,,,,,Single-ply,SBD,M
Boys,,NS,Dalton Engle,Georgetown,,,,,,Single-ply,SBD,M
Boys,,NS,Josh Palmer,Georgetown,,,,,,Single-ply,SBD,M
Boys,,NS,Adam OBrian,Georgetown,,,,,,Single-ply,SBD,M
Boys,,NS,Ryan Eady,Georgetown,,,,,,Single-ply,SBD,M
Boys,,NS,Jacob Ramos,Georgetown,,,,,,Single-ply,SBD,M
Boys,,NS,Matt Diaz,Georgetown,,,,,,Single-ply,SBD,M
