Division,WeightClassKg,Place,Name,Team,BodyweightKg,Best3SquatKg,Best3BenchKg,Best3DeadliftKg,TotalKg,Equipment,Event,Sex
Boys,51.71,1,Felix Espinoza,Crandall,50.89,136.08,81.65,142.88,360.61,Single-ply,SBD,M
Boys,51.71,2,Raul Cantu,Tyler,51.71,127.01,79.38,154.22,360.61,Single-ply,SBD,M
Boys,51.71,3,Junior Chavez,Waxahachie,50.26,117.93,74.84,149.69,342.46,Single-ply,SBD,M
Boys,51.71,4,Jose Lopez,Kaufman,47.72,136.08,70.31,124.74,331.12,Single-ply,SBD,M
Boys,51.71,5,Emilio Carrillo,Waxahachie,51.62,122.47,61.23,136.08,319.78,Single-ply,SBD,M
Boys,51.71,6,Alan Landazuri,Quinlan Ford,50.17,102.06,77.11,127.01,306.17,Single-ply,SBD,M
Boys,51.71,7,Zachary Doyle,Royse City,51.26,124.74,63.5,117.93,306.17,Single-ply,SBD,M
Boys,51.71,8,Braden Marking,Royse City,50.35,113.4,49.9,120.2,283.5,Single-ply,SBD,M
Boys,51.71,9,Braylin Witherspoon,South Garland,50.44,86.18,56.7,124.74,267.62,Single-ply,SBD,M
Boys,51.71,10,Steven Rachel,Ferris,50.62,74.84,54.43,117.93,247.21,Single-ply,SBD,M
Boys,51.71,11,Gary Tesell,Ferris,51.26,68.04,54.43,115.67,238.14,Single-ply,SBD,M
Boys,51.71,12,Van Rainer,Tyler Lee,47.36,97.52,45.36,90.72,233.6,Single-ply,SBD,M
Boys,55.79,1,Logen Combs,Royse City,55.52,154.22,99.79,172.37,426.38,Single-ply,SBD,M
Boys,55.79,2,Carter Winegeart,Tyler Lee,54.98,163.29,83.91,151.95,399.16,Single-ply,SBD,M
Boys,55.79,3,Tony De La Cruz,Waxahachie,55.7,147.42,83.91,163.29,394.63,Single-ply,SBD,M
Boys,55.79,4,Makai Reyes,Mabank,54.88,142.88,86.18,129.27,358.34,Single-ply,SBD,M
Boys,55.79,5,George Charcas,Canton,55.79,145.15,72.57,140.61,358.34,Single-ply,SBD,M
Boys,55.79,6,Aaron Godwin,Mabank,54.61,142.88,86.18,117.93,347,Single-ply,SBD,M
Boys,55.79,7,Zach Martin,Tyler Lee,55.79,145.15,61.23,136.08,342.46,Single-ply,SBD,M
Boys,55.79,8,Elijah Grogan,Tyler Lee,55.79,133.81,56.7,136.08,326.59,Single-ply,SBD,M
Boys,55.79,9,Johnny Ray,Garland Rowlett,55.79,102.06,65.77,124.74,292.57,Single-ply,SBD,M
Boys,55.79,10,Ferris Surles,Ferris,55.16,92.99,58.97,138.35,290.3,Single-ply,SBD,M
Boys,59.87,1,Gavin Starks,Mabank,59.78,170.1,92.99,165.56,428.64,Single-ply,SBD,M
Boys,59.87,2,Coleman Hardin,Frankston,57.06,172.37,81.65,158.76,412.77,Single-ply,SBD,M
Boys,59.87,3,Chance Cruz,Argyle,58.69,151.95,70.31,167.83,390.09,Single-ply,SBD,M
Boys,59.87,4,Noble Giles,Frankston,59.87,133.81,81.65,163.29,378.75,Single-ply,SBD,M
Boys,59.87,5,Carl Shehane,Quinlan Ford,57.97,151.95,77.11,136.08,365.14,Single-ply,SBD,M
Boys,59.87,6,Kollin Moss,Royse City,58.97,138.35,72.57,133.81,344.73,Single-ply,SBD,M
Boys,59.87,7,AC King,Mesquite Poteet,57.79,124.74,88.45,129.27,342.46,Single-ply,SBD,M
Boys,59.87,8,Kyle Amos,Royse City,57.15,131.54,58.97,142.88,333.39,Single-ply,SBD,M
Boys,59.87,9,Chad Collup,Scurry-Rosser,57.7,136.08,68.04,127.01,331.12,Single-ply,SBD,M
Boys,59.87,10,Jose Morin,Ferris,57.97,97.52,63.5,142.88,303.91,Single-ply,SBD,M
Boys,59.87,DQ,Aaron Mixell,Mesquite Poteet,59.87,,,,,Single-ply,SBD,M
Boys,67.13,1,TeVarri Graves,Tyler,65.68,192.78,104.33,192.78,489.88,Single-ply,SBD,M
Boys,67.13,2,Desmond Jones,Kemp,66.22,199.58,104.33,181.44,485.34,Single-ply,SBD,M
Boys,67.13,3,Tajohn Livingston,South Garland,61.96,174.63,79.38,215.46,469.47,Single-ply,SBD,M
Boys,67.13,4,Tyler Watts,Valley View,63.59,174.63,102.06,170.1,446.79,Single-ply,SBD,M
Boys,67.13,5,Aaron Carrillo,Quinlan Ford,66.95,154.22,95.25,174.63,424.11,Single-ply,SBD,M
Boys,67.13,6,Christian Morgan,North Mesquite,64.32,142.88,88.45,161.03,392.36,Single-ply,SBD,M
Boys,67.13,7,Bryce Gregory,Tyler Lee,67.04,147.42,83.91,154.22,385.55,Single-ply,SBD,M
Boys,67.13,8,JJ Beckfield,Frankston,60.33,147.42,74.84,161.03,383.29,Single-ply,SBD,M
Boys,67.13,9,Cameron Kong,Garland Rowlett,62.87,136.08,90.72,154.22,381.02,Single-ply,SBD,M
Boys,67.13,10,Dylan Brown,Mesquite Poteet,66.5,147.42,81.65,149.69,378.75,Single-ply,SBD,M
Boys,67.13,11,Jaydon Bashum,Waxahachie,60.42,131.54,86.18,145.15,362.87,Single-ply,SBD,M
Boys,67.13,12,Ethan Watson,Crandall,66.95,129.27,81.65,129.27,340.19,Single-ply,SBD,M
Boys,67.13,13,Jacoby Brown,Royse City,65.41,120.2,74.84,142.88,337.93,Single-ply,SBD,M
Boys,67.13,14,Baltazar Baez,Ferris,66.22,102.06,81.65,142.88,326.59,Single-ply,SBD,M
Boys,67.13,15,Henry Robinson,Argyle,66.04,104.33,56.7,158.76,319.78,Single-ply,SBD,M
Boys,67.13,16,Ethan Venner,Mesquite Poteet,59.96,129.27,52.16,124.74,306.17,Single-ply,SBD,M
Boys,67.13,17,Jacob Grimes,Crandall,64.05,117.93,79.38,106.59,303.91,Single-ply,SBD,M
Boys,67.13,18,Rea Fernando,Terrell,61.33,102.06,63.5,136.08,301.64,Single-ply,SBD,M
Boys,67.13,19,Oscar Miskell,Quinlan Ford,62.51,90.72,49.9,113.4,254.01,Single-ply,SBD,M
Boys,67.13,DQ,Sam Stewart,Denton Guyer,65.86,,,,,Single-ply,SBD,M
Boys,67.13,DQ,Jonathon Martin,Kaufman,60.87,,,,,Single-ply,SBD,M
Boys,67.13,DQ,Hunter Garrett,Quinlan Ford,66.77,195.04,,,,Single-ply,SBD,M
Boys,74.84,1,Brock Martin,Argyle,73.12,208.65,127.01,226.8,562.45,Single-ply,SBD,M
Boys,74.84,2,Daniel Dunn,North Mesquite,71.49,197.31,106.59,226.8,530.7,Single-ply,SBD,M
Boys,74.84,3,Trebion Battles,Garland Rowlett,72.12,197.31,104.33,226.8,528.44,Single-ply,SBD,M
Boys,74.84,4,Dee Johnson,Red Oak,74.48,197.31,106.59,197.31,501.22,Single-ply,SBD,M
Boys,74.84,5,Jared McLean,Tyler Lee,74.03,185.97,102.06,188.24,476.27,Single-ply,SBD,M
Boys,74.84,6,Jacob Lynch,Scurry-Rosser,68.67,181.44,106.59,181.44,469.47,Single-ply,SBD,M
Boys,74.84,7,Daniel Delgado,South Garland,74.57,179.17,99.79,190.51,469.47,Single-ply,SBD,M
Boys,74.84,8,Jamichael Turman,Tyler Lee,69.22,192.78,92.99,179.17,464.93,Single-ply,SBD,M
Boys,74.84,9,Gabriel Dexter,Forney,74.53,167.83,122.47,172.37,462.66,Single-ply,SBD,M
Boys,74.84,10,Anthony Martinez,Waxahachie,71.94,163.29,102.06,195.04,460.4,Single-ply,SBD,M
Boys,74.84,11,Xavier Gayle,Garland Rowlett,73.48,167.83,111.13,181.44,460.4,Single-ply,SBD,M
Boys,74.84,12,Logan Moffitt,Crandall,74.21,174.63,99.79,176.9,451.32,Single-ply,SBD,M
Boys,74.84,13,Terrius Younger,North Mesquite,68.58,161.03,95.25,190.51,446.79,Single-ply,SBD,M
Boys,74.84,14,Karien Howard,Duncanville,68.4,154.22,95.25,192.78,442.25,Single-ply,SBD,M
Boys,74.84,15,Greg Stringfellow,Argyle,74.3,172.37,97.52,170.1,439.98,Single-ply,SBD,M
Boys,74.84,16,Dalton Dale,Mesquite Poteet,74.84,167.83,111.13,158.76,437.72,Single-ply,SBD,M
Boys,74.84,17,Kevin Cooper,Red Oak,74.84,181.44,92.99,151.95,426.38,Single-ply,SBD,M
Boys,74.84,18,Griffin Merillat,Royse City,74.84,170.1,102.06,154.22,426.38,Single-ply,SBD,M
Boys,74.84,19,Gyasi Smith,Duncanville,69.94,142.88,97.52,183.7,424.11,Single-ply,SBD,M
Boys,74.84,20,Alex Khan,North Forney,69.22,154.22,74.84,161.03,390.09,Single-ply,SBD,M
Boys,74.84,21,Aaron Garcia,Ferris,74.48,136.08,86.18,165.56,387.82,Single-ply,SBD,M
Boys,74.84,22,Brian Alfaro,Ferris,74.84,147.42,92.99,145.15,385.55,Single-ply,SBD,M
Boys,74.84,23,Zackary Sanders,Red Oak,68.31,129.27,83.91,165.56,378.75,Single-ply,SBD,M
Boys,74.84,24,Antorius Hambric,North Forney,70.76,124.74,79.38,,204.12,Single-ply,SB,M
Boys,74.84,DQ,Jay Gasper,North Forney,67.77,165.56,,,,Single-ply,SB,M
Boys,74.84,DQ,Tony Miknavich,Garland Rowlett,74.21,,,,,Single-ply,SB,M
Boys,74.84,DQ,Sam Valdez,Rockwall-Heath,67.68,158.76,,,,Single-ply,SB,M
Boys,74.84,DQ,Keyshawn Rivas,Tyler Lee,74.3,,,,,Single-ply,SB,M
Boys,82.1,1,Alan Quezada,Kemp,81.83,244.94,165.56,224.53,635.03,Single-ply,SBD,M
Boys,82.1,2,Nick Golden,Argyle,81.47,224.53,95.25,278.96,598.74,Single-ply,SBD,M
Boys,82.1,3,Marcos Gallegos,Mabank,81.01,226.8,120.2,226.8,573.79,Single-ply,SBD,M
Boys,82.1,4,Avashe Daniyan,North Mesquite,81.28,183.7,124.74,238.14,546.58,Single-ply,SBD,M
Boys,82.1,5,Naton Edwards,Argyle,80.74,188.24,113.4,229.06,530.7,Single-ply,SBD,M
Boys,82.1,6,Jonathan Mendez,Kemp,79.74,204.12,117.93,199.58,521.63,Single-ply,SBD,M
Boys,82.1,7,Josh Hendricks,Royse City,81.37,188.24,108.86,224.53,521.63,Single-ply,SBD,M
Boys,82.1,8,Aaron Watson,Red Oak,81.47,188.24,113.4,201.85,503.49,Single-ply,SBD,M
Boys,82.1,9,John McCoy,Northwest Nelson,80.1,185.97,88.45,204.12,478.54,Single-ply,SBD,M
Boys,82.1,10,Noah Springer,Tyler Lee,82.1,172.37,106.59,183.7,462.66,Single-ply,SBD,M
Boys,82.1,11,Josh Lambert,Canton,78.47,163.29,97.52,192.78,453.59,Single-ply,SBD,M
Boys,82.1,12,Dakota Deal,Ferris,79.92,172.37,90.72,183.7,446.79,Single-ply,SBD,M
Boys,82.1,13,D'Angelo Lopez,Mesquite Poteet,77.93,147.42,111.13,174.63,433.18,Single-ply,SBD,M
Boys,82.1,14,Matthew Garcia,Ferris,80.47,158.76,86.18,170.1,415.04,Single-ply,SBD,M
Boys,82.1,15,Roby Robinson,North Forney,76.2,145.15,83.91,181.44,410.5,Single-ply,SBD,M
Boys,82.1,16,Natahn Ihle,Terrell,82.1,142.88,79.38,147.42,369.68,Single-ply,SBD,M
Boys,82.1,17,Raymond Sanchez,Terrell,76.2,117.93,88.45,151.95,358.34,Single-ply,SBD,M
Boys,82.1,18,Andrew Jaramilla,Royse City,76.66,79.38,61.23,131.54,272.16,Single-ply,SBD,M
Boys,82.1,DQ,Jordan Husketh,Tyler Lee,80.38,,,,,Single-ply,SBD,M
Boys,82.1,DQ,Tyler Garrett,Kemp,81.92,,,,,Single-ply,SBD,M
Boys,89.81,1,Matthew Rolen,Waxahachie,86.36,215.46,147.42,215.46,578.33,Single-ply,SBD,M
Boys,89.81,2,Anthony Perales,Red Oak,86.91,219.99,124.74,219.99,564.72,Single-ply,SBD,M
Boys,89.81,3,Byron Turner,North Mesquite,88.72,204.12,106.59,244.94,555.65,Single-ply,SBD,M
Boys,89.81,4,Jeremiah Record,Mesquite Poteet,87.27,181.44,142.88,217.72,542.04,Single-ply,SBD,M
Boys,89.81,5,Cj Presley,Mesquite Poteet,89.72,192.78,124.74,217.72,535.24,Single-ply,SBD,M
Boys,89.81,6,Kadarian Asbell,Tyler,89.81,206.38,120.2,206.38,532.97,Single-ply,SBD,M
Boys,89.81,7,Harley Manders,Kemp,89.81,208.65,127.01,181.44,517.1,Single-ply,SBD,M
Boys,89.81,8,Andrew Acosta,Scurry-Rosser,84.91,199.58,122.47,188.24,510.29,Single-ply,SBD,M
Boys,89.81,9,Jawuan Clark,North Mesquite,83.1,183.7,108.86,204.12,496.68,Single-ply,SBD,M
Boys,89.81,10,Tyler Bryant,Crandall,84.46,181.44,108.86,181.44,471.74,Single-ply,SBD,M
Boys,89.81,11,Daniel Trejo,Kaufman,86.45,181.44,99.79,188.24,469.47,Single-ply,SBD,M
Boys,89.81,12,Ameer Muhammad,Red Oak,88.9,161.03,104.33,183.7,449.06,Single-ply,SBD,M
Boys,89.81,13,Jake Rodriguez,Argyle,83.1,161.03,95.25,183.7,439.98,Single-ply,SBD,M
Boys,89.81,14,Angel Villa,Scurry-Rosser,89.72,181.44,108.86,149.69,439.98,Single-ply,SBD,M
Boys,89.81,15,Damoderic Wade,Garland Rowlett,84.1,170.1,102.06,142.88,415.04,Single-ply,SBD,M
Boys,89.81,16,Jaylin Smith,North Forney,87.18,138.35,102.06,158.76,399.16,Single-ply,SBD,M
Boys,89.81,17,Christian Ritchey,Ferris,85.28,161.03,83.91,151.95,396.89,Single-ply,SBD,M
Boys,89.81,18,Ryder Stanberry,Quinlan Ford,86.36,142.88,95.25,158.76,396.89,Single-ply,SBD,M
Boys,89.81,19,Hunter Lass,Quinlan Ford,87.36,138.35,90.72,163.29,392.36,Single-ply,SBD,M
Boys,89.81,20,Roman Gonzalez,Quinlan Ford,88.99,151.95,83.91,154.22,390.09,Single-ply,SBD,M
Boys,89.81,21,Jordan Colston,North Mesquite,87.91,158.76,102.06,113.4,374.21,Single-ply,SBD,M
Boys,89.81,DQ,Jeremiah Bradway,Canton,89.63,,,,,Single-ply,SBD,M
Boys,99.79,1,Caleb High,Waxahachie,94.89,276.69,167.83,281.23,725.75,Single-ply,SBD,M
Boys,99.79,2,Keagan Richardson,Mabank,92.99,226.8,142.88,215.46,585.13,Single-ply,SBD,M
Boys,99.79,3,Wes Wade,Mesquite Poteet,99.52,226.8,113.4,226.8,566.99,Single-ply,SBD,M
Boys,99.79,4,Chris Lockett,Garland Rowlett,95.8,226.8,115.67,215.46,557.92,Single-ply,SBD,M
Boys,99.79,5,Christian Hartsfield,Tyler,96.07,213.19,129.27,210.92,553.38,Single-ply,SBD,M
Boys,99.79,6,Rainier Corral,Valley View,91.35,210.92,111.13,229.06,551.11,Single-ply,SBD,M
Boys,99.79,7,Tyrell Jones,Tyler,96.16,197.31,138.35,210.92,546.58,Single-ply,SBD,M
Boys,99.79,8,Preston Young,Red Oak,97.98,215.46,124.74,206.38,546.58,Single-ply,SBD,M
Boys,99.79,9,Kenneth Randall,Kaufman,93.62,204.12,102.06,233.6,539.77,Single-ply,SBD,M
Boys,99.79,10,Pedro Tobar,South Garland,96.8,208.65,113.4,215.46,537.51,Single-ply,SBD,M
Boys,99.79,11,Jack Bussey,Scurry-Rosser,97.07,226.8,108.86,181.44,517.1,Single-ply,SBD,M
Boys,99.79,12,Graham Burns,Forney,98.88,210.92,106.59,199.58,517.1,Single-ply,SBD,M
Boys,99.79,13,Samuel Garza,Quinlan Ford,96.07,201.85,108.86,199.58,510.29,Single-ply,SBD,M
Boys,99.79,14,Sedrick Richardson,North Mesquite,91.08,181.44,111.13,190.51,483.08,Single-ply,SBD,M
Boys,99.79,15,Jordan Patterson,North Mesquite,95.71,183.7,111.13,183.7,478.54,Single-ply,SBD,M
Boys,99.79,16,Tyler Hudson,North Forney,98.34,181.44,104.33,185.97,471.74,Single-ply,SBD,M
Boys,99.79,17,Curtis Kitchen,Forney,97.98,183.7,115.67,170.1,469.47,Single-ply,SBD,M
Boys,99.79,18,Teon Dunkley,Tyler Lee,93.35,174.63,106.59,183.7,464.93,Single-ply,SBD,M
Boys,99.79,19,Kyle Kelly,Scurry-Rosser,93.62,170.1,99.79,195.04,464.93,Single-ply,SBD,M
Boys,99.79,20,Clif Funderburk,North Forney,97.07,167.83,95.25,199.58,462.66,Single-ply,SBD,M
Boys,99.79,21,Devin Franceis,North Forney,93.89,174.63,102.06,183.7,460.4,Single-ply,SBD,M
Boys,99.79,22,Marcial Loa,Ferris,95.53,181.44,102.06,170.1,453.59,Single-ply,SBD,M
Boys,99.79,23,Tim Vickery,Royse City,98.97,190.51,102.06,145.15,437.72,Single-ply,SBD,M
Boys,99.79,24,Nathane Deeb,Frankston,95.16,154.22,95.25,154.22,403.7,Single-ply,SBD,M
Boys,99.79,25,Gunner Boswell,Canton,94.71,115.67,65.77,138.35,319.78,Single-ply,SBD,M
Boys,109.77,1,Chris Boone,Duncanville,104.96,247.21,138.35,229.06,614.62,Single-ply,SBD,M
Boys,109.77,2,Erik Gonzalez,Valley View,104.42,238.14,147.42,210.92,596.47,Single-ply,SBD,M
Boys,109.77,3,Owen Petrie,Argyle,108.86,213.19,127.01,242.67,582.87,Single-ply,SBD,M
Boys,109.77,4,Montana Booker,Kaufman,108.41,226.8,115.67,226.8,569.26,Single-ply,SBD,M
Boys,109.77,5,William Cotton,Quinlan Ford,103.69,226.8,111.13,226.8,564.72,Single-ply,SBD,M
Boys,109.77,6,Alejandro Moreno,Waxahachie,106.32,208.65,136.08,219.99,564.72,Single-ply,SBD,M
Boys,109.77,7,Owen Higbee,Rockwall-Heath,101.51,183.7,102.06,238.14,523.9,Single-ply,SBD,M
Boys,109.77,8,Kevin Castillo,Quinlan Ford,106.05,183.7,127.01,210.92,521.63,Single-ply,SBD,M
Boys,109.77,9,Malik Griffin,Terrell,108.77,204.12,108.86,188.24,501.22,Single-ply,SBD,M
Boys,109.77,10,Chandler Davis,Mesquite Poteet,104.14,183.7,138.35,176.9,498.95,Single-ply,SBD,M
Boys,109.77,11,Matthew Bryant,Quinlan Ford,109.32,197.31,117.93,183.7,498.95,Single-ply,SBD,M
Boys,109.77,12,Zyaun Jones,Red Oak,107.23,179.17,124.74,192.78,496.68,Single-ply,SBD,M
Boys,109.77,13,Justin Hicks,Kaufman,108.95,199.58,97.52,199.58,496.68,Single-ply,SBD,M
Boys,109.77,14,Samuel Lopez,Ferris,106.87,176.9,113.4,183.7,474,Single-ply,SBD,M
Boys,109.77,15,Carson Reneau,Scurry-Rosser,105.96,183.7,111.13,142.88,437.72,Single-ply,SBD,M
Boys,109.77,16,Matthew Acton,Canton,101.79,181.44,88.45,147.42,417.3,Single-ply,SBD,M
Boys,109.77,17,Jason Pineda,Quinlan Ford,102.51,165.56,83.91,165.56,415.04,Single-ply,SBD,M
Boys,109.77,18,Aiden Rose,Royse City,104.05,129.27,65.77,158.76,353.8,Single-ply,SBD,M
Boys,109.77,19,Ian Cerrion,Royse City,102.6,102.06,56.7,124.74,283.5,Single-ply,SBD,M
Boys,109.77,DQ,Cullen Smith,Mabank,108.95,,,,,Single-ply,SBD,M
Boys,124.74,1,Lazaro Garcia,South Garland,113.67,290.3,170.1,276.69,737.09,Single-ply,SBD,M
Boys,124.74,2,Jaime Cortez,Royse City,113.4,301.64,154.22,256.28,712.14,Single-ply,SBD,M
Boys,124.74,3,David Partida,Rockwall-Heath,119.2,267.62,165.56,226.8,659.98,Single-ply,SBD,M
Boys,124.74,4,Leo Figueroa,Ferris,122.11,249.48,147.42,192.78,589.67,Single-ply,SBD,M
Boys,124.74,5,Jake Palmer,Forney,117.93,226.8,131.54,210.92,569.26,Single-ply,SBD,M
Boys,124.74,6,Marcus Sanchez,South Garland,124.38,235.87,129.27,204.12,569.26,Single-ply,SBD,M
Boys,124.74,7,Denton Ross,Waxahachie,120.47,215.46,138.35,210.92,564.72,Single-ply,SBD,M
Boys,124.74,8,Darius Dunlap,Garland Rowlett,111.95,226.8,129.27,197.31,553.38,Single-ply,SBD,M
Boys,124.74,9,Chris Solis,Garland Rowlett,110.4,204.12,136.08,185.97,526.17,Single-ply,SBD,M
Boys,124.74,10,Billy Overton,Denton Guyer,123.2,210.92,120.2,195.04,526.17,Single-ply,SBD,M
Boys,124.74,11,Clayton Johnson,Scurry-Rosser,121.83,206.38,115.67,192.78,514.83,Single-ply,SBD,M
Boys,124.74,12,Ian Mitha,Mesquite Poteet,122.2,181.44,120.2,199.58,501.22,Single-ply,SBD,M
Boys,124.74,13,Cade Crawford,Forney,118.84,215.46,122.47,161.03,498.95,Single-ply,SBD,M
Boys,124.74,14,Samari Driggs,Duncanville,123.83,167.83,124.74,204.12,496.68,Single-ply,SBD,M
Boys,124.74,15,Christian Villalobos,South Garland,111.77,197.31,104.33,183.7,485.34,Single-ply,SBD,M
Boys,124.74,16,Mark Sanchez,North Mesquite,124.28,188.24,92.99,204.12,485.34,Single-ply,SBD,M
Boys,124.74,17,Jeremiah Franks,Garland Rowlett,121.47,197.31,83.91,185.97,467.2,Single-ply,SBD,M
Boys,124.74,18,Jayton Polley,Argyle,111.13,158.76,111.13,195.04,464.93,Single-ply,SBD,M
Boys,124.74,19,Caden Saffel,Canton,123.74,185.97,88.45,163.29,437.72,Single-ply,SBD,M
Boys,124.74,20,Kain Cooper,Red Oak,119.02,181.44,88.45,147.42,417.3,Single-ply,SBD,M
Boys,124.74,21,Brandon Laird,Scurry-Rosser,121.29,210.92,108.86,,319.78,Single-ply,SB,M
Boys,124.74,22,Jeremy Lambert,Canton,112.94,158.76,81.65,,240.4,Single-ply,SB,M
Boys,124.74,DQ,Gage Dillon,Crandall,113.4,,88.45,,,Single-ply,SB,M
Boys,124.74,DQ,Hunter Carter,Quinlan Ford,114.85,226.8,,,,Single-ply,SB,M
Boys,124.74+,1,Josh Jackson,Rockwall-Heath,137.98,317.51,181.44,288.03,786.98,Single-ply,SBD,M
Boys,124.74+,2,Esteban Cervantes,Valley View,126.01,285.76,163.29,240.4,689.46,Single-ply,SBD,M
Boys,124.74+,3,Dakota Smith,Canton,148.14,294.84,161.03,226.8,682.66,Single-ply,SBD,M
Boys,124.74+,4,Jaden Webb,Royse City,126.1,269.89,145.15,244.94,659.98,Single-ply,SBD,M
Boys,124.74+,5,Gabriel Aplicano-Tito,Garland Rowlett,127.73,247.21,154.22,244.94,646.37,Single-ply,SBD,M
Boys,124.74+,6,TreJon Blake,Tyler,127.37,272.16,131.54,240.4,644.1,Single-ply,SBD,M
Boys,124.74+,7,De'Braylon Carroll,Duncanville,134.17,231.33,154.22,238.14,623.69,Single-ply,SBD,M
Boys,124.74+,8,Elian Perea,Kaufman,132.63,242.67,140.61,217.72,601.01,Single-ply,SBD,M
Boys,124.74+,9,Gabe Collins,Rockwall-Heath,147.51,238.14,131.54,226.8,596.47,Single-ply,SBD,M
Boys,124.74+,10,Andrew Zamora,Rockwall-Heath,141.16,233.6,140.61,215.46,589.67,Single-ply,SBD,M
Boys,124.74+,11,Damien Mantooth,Red Oak,134.72,238.14,136.08,206.38,580.6,Single-ply,SBD,M
Boys,124.74+,12,Drew Nunn,Canton,131.36,249.48,106.59,215.46,571.53,Single-ply,SBD,M
Boys,124.74+,13,Demaree Gay,Crandall,153.04,238.14,127.01,195.04,560.19,Single-ply,SBD,M
Boys,124.74+,14,Barak Gurnell,Duncanville,128.28,206.38,115.67,226.8,548.85,Single-ply,SBD,M
Boys,124.74+,15,Cam Rogers,North Forney,165.56,213.19,117.93,213.19,544.31,Single-ply,SBD,M
Boys,124.74+,16,Jordan Phillips,Duncanville,153.77,210.92,115.67,210.92,537.51,Single-ply,SBD,M
Boys,124.74+,17,Payton McClain,Red Oak,141.97,201.85,138.35,188.24,528.44,Single-ply,SBD,M
Boys,124.74+,18,Xzavier Augustus,Red Oak,143.06,197.31,127.01,201.85,526.17,Single-ply,SBD,M
Boys,124.74+,19,Joshua McClaskey,Tyler Lee,138.8,215.46,117.93,190.51,523.9,Single-ply,SBD,M
Boys,124.74+,20,Hunter Jernigan,Tyler Lee,124.92,190.51,138.35,188.24,517.1,Single-ply,SBD,M
Boys,124.74+,21,Joshua Qualls,Duncanville,134.44,201.85,113.4,195.04,510.29,Single-ply,SBD,M
Boys,124.74+,22,Vontreal Turner,Tyler Lee,165.92,213.19,92.99,204.12,510.29,Single-ply,SBD,M
Boys,124.74+,23,Kyan Milton,Tyler Lee,128.19,204.12,111.13,190.51,505.76,Single-ply,SBD,M
Boys,124.74+,24,Josh Hicks,Argyle,126.01,181.44,117.93,163.29,462.66,Single-ply,SBD,M
